﻿#############################################################################################
##################################### ENG History File ######################################
#############################################################################################

#########################################################################################
####################################### Politics ########################################
#########################################################################################
	set_politics = {
		ruling_party = democratic
		last_election = "1935.11.14"
		election_frequency = 48
		elections_allowed = yes ##suspended through duration of war, which is handled via event
	}

	set_popularities = {
		democratic = 100
		fascism = 0
		communism = 0
		neutrality = 0
	}

	recruit_character = ENG_stanley_baldwin

	1937.5.28 = {
		retire_character = ENG_stanley_baldwin
		recruit_character = ENG_neville_chamberlain
		promote_character = ENG_neville_chamberlain
	}

	1940.5.11 = {
		retire_character = ENG_neville_chamberlain
		recruit_character = ENG_winston_churchill
		promote_character = ENG_winston_churchill
	}

	set_autonomy = { target = CAN autonomy_state = autonomy_dominion freedom_level = 0.5 }
	set_autonomy = { target = IRQ autonomy_state = autonomy_colony freedom_level = 0.5 }
	puppet = EGY
	EGY = { set_cosmetic_tag = SUBJECT_OF_ENG }
	save_global_event_target_as = operation_husky_commonwealth
	add_to_tech_sharing_group = commonwealth_research
	create_faction = Allies
	add_to_faction = ENG
	add_to_faction = CAN

	if = {
		limit = {
			has_start_date < 1940.5.10
		}
		DNZ = { keep_current_politics = yes }
		set_autonomy = { target = DNZ autonomy_state = autonomy_dominion freedom_level = 0.5 }
	}

	1940.5.10 = {
		add_to_faction = FRA
		add_to_faction = BEL
		add_to_faction = HOL
		add_to_faction = LUX
		add_to_faction = POL
		add_to_faction = NOR
		set_country_flag = colonial_dependence
		# POL = { become_exiled_in = { target = ENG legitimacy = 60 } }
		# NOR = { become_exiled_in = { target = ENG legitimacy = 30 } }
	}
	1941.6.22 = {
		add_to_faction = YUG
		add_to_faction = GRE

		# BEL = { become_exiled_in = { target = ENG legitimacy = 70 } }
		# HOL = { become_exiled_in = { target = ENG legitimacy = 70 } }
		# LUX = { become_exiled_in = { target = ENG legitimacy = 40 } }
		# YUG = { become_exiled_in = { target = ENG legitimacy = 50 } }
		# GRE = { become_exiled_in = { target = ENG legitimacy = 60 } }
	}
	1942.11.19 = {
		add_to_faction = USA
		add_to_faction = LEB
		#ENG = { end_exile = BEL }
	}
	1944.6.6 = {
		add_to_faction = KIT
	}
	1944.12.16 = {
		add_to_faction = FIN
	}
#########################################################################################

#########################################################################################
####################################### Characters ######################################
#########################################################################################
	if = {
		limit = {
			has_dlc = "La Resistance"
		}
		create_operative_leader = {
			name = "Nancy Wake"
			GFX = GFX_portrait_nancy_wake
			traits = { operative_escape_artist }
			bypass_recruitment = no
			available_to_spy_master = yes
			female = yes
			nationalities = { ENG }
		}

		create_operative_leader = {
			name = "Diana Rowden"
			GFX = GFX_portrait_diana_rowden
			traits = { }
			bypass_recruitment = no
			available_to_spy_master = yes
			female = yes
			nationalities = { ENG }
		}

		create_operative_leader = {
			name = "Juan Pujol"
			GFX = GFX_portrait_juan_pujol
			traits = { operative_double_agent }
			bypass_recruitment = no
			available_to_spy_master = yes
			nationalities = { ENG GER }
		}

		create_operative_leader = {
			name = "Dusko Popov"
			GFX = GFX_portrait_dusko_popov
			traits = { operative_double_agent }
			bypass_recruitment = no
			available_to_spy_master = yes
			nationalities = { ENG GER YUG }
		}
	}

	# Order matters - here Chamberlain becomes starting leader
	recruit_character = ENG_oswald_mosley
	recruit_character = ENG_harry_pollitt
	recruit_character = ENG_alan_brooke
	recruit_character = ENG_bernard_montgomery
	recruit_character = ENG_claude_auchinleck
	recruit_character = ENG_neil_ritchie
	recruit_character = ENG_alan_cunningham
	recruit_character = ENG_william_slim
	recruit_character = ENG_richard_oconnor
	recruit_character = ENG_william_platt
	recruit_character = ENG_george_giffard
	recruit_character = ENG_harold_alexander
	recruit_character = ENG_jackie_smyth
	recruit_character = ENG_thomas_jacomb_hutton
	recruit_character = ENG_arthur_percival
	recruit_character = ENG_merton_beckwithsmith
	recruit_character = ENG_henry_pownall
	recruit_character = ENG_john_vereker
	recruit_character = ENG_henry_wilson
	recruit_character = ENG_william_gott
	recruit_character = ENG_jock_campbell
	recruit_character = ENG_oliver_leese
	recruit_character = ENG_miles_dempsey
	recruit_character = ENG_brian_horrocks
	recruit_character = ENG_archibald_wavell
	recruit_character = ENG_james_fownes_somerville
	recruit_character = ENG_henry_harwood
	recruit_character = ENG_andrew_cunningham
	recruit_character = ENG_bruce_fraser
	recruit_character = ENG_john_tovey
	recruit_character = ENG_bernard_rawlings
	recruit_character = ENG_john_cunningham
	recruit_character = ENG_charles_forbes
	recruit_character = ENG_algernon_willis
	recruit_character = ENG_arthur_power
	recruit_character = ENG_horatio_dundas
	recruit_character = ENG_edmund_ironside
	recruit_character = ENG_david_stirling
	recruit_character = ENG_james_somerville
	recruit_character = ENG_kenneth_anderson
	recruit_character = ENG_louis_mountbatten
	recruit_character = ENG_arthur_harris
	recruit_character = ENG_james_chadwick
	recruit_character = ENG_jfc_fuller
	recruit_character = ENG_frank_whittle
	recruit_character = ENG_random_communist_minister_15
	recruit_character = ENG_random_communist_minister_14
	recruit_character = ENG_ernle_chatfield
	recruit_character = ENG_trafford_leigh_mallory
	recruit_character = ENG_max_horton
	recruit_character = ENG_tom_phillips
	recruit_character = ENG_hugh_dowding
	recruit_character = ENG_charles_portal
	recruit_character = ENG_dudley_pound
	recruit_character = ENG_frederick_bowhill
	recruit_character = ENG_cyril_newall
	recruit_character = ENG_sholto_douglas
	recruit_character = ENG_edward_ellington

	recruit_character = ENG_john_beckett
	recruit_character = ENG_alan_turing
	recruit_character = ENG_clement_attlee
	recruit_character = ENG_ernest_bevin
	recruit_character = ENG_leslie_hore_belisha
	recruit_character = ENG_george_orwell
	recruit_character = ENG_nevile_henderson
	recruit_character = ENG_random_communist_minister_8
	recruit_character = ENG_random_communist_minister_9
	recruit_character = ENG_random_communist_minister_1
	recruit_character = ENG_random_communist_minister_2
	recruit_character = ENG_random_communist_minister_3
	recruit_character = ENG_random_communist_minister_4
	recruit_character = ENG_random_communist_minister_5
	recruit_character = ENG_random_communist_minister_6
	recruit_character = ENG_random_communist_minister_7
	recruit_character = ENG_random_communist_minister_13
	recruit_character = ENG_random_communist_minister_12
	recruit_character = ENG_random_communist_minister_11
	recruit_character = ENG_random_communist_minister_10
	recruit_character = ENG_mary_sophia_allen
	recruit_character = ENG_philip_kerr
	recruit_character = ENG_sylvia_pankhurst
	recruit_character = ENG_stewart_menzies
	recruit_character = ENG_maxwell_aitken
	recruit_character = ENG_thomas_moore
#########################################################################################

#########################################################################################
################################ Equipment and Research #################################
#########################################################################################
	set_convoys = 600
	set_research_slots = 4
	capital = 325
	set_stability = 0.6
	set_war_support = 0.1


	1936.1.1 = {
		set_technology = {
			infantry_weapons = 1
			infantry_weapons1 = 1
			armored_car1 = 1
			motorised_infantry = 1
			marines = 1
			tech_mountaineers = 1
			tech_support = 1
			tech_engineers = 1
			tech_field_hospital = 1
			tech_signal_company = 1
			basic_train = 1
			gwtank_chassis = 1
			basic_light_tank_chassis = 1
			basic_heavy_tank_chassis = 1
			gw_artillery = 1
			interwar_antiair = 1
			interwar_antitank = 1
			early_ship_hull_light = 1
			basic_ship_hull_light = 1
			smoke_generator = 1
			basic_depth_charges = 1
			sonar = 1
			early_ship_hull_heavy = 1
			basic_ship_hull_heavy = 1
			early_ship_hull_carrier = 1
			basic_ship_hull_carrier = 1
			basic_torpedo = 1
			early_ship_hull_submarine = 1
			basic_battery = 1
			basic_light_battery = 1
			basic_medium_battery = 1
			basic_heavy_battery = 1
			basic_secondary_battery = 1
			mtg_transport = 1
			early_fighter = 1
			fighter1 = 1
			cv_early_fighter = 1
			CAS1 = 1
			cv_CAS1 = 1
			naval_bomber1 = 1
			cv_naval_bomber1 = 1
			early_bomber = 1
			tactical_bomber1 = 1
			radio = 1
			radio_detection = 1
			fuel_silos = 1
			fuel_refining = 1
			trench_warfare = 1
			fleet_in_being = 1
			battlefleet_concentration = 1
			subsidiary_carrier_role = 1
			force_rotation = 1
			fighter_baiting = 1

			# Manually added
			improved_light_tank_chassis = 1
		}
	}
	1940.5.10 = {
		set_technology = {
			support_weapons = 1
			infantry_weapons2 = 1
			armored_car2 = 1
			mechanised_infantry = 1
			paratroopers = 1
			marines2 = 1
			tech_mountaineers2 = 1
			tech_special_forces = 1
			tech_engineers2 = 1
			tech_sappers = 1
			tech_flamethrower = 1
			tech_recon = 1
			tech_military_police = 1
			tech_maintenance_company = 1
			tech_field_hospital2 = 1
			tech_logistics_company = 1
			tech_signal_company2 = 1
			railway_gun = 1
			improved_heavy_tank_chassis = 1
			amphibious_tank_chassis = 1
			armor_tech_1 = 1
			engine_tech_1 = 1
			interwar_artillery = 1
			artillery1 = 1
			antiair1 = 1
			antiair2 = 1
			antitank1 = 1
			antitank2 = 1
			improved_depth_charges = 1
			improved_sonar = 1
			early_ship_hull_cruiser = 1
			improved_airplane_launcher = 1
			basic_heavy_armor_scheme = 1
			improved_light_battery = 1
			basic_light_shell = 1
			improved_medium_battery = 1
			basic_medium_shell = 1
			improved_heavy_battery = 1
			basic_heavy_shell = 1
			improved_secondary_battery = 1
			mtg_landing_craft = 1
			fighter2 = 1
			cv_fighter1 = 1
			CAS2 = 1
			cv_CAS2 = 1
			tactical_bomber2 = 1
			scout_plane1 = 1
			electronic_mechanical_engineering = 1
			decimetric_radar = 1
			atomic_research = 1
			basic_machine_tools = 1
			improved_machine_tools = 1
			dispersed_industry = 1
			dispersed_industry2 = 1
			construction1 = 1
			construction2 = 1
			excavation1 = 1
			fuel_refining2 = 1
			rubber_processing = 1
			grand_battle_plan = 1
			prepared_defense = 1
			hunter_killer_groups = 1
			floating_fortress = 1
			low_echelon_support = 1
			dispersed_fighting = 1

		}
	}
	1941.6.21 = {
		set_technology = {
			support_weapons2 = 1
			improved_infantry_weapons = 1
			armored_car3 = 1
			mechanised_infantry2 = 1
			improved_special_forces = 1
			tech_sappers2 = 1
			tech_recon2 = 1
			wartime_train = 1
			armored_train = 1
			advanced_light_tank_chassis = 1
			basic_medium_tank_chassis = 1
			advanced_heavy_tank_chassis = 1
			amphibious_drive = 1
			armor_tech_2 = 1
			engine_tech_2 = 1
			artillery2 = 1
			antiair3 = 1
			antitank3 = 1
			improved_ship_hull_light = 1
			basic_ship_hull_cruiser = 1
			basic_cruiser_armor_scheme = 1
			improved_ship_hull_heavy = 1
			improved_heavy_armor_scheme = 1
			improved_ship_hull_carrier = 1
			magnetic_detonator = 1
			dp_secondary_battery = 1
			fighter3 = 1
			cv_fighter2 = 1
			CAS3 = 1
			cv_CAS3 = 1
			naval_bomber2 = 1
			tactical_bomber3 = 1
			strategic_bomber1 = 1
			mechanical_computing = 1
			improved_decimetric_radar = 1
			basic_fire_control_system = 1
			nuclear_reactor = 1
			advanced_machine_tools = 1
			dispersed_industry3 = 1
			construction3 = 1
			fuel_refining3 = 1
			synth_oil_experiments = 1
			improved_rubber_processing = 1
			grand_assault = 1
			floating_airfield = 1
			operational_destruction = 1

		}
	}
	1942.11.19 = {
		set_technology = {
			support_weapons3 = 1
			improved_infantry_weapons_2 = 1
			infantry_at = 1
			armored_car_at_upgrade = 1
			paratroopers2 = 1
			marines3 = 1
			tech_mountaineers3 = 1
			survival_training = 1
			tech_engineers3_1 = 1
			tech_flamethrower2 = 1
			tech_military_police2 = 1
			tech_maintenance_company2 = 1
			tech_field_hospital3 = 1
			tech_logistics_company2 = 1
			tech_signal_company3 = 1
			improved_medium_tank_chassis = 1
			armor_tech_3 = 1
			engine_tech_3 = 1
			rocket_artillery = 1
			antiair4 = 1
			antitank4 = 1
			advanced_depth_charges = 1
			basic_ship_hull_submarine = 1
			improved_light_shell = 1
			improved_medium_shell = 1
			improved_heavy_shell = 1
			damage_control_1 = 1
			fire_control_methods_1 = 1
			fighter4 = 1
			cv_fighter3 = 1
			CAS4 = 1
			cv_naval_bomber2 = 1
			heavy_fighter1 = 1
			computing_machine = 1
			centimetric_radar = 1
			combined_nuclear_effort = 1
			dispersed_industry4 = 1
			construction4 = 1
			excavation2 = 1
			fuel_refining4 = 1
			advanced_rubber_processing = 1
			infantry_offensive = 1
			grand_battlefleet = 1
			fighter_veteran_initiative = 1

		}
	}
	1943.7.11 = {
		set_technology = {
			support_weapons4 = 1
			advanced_infantry_weapons = 1
			infantry_at2 = 1
			mechanised_infantry3 = 1
			jaegers = 1
			shocktroops = 1
			desertinfantry_at = 1
			tech_recon3 = 1
			advanced_medium_tank_chassis = 1
			semi_modern_heavy_tank_chassis = 1
			improved_amphibious_tank_chassis = 1
			artillery3 = 1
			antiair5 = 1
			antitank5 = 1
			improved_cruiser_armor_scheme = 1
			improved_ship_torpedo_launcher = 1
			improved_ship_hull_submarine = 1
			basic_submarine_snorkel = 1
			cv_fighter4 = 1
			cv_CAS4 = 1
			naval_bomber3 = 1
			tactical_bomber4 = 1
			strategic_bomber2 = 1
			scout_plane2 = 1
			improved_computing_machine = 1
			improved_centimetric_radar = 1
			improved_fire_control_system = 1
			advanced_moderators = 1
			assembly_line_production = 1
			oil_processing = 1
			armored_operations = 1
			infiltration_assault = 1
			convoy_sailing = 1
			naval_strike_torpedo_tactics_oi = 1

		}
	}
	1944.6.6 = {
		set_technology = {
			night_vision = 1
			tech_sappers3 = 1
			tech_military_police3 = 1
			tech_maintenance_company3 = 1
			tech_logistics_company3 = 1
			semi_modern_medium_tank_chassis = 1
			armor_tech_4 = 1
			engine_tech_4 = 1
			artillery4 = 1
			rocket_artillery2 = 1
			antiair_a = 1
			antitank_a = 1
			modern_depth_charges = 1
			improved_ship_hull_cruiser = 1
			advanced_ship_hull_heavy = 1
			advanced_ship_hull_carrier = 1
			electric_torpedo = 1
			advanced_ship_torpedo_launcher = 1
			advanced_light_battery = 1
			advanced_medium_battery = 1
			advanced_heavy_battery = 1
			damage_control_2 = 1
			fire_control_methods_2 = 1
			mtg_tank_landing_craft = 1
			fighter5 = 1
			CAS5 = 1
			naval_bomber4 = 1
			cv_naval_bomber3 = 1
			heavy_fighter2 = 1
			strategic_bomber3 = 1
			advanced_computing_machine = 1
			advanced_centimetric_radar = 1
			nukes = 1
			dispersed_industry5 = 1
			construction5 = 1
			excavation3 = 1
			fuel_refining5 = 1
			modern_rubber_processing = 1
			night_assault_tactics = 1
			convoy_escorts = 1
			cas_veteran_initiative = 1

		}
	}
	1944.12.16 = {
		set_technology = {
			advanced_infantry_weapons2 = 1
			infantry_at_a = 1
			mechanised_infantry4 = 1
			paratroopers3 = 1
			marines4 = 1
			tech_mountaineers4 = 1
			jaegers2 = 1
			shocktroops2 = 1
			desertinfantry_at2 = 1
			elite_forces = 1
			tech_engineers4 = 1
			tech_flamethrower3 = 1
			tech_field_hospital4 = 1
			tech_signal_company4 = 1
			artillery5 = 1
			advanced_ship_hull_light = 1
			homing_torpedo = 1
			cv_fighter5 = 1
			cv_CAS5 = 1
			cv_naval_bomber4 = 1
			tactical_bomber5 = 1
			heavy_fighter3 = 1
			advanced_fire_control_system = 1
			streamlined_line = 1
			improved_oil_processing = 1
			attritional_containment = 1
			escort_carriers = 1
			submarine_operations = 1
			carousel_bombing = 1

		}
	}
	1945.1.1 = {
		set_technology = {
			tech_recon4 = 1
			semi_modern_light_tank_chassis = 1
			artillery_a = 1
			rocket_artillery3 = 1
			antiair_b = 1
			antitank_b = 1
			damage_control_3 = 1
			fire_control_methods_3 = 1
			strategic_bomber4 = 1
			future_radar = 1
			excavation4 = 1
			fuel_refining6 = 1
			rubber_plant_a = 1
			infiltration_in_depth = 1
			integrated_convoy_defence = 1
			undersea_blockade = 1
			infiltration_bombing = 1

		}
	}
#########################################################################################

#########################################################################################
######################################## Ideas ##########################################
#########################################################################################
	1936.1.1 = {
		add_ideas = {
			stiff_upper_lip
			ENG_the_war_to_end_all_wars
			george_v
			large_education_investment
		}
	}
	1940.5.10 = {
		add_ideas = {
			ENG_ernest_bevin
			bernard_montgomery
			rsaf_enfield
			archibald_wavell
			charles_portal
			english_electric

			#laws
			partial_economic_mobilisation
			limited_conscription
			age_18

			ENG_george_vi
		}
		remove_ideas = george_v #Dead
	}
	1941.6.21 = {
		add_ideas = {
			war_economy
			extensive_conscription
			age_17
			censored_press
		}
	}
	1942.11.19 = {
		add_ideas = {

		}
	}
	1943.7.11 = {
		add_ideas = {

		}
	}
	1944.6.6 = {
		add_ideas = {

		}
	}

	1944.12.16 = {
		add_ideas = {

		}
	}
	1945.1.1 = {
		add_ideas = {

		}
	}
#########################################################################################

#########################################################################################
######################################## Focuses ########################################
#########################################################################################
	1940.5.10 = {
		complete_national_focus = limited_rearmament_focus 				#70
		complete_national_focus = shadow_scheme_focus					#70
		complete_national_focus = allies_ENG_expand_shadow_factories	#70
		unlock_national_focus = uk_industrial_focus						#45
		complete_national_focus = general_rearmament_focus				#45
		complete_national_focus = royal_ordinance_focus					#45
		complete_national_focus = uk_extra_tech_slot					#70
		complete_national_focus = uk_empire_focus						#30
		complete_national_focus = uk_colonial_focus						#45
		complete_national_focus = uk_commonwealth_focus					#30
		complete_national_focus = uk_canada_focus						#45
		complete_national_focus = uk_australia_focus					#45
		complete_national_focus = uk_new_zealand_focus					#45
		complete_national_focus = uk_india_focus						#45
		complete_national_focus = uk_south_africa_focus					#45
		complete_national_focus = ENG_imperial_conference				#45
		complete_national_focus = uk_small_arms_focus					#30
		complete_national_focus = air_defense_focus						#30
		unlock_national_focus = radar_focus								#30
		complete_national_focus = air_rearmament_focus					#35
		complete_national_focus = ENG_steady_as_she_goes				#35
		complete_national_focus = ENG_home_defence						#30
		complete_national_focus = ENG_prepare_for_the_inevitable 		#35
		complete_national_focus = ENG_issue_gasmasks					#40
		unlock_national_focus = fighter_command_focus					#35
		unlock_national_focus = bomber_command_focus					#35
		unlock_national_focus = coastal_command_focus					#35
		complete_national_focus = aircraft_production_focus				#35
		complete_national_focus = allies_ENG_spitfire					#60
		complete_national_focus = ENG_buy_the_cmp_truck					#45
		complete_national_focus = ENG_cruiser_tanks						#35
		complete_national_focus = allies_ENG_found_joint_intelligence_committee #20
		unlock_national_focus = allies_middle_eastern_policy 			#20
		complete_national_focus = allies_enforce_petroleum_quota_iraq 	#45
		complete_national_focus = allies_ban_golden_square_iraq 		#35
		complete_national_focus = uk_mediterranean_focus				#30
		unlock_national_focus = ENG_british_commonwealth_air_training_plan #20
		complete_national_focus = uk_rock_focus							#30
		complete_national_focus = uk_malta_focus						#35
		complete_national_focus = ENG_military_training_act				#30
		complete_national_focus = crypto_bomb_focus						#30
	}

	1941.6.22 = {
		complete_national_focus = ENG_operation_catapult				#45
		complete_national_focus = uk_balkan_strategy					#30
		complete_national_focus = uk_sanction_italy_focus				#30
		complete_national_focus = ENG_embargo_germany					#20
		unlock_national_focus = tizard_mission_focus					#35
		complete_national_focus = maud_focus							#30
		complete_national_focus = ENG_discovery_of_nuclear_fission		#30
		complete_national_focus = ENG_rather_splendid_cromwell			#35
		unlock_national_focus = allies_prepare_for_african_campaign		#20
		unlock_national_focus = allies_operation_compass				#35
		complete_national_focus = uk_protect_suez						#35
		unlock_national_focus = allies_operation_sabine					#45
		complete_national_focus = uk_scandinavian_focus					#35
		complete_national_focus = allies_el_alamein_fortifications		#30
	}

	1942.11.19 = {
		complete_national_focus = ENG_chiefs_of_staff_committee			#30
		complete_national_focus = ENG_a_comet_strikes					#35
		unlock_national_focus = allies_operation_brevity_battleaxe		#35
		unlock_national_focus = allies_operation_crusader				#35
		unlock_national_focus = allies_ultimatum_to_iran				#35
		unlock_national_focus = allies_operation_countenance			#45
		unlock_national_focus = allies_depose_the_shah					#35
		complete_national_focus = allies_ENG_supermarine_spiteful		#45
		complete_national_focus = ENG_tube_alloys_project				#45
		complete_national_focus = allies_cairo_fallback_line			#30
		complete_national_focus = uk_amphibious_focus					#45
		complete_national_focus = ENG_special_air_service				#30
		complete_national_focus = UK_secret_focus						#30
	}
	1944.12.16 = {
		complete_national_focus = uk_jet_focus							#35
	}
#########################################################################################

#########################################################################################
####################################### Settings ########################################
#########################################################################################
	### Settings
		set_country_flag = wants_major_news_events
		set_country_flag = wants_medium_news_events
		set_country_flag = wants_minor_news_events

		set_country_flag = wants_fallen_city_newsevents

		set_global_flag = player_wants_axis_resistance
		set_global_flag = player_wants_allies_resistance
	###

	### Bridges ###
		add_dynamic_modifier = { modifier = blowing_bridge_dynamic_modifier }
		add_dynamic_modifier = { modifier = repairing_bridge_dynamic_modifier }
	###
#########################################################################################

#########################################################################################
################################### Equipment Variants ##################################
#########################################################################################
	### Variants ###
	# Submarines #
	create_equipment_variant = {
		name = "O/P/R Class"
		type = ship_hull_submarine_1
		name_group = ENG_SS_HISTORICAL
		parent_version = 0
		modules = {
			fixed_ship_torpedo_slot = ship_torpedo_sub_1
			fixed_ship_engine_slot = sub_ship_engine_1
			rear_1_custom_slot = empty
		}
	}
	create_equipment_variant = {
		name = "S Class"
		type = ship_hull_submarine_1
		name_group = ENG_SS_HISTORICAL
		parent_version = 0
		modules = {
			fixed_ship_torpedo_slot = ship_torpedo_sub_1
			fixed_ship_engine_slot = sub_ship_engine_1
			rear_1_custom_slot = ship_torpedo_sub_1
		}
	}
	# Destroyers #
	create_equipment_variant = {
		name = "A/B/C/D Class"
		type = ship_hull_light_1
		name_group = ENG_DD_HISTORICAL
		parent_version = 0
		modules = {
			fixed_ship_battery_slot = ship_light_battery_2
			fixed_ship_anti_air_slot = empty
			fixed_ship_fire_control_system_slot = ship_fire_control_system_0
			fixed_ship_radar_slot = ship_sonar_1
			fixed_ship_engine_slot = light_ship_engine_2
			fixed_ship_torpedo_slot = ship_torpedo_1
			mid_1_custom_slot = ship_torpedo_1
			rear_1_custom_slot = ship_depth_charge_1
		}
		obsolete = yes
	}
	create_equipment_variant = {
		name = "E/F/G/H Class"
		type = ship_hull_light_2
		name_group = ENG_DD_HISTORICAL
		parent_version = 0
		modules = {
			fixed_ship_battery_slot = ship_light_battery_2
			fixed_ship_anti_air_slot = ship_anti_air_1
			fixed_ship_fire_control_system_slot = ship_fire_control_system_0
			fixed_ship_radar_slot = ship_sonar_1
			fixed_ship_engine_slot = light_ship_engine_2
			fixed_ship_torpedo_slot = ship_torpedo_1
			mid_1_custom_slot = ship_torpedo_1
			rear_1_custom_slot = ship_depth_charge_1
		}
	}
	create_equipment_variant = {
		name = "V/W Class"
		type = ship_hull_light_1
		name_group = ENG_DD_HISTORICAL
		parent_version = 0
		modules = {
			fixed_ship_battery_slot = ship_light_battery_1
			fixed_ship_anti_air_slot = ship_anti_air_1
			fixed_ship_fire_control_system_slot = ship_fire_control_system_0
			fixed_ship_radar_slot = empty
			fixed_ship_engine_slot = light_ship_engine_1
			fixed_ship_torpedo_slot = ship_torpedo_1
			mid_1_custom_slot = empty
			rear_1_custom_slot = ship_depth_charge_1
		}
		obsolete = yes
	}
	create_equipment_variant = {
		name = "S Class"
		type = ship_hull_light_1
		name_group = ENG_DD_HISTORICAL
		parent_version = 0
		modules = {
			fixed_ship_battery_slot = ship_light_battery_1
			fixed_ship_anti_air_slot = empty
			fixed_ship_fire_control_system_slot = ship_fire_control_system_0
			fixed_ship_radar_slot = empty
			fixed_ship_engine_slot = light_ship_engine_1
			fixed_ship_torpedo_slot = ship_torpedo_1
			mid_1_custom_slot = empty
			rear_1_custom_slot = ship_depth_charge_1
		}
		obsolete = yes
	}
	# Light Cruisers #
	create_equipment_variant = {
		name = "C-Class"
		type = ship_hull_cruiser_1
		name_group = ENG_CL_HISTORICAL
		parent_version = 0
		modules = {
			fixed_ship_battery_slot = ship_light_medium_battery_1
			fixed_ship_anti_air_slot = ship_anti_air_1
			fixed_ship_fire_control_system_slot = ship_fire_control_system_0
			fixed_ship_radar_slot = empty
			fixed_ship_engine_slot = cruiser_ship_engine_1
			fixed_ship_armor_slot = ship_armor_cruiser_1
			mid_1_custom_slot = ship_torpedo_1
			mid_2_custom_slot = empty
			rear_1_custom_slot = empty
		}
		obsolete = yes
	}
	create_equipment_variant = {
		name = "Danae Class"
		type = ship_hull_cruiser_1
		name_group = ENG_CL_HISTORICAL
		parent_version = 0
		modules = {
			fixed_ship_battery_slot = ship_light_medium_battery_1
			fixed_ship_anti_air_slot = ship_anti_air_1
			fixed_ship_fire_control_system_slot = ship_fire_control_system_0
			fixed_ship_radar_slot = empty
			fixed_ship_engine_slot = cruiser_ship_engine_1
			fixed_ship_armor_slot = ship_armor_cruiser_1
			mid_1_custom_slot = ship_torpedo_1
			mid_2_custom_slot = ship_torpedo_1
			rear_1_custom_slot = empty
		}
		obsolete = yes
	}
	create_equipment_variant = {
		name = "Emerald Class"
		type = ship_hull_cruiser_1
		name_group = ENG_CL_HISTORICAL
		parent_version = 0
		modules = {
			fixed_ship_battery_slot = ship_light_medium_battery_1
			fixed_ship_anti_air_slot = ship_anti_air_1
			fixed_ship_fire_control_system_slot = ship_fire_control_system_0
			fixed_ship_radar_slot = empty
			fixed_ship_engine_slot = cruiser_ship_engine_2
			fixed_ship_armor_slot = ship_armor_cruiser_1
			mid_1_custom_slot = ship_torpedo_1
			mid_2_custom_slot = ship_torpedo_1
			rear_1_custom_slot = ship_light_medium_battery_1
		}
		obsolete = yes
	}
	create_equipment_variant = {
		name = "Leander Class"
		type = ship_hull_cruiser_2
		name_group = ENG_CL_HISTORICAL
		parent_version = 0
		modules = {
			fixed_ship_battery_slot = ship_light_medium_battery_2
			fixed_ship_anti_air_slot = ship_anti_air_2
			fixed_ship_fire_control_system_slot = ship_fire_control_system_0
			fixed_ship_radar_slot = empty
			fixed_ship_engine_slot = cruiser_ship_engine_2
			fixed_ship_armor_slot = ship_armor_cruiser_1
			front_1_custom_slot = empty
			mid_1_custom_slot = ship_torpedo_1
			mid_2_custom_slot = ship_airplane_launcher_1
			rear_1_custom_slot = ship_light_medium_battery_2
		}
	}
	create_equipment_variant = {
		name = "Adventure Class"						# cruiser minelayer
		type = ship_hull_cruiser_1
		name_group = ENG_MINELAYERS_HISTORICAL
		parent_version = 0
		modules = {
			fixed_ship_battery_slot = ship_light_medium_battery_1
			fixed_ship_anti_air_slot = ship_anti_air_1
			fixed_ship_fire_control_system_slot = ship_fire_control_system_0
			fixed_ship_radar_slot = empty
			fixed_ship_engine_slot = cruiser_ship_engine_1
			fixed_ship_armor_slot = empty
			mid_1_custom_slot = ship_mine_layer_1
			mid_2_custom_slot = ship_mine_layer_1
			rear_1_custom_slot = ship_mine_layer_1
		}
	}
	create_equipment_variant = {
			name = "Town Class"
			type = ship_hull_cruiser_2
			name_group = ENG_CL_HISTORICAL
			parent_version = 0
			modules = {
				fixed_ship_battery_slot = ship_light_medium_battery_2
				fixed_ship_anti_air_slot = ship_anti_air_2
				fixed_ship_fire_control_system_slot = ship_fire_control_system_0
				fixed_ship_radar_slot = empty
				fixed_ship_engine_slot = cruiser_ship_engine_2
				fixed_ship_armor_slot = ship_armor_cruiser_2
				front_1_custom_slot = ship_anti_air_2
				mid_1_custom_slot = ship_torpedo_1
				mid_2_custom_slot = ship_secondaries_2
				rear_1_custom_slot = ship_light_medium_battery_2
			}
		}
	# Heavy Cruisers #
	create_equipment_variant = {
		name = "County Class"
		type = ship_hull_cruiser_1
		name_group = ENG_CA_HISTORICAL
		parent_version = 0
		modules = {
			fixed_ship_battery_slot = ship_medium_battery_2
			fixed_ship_anti_air_slot = ship_anti_air_1
			fixed_ship_fire_control_system_slot = ship_fire_control_system_0
			fixed_ship_radar_slot = empty
			fixed_ship_engine_slot = cruiser_ship_engine_1
			fixed_ship_armor_slot = ship_armor_cruiser_1
			fixed_ship_secondaries_slot = ship_secondaries_1
			mid_1_custom_slot = ship_airplane_launcher_1
			mid_2_custom_slot = ship_torpedo_1
			rear_1_custom_slot = ship_medium_battery_2
		}
	}
	create_equipment_variant = {
		name = "York Class"
		type = ship_hull_cruiser_1
		name_group = ENG_CA_HISTORICAL
		parent_version = 0
		modules = {
			fixed_ship_battery_slot = ship_medium_battery_2
			fixed_ship_anti_air_slot = ship_anti_air_1
			fixed_ship_fire_control_system_slot = ship_fire_control_system_0
			fixed_ship_radar_slot = empty
			fixed_ship_engine_slot = cruiser_ship_engine_1
			fixed_ship_armor_slot = ship_armor_cruiser_1
			mid_1_custom_slot = empty
			mid_2_custom_slot = ship_torpedo_1
			rear_1_custom_slot = ship_airplane_launcher_1
		}
	}
	create_equipment_variant = {
		name = "Hawkins Class"
		type = ship_hull_cruiser_1
		name_group = ENG_CA_HISTORICAL
		parent_version = 0
		modules = {
			fixed_ship_battery_slot = ship_medium_battery_1
			fixed_ship_anti_air_slot = ship_anti_air_1
			fixed_ship_fire_control_system_slot = ship_fire_control_system_0
			fixed_ship_radar_slot = empty
			fixed_ship_engine_slot = cruiser_ship_engine_1
			fixed_ship_armor_slot = ship_armor_cruiser_1
			fixed_ship_secondaries_slot = ship_secondaries_1
			mid_2_custom_slot = ship_torpedo_1
			rear_1_custom_slot = empty
		}
		obsolete = yes
	}
	# Battlecruisers #
	create_equipment_variant = {
		name = "Renown Class"
		type = ship_hull_heavy_1
		name_group = ENG_BC_HISTORICAL
		parent_version = 0
		modules = {
			fixed_ship_battery_slot = ship_heavy_battery_1
			fixed_ship_anti_air_slot = ship_anti_air_1
			fixed_ship_fire_control_system_slot = ship_fire_control_system_1
			fixed_ship_radar_slot = empty
			fixed_ship_engine_slot = heavy_ship_engine_2
			fixed_ship_secondaries_slot = ship_secondaries_1
			fixed_ship_armor_slot = ship_armor_bc_1
			front_1_custom_slot = ship_anti_air_1
			mid_1_custom_slot = ship_airplane_launcher_1
			mid_2_custom_slot = ship_secondaries_1
			rear_1_custom_slot = empty
		}
		obsolete = yes
	}
	# Battlecruisers #
	create_equipment_variant = {
		name = "Admiral Class"
		type = ship_hull_heavy_1
		name_group = ENG_BC_HISTORICAL
		parent_version = 0
		modules = {
			fixed_ship_battery_slot = ship_heavy_battery_1
			fixed_ship_anti_air_slot = ship_anti_air_1
			fixed_ship_fire_control_system_slot = ship_fire_control_system_1
			fixed_ship_radar_slot = empty
			fixed_ship_engine_slot = heavy_ship_engine_2
			fixed_ship_secondaries_slot = ship_secondaries_1
			fixed_ship_armor_slot = ship_armor_bc_2
			front_1_custom_slot = ship_anti_air_1
			mid_1_custom_slot = empty
			mid_2_custom_slot = ship_secondaries_1
			rear_1_custom_slot = ship_heavy_battery_1
		}
	}

	create_equipment_variant = {
		name = "G3 Design"
		type = ship_hull_heavy_1
		name_group = ENG_BC_HISTORICAL
		parent_version = 0
		modules = {
			fixed_ship_battery_slot = ship_heavy_battery_2
			fixed_ship_anti_air_slot = ship_anti_air_1
			fixed_ship_fire_control_system_slot = ship_fire_control_system_1
			fixed_ship_radar_slot = empty
			fixed_ship_engine_slot = heavy_ship_engine_2
			fixed_ship_secondaries_slot = ship_secondaries_2
			fixed_ship_armor_slot = ship_armor_bc_2
			front_1_custom_slot = ship_heavy_battery_2
			mid_1_custom_slot = empty
			mid_2_custom_slot = ship_anti_air_1
			rear_1_custom_slot = empty
		}
	}
	# Battleships #
	create_equipment_variant = {
		name = "Nelson Class"
		type = ship_hull_heavy_1
		name_group = ENG_BB_HISTORICAL
		parent_version = 0
		modules = {
			fixed_ship_battery_slot = ship_heavy_battery_2
			fixed_ship_anti_air_slot = ship_anti_air_1
			fixed_ship_fire_control_system_slot = ship_fire_control_system_1
			fixed_ship_radar_slot = empty
			fixed_ship_engine_slot = heavy_ship_engine_2
			fixed_ship_secondaries_slot = ship_secondaries_2
			fixed_ship_armor_slot = ship_armor_bb_2
			front_1_custom_slot = ship_heavy_battery_2
			mid_1_custom_slot = empty
			mid_2_custom_slot = empty
			rear_1_custom_slot = empty
		}
	}
	create_equipment_variant = {
		name = "Queen Elizabeth Class"
		type = ship_hull_heavy_1
		name_group = ENG_BB_HISTORICAL
		parent_version = 0
		modules = {
			fixed_ship_battery_slot = ship_heavy_battery_1
			fixed_ship_anti_air_slot = ship_anti_air_1
			fixed_ship_fire_control_system_slot = ship_fire_control_system_1
			fixed_ship_radar_slot = empty
			fixed_ship_engine_slot = heavy_ship_engine_1
			fixed_ship_secondaries_slot = ship_secondaries_1
			fixed_ship_armor_slot = ship_armor_bb_1
			front_1_custom_slot = empty
			mid_1_custom_slot = ship_airplane_launcher_1
			mid_2_custom_slot = ship_secondaries_1
			rear_1_custom_slot = ship_heavy_battery_1
		}
		obsolete = yes
	}
	create_equipment_variant = {
		name = "Revenge Class"
		type = ship_hull_heavy_1
		name_group = ENG_BB_HISTORICAL
		parent_version = 0
		modules = {
			fixed_ship_battery_slot = ship_heavy_battery_1
			fixed_ship_anti_air_slot = ship_anti_air_1
			fixed_ship_fire_control_system_slot = ship_fire_control_system_1
			fixed_ship_radar_slot = empty
			fixed_ship_engine_slot = heavy_ship_engine_1
			fixed_ship_secondaries_slot = ship_secondaries_1
			fixed_ship_armor_slot = ship_armor_bb_1
			front_1_custom_slot = empty
			mid_1_custom_slot = empty
			mid_2_custom_slot = ship_secondaries_1
			rear_1_custom_slot = ship_heavy_battery_1
		}
		obsolete = yes
	}
	create_equipment_variant = {
		name = "Eagle Class"
		type = ship_hull_carrier_conversion_bb
		name_group = ENG_CV_HISTORICAL
		parent_version = 0
		modules = {
			fixed_ship_deck_slot_1 = ship_deck_space
			fixed_ship_deck_slot_2 = ship_deck_space
			fixed_ship_anti_air_slot = ship_anti_air_1
			fixed_ship_radar_slot = empty
			fixed_ship_engine_slot = heavy_ship_engine_1
			fixed_ship_secondaries_slot = empty
			mid_1_custom_slot = empty
		}
		obsolete = yes
	}

	create_equipment_variant = {
		name = "Hermes Class"
		type = ship_hull_carrier_conversion_ca
		name_group = ENG_CVL_HISTORICAL
		parent_version = 0
		modules = {
			fixed_ship_deck_slot_1 = ship_deck_space
			fixed_ship_deck_slot_2 = empty
			fixed_ship_anti_air_slot = ship_anti_air_1
			fixed_ship_radar_slot = empty
			fixed_ship_engine_slot = cruiser_ship_engine_1
			fixed_ship_secondaries_slot = empty
		}
		obsolete = yes
	}
	create_equipment_variant = {
		name = "Courageous Class"
		type = ship_hull_carrier_conversion_bb
		name_group = ENG_CV_HISTORICAL
		parent_version = 0
		modules = {
			fixed_ship_deck_slot_1 = ship_deck_space
			fixed_ship_deck_slot_2 = ship_deck_space
			fixed_ship_anti_air_slot = ship_anti_air_1
			fixed_ship_radar_slot = empty
			fixed_ship_engine_slot = heavy_ship_engine_1
			fixed_ship_secondaries_slot = empty
			mid_1_custom_slot = ship_deck_space
		}
		obsolete = yes
	}
	create_equipment_variant = {
		name = "Ark Royal Class"
		type = ship_hull_carrier_1
		name_group = ENG_CV_HISTORICAL
		parent_version = 0
		modules = {
			fixed_ship_deck_slot_1 = ship_deck_space
			fixed_ship_deck_slot_2 = ship_deck_space
			fixed_ship_anti_air_slot = ship_anti_air_1
			fixed_ship_radar_slot = empty
			fixed_ship_engine_slot = carrier_ship_engine_2
			fixed_ship_secondaries_slot = ship_secondaries_2
			front_1_custom_slot = ship_deck_space
		}
	}

	create_equipment_variant = {
		name = "Light Tank Mk. IV"
		type = light_tank_chassis_1
		parent_version = 0
		modules = {
			main_armament_slot = tank_heavy_machine_gun
			turret_type_slot = tank_light_one_man_tank_turret
			suspension_type_slot = tank_christie_suspension
			armor_type_slot = tank_riveted_armor
			engine_type_slot = tank_gasoline_engine
		}
		upgrades = {
			tank_nsb_engine_upgrade = 2
			tank_nsb_armor_upgrade = 1
		}
		icon = "GFX_ENG_basic_light_tank_medium"
		obsolete = yes #used for oob
	}
	create_equipment_variant = {
		name = "Light Tank Mk. VI"
		type = light_tank_chassis_1
		parent_version = 1
		modules = {
			main_armament_slot = tank_heavy_machine_gun
			turret_type_slot = tank_light_two_man_tank_turret
			suspension_type_slot = tank_bogie_suspension
			armor_type_slot = tank_riveted_armor
			engine_type_slot = tank_gasoline_engine
			special_type_slot_1 = tank_radio_1
			special_type_slot_2 = smoke_launchers
		}
		icon = "GFX_ENG_basic_light_tank_medium"
		upgrades = {
			tank_nsb_engine_upgrade = 2
			tank_nsb_armor_upgrade = 2
		}
	}

	create_equipment_variant = {
		name = "Medium Mk. II"
		type = medium_tank_chassis_0
		parent_version = 0
		modules = {
			main_armament_slot = tank_small_cannon
			turret_type_slot = tank_medium_three_man_tank_turret
			suspension_type_slot = tank_bogie_suspension
			armor_type_slot = tank_riveted_armor
			engine_type_slot = tank_gasoline_engine
			special_type_slot_1 = tank_radio_1
		}
		upgrades = {
			tank_nsb_armor_upgrade = 1
			tank_nsb_engine_upgrade = 2
		}
		icon = "GFX_ENG_basic_light_tank_medium"
	}

	create_equipment_variant = {
		name = "Vickers 6 ton A"
		type = light_tank_chassis_0
		parent_version = 0
		modules = {
			main_armament_slot = tank_heavy_machine_gun
			turret_type_slot = tank_light_one_man_tank_turret
			suspension_type_slot = tank_bogie_suspension
			armor_type_slot = tank_riveted_armor
			engine_type_slot = tank_gasoline_engine
			special_type_slot_1 = secondary_turret_hmg
		}
		upgrades = {
			tank_nsb_armor_upgrade = 3
			tank_nsb_engine_upgrade = 2
		}
		icon = "GFX_ENG_light_BAB_camo"
		obsolete = yes #export only
	}

	create_equipment_variant = {
		name = "Vickers 6 ton B"
		type = light_tank_chassis_0
		parent_version = 1
		modules = {
			main_armament_slot = tank_small_cannon
			turret_type_slot = tank_light_two_man_tank_turret
			suspension_type_slot = tank_bogie_suspension
			armor_type_slot = tank_riveted_armor
			engine_type_slot = tank_gasoline_engine
		}
		upgrades = {
			tank_nsb_armor_upgrade = 3
			tank_nsb_engine_upgrade = 2
		}
		icon = "GFX_ENG_light_BAB_camo"
		obsolete = yes #export only
	}

	1939.1.1 = {
		create_equipment_variant = {
			name = "Illustrious Class"
			type = ship_hull_carrier_2
			name_group = ENG_CV_HISTORICAL
			parent_version = 0
			modules = {
				fixed_ship_deck_slot_1 = ship_deck_space
				fixed_ship_deck_slot_2 = ship_deck_space
				fixed_ship_anti_air_slot = ship_anti_air_1
				fixed_ship_radar_slot = empty
				fixed_ship_engine_slot = carrier_ship_engine_2
				fixed_ship_secondaries_slot = dp_ship_secondaries
				front_1_custom_slot = ship_deck_space
				mid_1_custom_slot = ship_armor_carrier_deck
			}
		}
		create_equipment_variant = {
			name = "Dido Class"
			type = ship_hull_cruiser_2
			name_group = ENG_CLAA_HISTORICAL
			parent_version = 1
			modules = {
				fixed_ship_battery_slot = dp_light_battery
				fixed_ship_anti_air_slot = ship_anti_air_1
				fixed_ship_fire_control_system_slot = ship_fire_control_system_1
				fixed_ship_radar_slot = empty
				fixed_ship_engine_slot = cruiser_ship_engine_2
				fixed_ship_armor_slot = ship_armor_cruiser_1
				front_1_custom_slot = empty
				mid_1_custom_slot = ship_anti_air_1
				mid_2_custom_slot = ship_torpedo_1
				rear_1_custom_slot = dp_light_battery
			}
		}
		create_equipment_variant = {
			name = "Crown Colony Class"
			type = ship_hull_cruiser_3
			name_group = ENG_CL_HISTORICAL
			parent_version = 0
			modules = {
				fixed_ship_battery_slot = ship_light_medium_battery_2
				fixed_ship_anti_air_slot = ship_anti_air_1
				fixed_ship_fire_control_system_slot = ship_fire_control_system_1
				fixed_ship_radar_slot = empty
				fixed_ship_engine_slot = cruiser_ship_engine_2
				fixed_ship_armor_slot = ship_armor_cruiser_2
				front_1_custom_slot = ship_anti_air_1
				mid_1_custom_slot = ship_torpedo_1
				mid_2_custom_slot = dp_ship_secondaries
				rear_1_custom_slot = ship_light_medium_battery_2
				rear_2_custom_slot = ship_anti_air_1
			}
		}
		create_equipment_variant = {
			name = "Tribal Class"
			type = ship_hull_light_2
			name_group = ENG_DD_HISTORICAL
			modules = {
				fixed_ship_battery_slot = ship_light_battery_2
				fixed_ship_anti_air_slot = ship_anti_air_1
				fixed_ship_fire_control_system_slot = ship_fire_control_system_0
				fixed_ship_radar_slot = ship_sonar_2
				fixed_ship_engine_slot = light_ship_engine_2
				fixed_ship_torpedo_slot = ship_torpedo_1
				mid_1_custom_slot = ship_light_battery_2
				rear_1_custom_slot = ship_depth_charge_2
			}
		}
		create_equipment_variant = {
			name = "J/K/N Class"
			type = ship_hull_light_3
			name_group = ENG_DD_HISTORICAL
			modules = {
				fixed_ship_battery_slot = ship_light_battery_2
				fixed_ship_anti_air_slot = ship_anti_air_1
				fixed_ship_fire_control_system_slot = ship_fire_control_system_0
				fixed_ship_radar_slot = ship_sonar_2
				fixed_ship_engine_slot = light_ship_engine_2
				fixed_ship_torpedo_slot = ship_torpedo_1
				front_1_custom_slot = empty
				mid_1_custom_slot = ship_torpedo_2
				rear_1_custom_slot = ship_depth_charge_2
			}
		}
		create_equipment_variant = {
			name = "King George V Class"
			type = ship_hull_heavy_2
			name_group = ENG_BB_HISTORICAL
			parent_version = 0
			modules = {
				fixed_ship_battery_slot = ship_heavy_battery_2
				fixed_ship_anti_air_slot = ship_anti_air_1
				fixed_ship_fire_control_system_slot = ship_fire_control_system_2
				fixed_ship_radar_slot = empty
				fixed_ship_engine_slot = heavy_ship_engine_2
				fixed_ship_secondaries_slot = dp_ship_secondaries
				fixed_ship_armor_slot = ship_armor_bb_2
				front_1_custom_slot = ship_anti_air_1
				mid_1_custom_slot = ship_airplane_launcher_1
				mid_2_custom_slot = dp_ship_secondaries
				rear_1_custom_slot = ship_heavy_battery_2
			}
		}
		create_equipment_variant = {
			name = "Lion Class" # 1938 variant
			type = ship_hull_heavy_2
			name_group = ENG_BB_HISTORICAL
			parent_version = 0
			modules = {
				fixed_ship_battery_slot = ship_heavy_battery_3
				fixed_ship_anti_air_slot = ship_anti_air_1
				fixed_ship_fire_control_system_slot = ship_fire_control_system_2
				fixed_ship_radar_slot = empty
				fixed_ship_engine_slot = heavy_ship_engine_2
				fixed_ship_secondaries_slot = dp_ship_secondaries
				fixed_ship_armor_slot = ship_armor_bb_2
				front_1_custom_slot = ship_anti_air_1
				mid_1_custom_slot = ship_airplane_launcher_1
				mid_2_custom_slot = dp_ship_secondaries
				rear_1_custom_slot = ship_heavy_battery_3
			}
		}
		create_equipment_variant = {
			name = "T Class"
			type = ship_hull_submarine_2
			name_group = ENG_SS_HISTORICAL
			parent_version = 0
			modules = {
				fixed_ship_torpedo_slot = ship_torpedo_sub_2
				fixed_ship_engine_slot = sub_ship_engine_2
				rear_1_custom_slot = empty
			}
		}
		create_equipment_variant = {
			name = "Grampus Class"
			type = ship_hull_submarine_2
			name_group = ENG_SS_HISTORICAL
			parent_version = 0
			modules = {
				fixed_ship_torpedo_slot = ship_torpedo_sub_2
				fixed_ship_engine_slot = sub_ship_engine_2
				rear_1_custom_slot = ship_mine_layer_sub
			}
		}
		create_equipment_variant = {
			name = "U Class"
			type = ship_hull_submarine_1
			name_group = ENG_SS_HISTORICAL
			parent_version = 0
			modules = {
				fixed_ship_torpedo_slot = ship_torpedo_sub_2
				fixed_ship_engine_slot = sub_ship_engine_2
				rear_1_custom_slot = empty
			}
		}
		create_equipment_variant = {
			name = "Mathilda I"
			type = light_tank_chassis_2
			parent_version = 0
			modules = {
				main_armament_slot = tank_heavy_machine_gun
				turret_type_slot = tank_light_one_man_tank_turret
				suspension_type_slot = tank_bogie_suspension
				armor_type_slot = tank_riveted_armor
				engine_type_slot = tank_gasoline_engine
			}
			upgrades = {
				tank_nsb_engine_upgrade = 2
				tank_nsb_armor_upgrade = 6
			}
			icon = "GFX_ENG_improved_light_tank_medium"
			obsolete = yes
		}

		create_equipment_variant = {
			name = "Mathilda II"
			type = heavy_tank_chassis_1
			parent_version = 0
			modules = {
				main_armament_slot = tank_small_cannon_2
				turret_type_slot = tank_heavy_three_man_tank_turret
				suspension_type_slot = tank_bogie_suspension
				armor_type_slot = tank_cast_armor
				engine_type_slot = tank_diesel_engine
				special_type_slot_1 = tank_radio_1
				special_type_slot_2 = smoke_launchers
			}
			upgrades = {
				tank_nsb_engine_upgrade = 4
				tank_nsb_armor_upgrade = 8
			}
			icon = "GFX_ENG_improved_light_tank_medium"
		}

		create_equipment_variant = {
			name = "Cruiser Mk. I"
			type = medium_tank_chassis_1
			parent_version = 0
			modules = {
				main_armament_slot = tank_small_cannon_2
				turret_type_slot = tank_medium_three_man_tank_turret
				suspension_type_slot = tank_bogie_suspension
				armor_type_slot = tank_riveted_armor
				engine_type_slot = tank_gasoline_engine
				special_type_slot_1 = tank_radio_1
				special_type_slot_2 = secondary_turret_hmg
				special_type_slot_3 = secondary_turret_hmg
			}
			upgrades = {
				tank_nsb_engine_upgrade = 3
				tank_nsb_armor_upgrade = 1
			}
			obsolete = yes
			icon = "GFX_ENG_light_CCA_camo"
		}

		create_equipment_variant = {
			name = "Cruiser Mk. IV"
			type = medium_tank_chassis_1
			parent_version = 1
			modules = {
				main_armament_slot = tank_small_cannon_2
				turret_type_slot = tank_medium_three_man_tank_turret
				suspension_type_slot = tank_christie_suspension
				armor_type_slot = tank_riveted_armor
				engine_type_slot = tank_gasoline_engine
				special_type_slot_1 = tank_radio_1
				special_type_slot_2 = smoke_launchers
				special_type_slot_3 = empty
				special_type_slot_4 = empty
			}
			upgrades = {
				tank_nsb_engine_upgrade = 7
				tank_nsb_armor_upgrade = 3
			}
			icon = "GFX_ENG_light_CCA_camo"
		}
	}
#########################################################################################

#########################################################################################
######################################## OOBs ###########################################
#########################################################################################
	oob = "_ENG_1936"
	set_naval_oob = "naval_mtg_ENG_1936"

	1940.1.1 = {
		oob = "_ENG_1940"
		set_naval_oob = "naval_mtg_ENG_1940"
	}

	1941.6.21 = {
		oob = "_ENG_1941"
		set_naval_oob = "naval_mtg_ENG_1941"
	}

	1942.11.19 = {
		oob = "_ENG_1942_11"
		set_naval_oob = "naval_mtg_ENG_1942_11"
	}

	1943.1.1 = {
		oob = "_ENG_1943"
		set_naval_oob = "naval_mtg_ENG_1943"
	}

	1944.6.1 = {
		oob = "_ENG_1944_6"
		set_naval_oob = "naval_mtg_ENG_1944_6"
	}



	1944.12.1 = {
		oob = "_ENG_1944_12"
		set_naval_oob = "naval_mtg_ENG_1944_12"
	}

	1945.1.1 = {
		oob = "_ENG_1945"
		set_naval_oob = "naval_mtg_ENG_1945"
	}
#########################################################################################
