﻿
#############################################################################################
##################################### GER History File ######################################
#############################################################################################

#########################################################################################
####################################### Politics ########################################
#########################################################################################
	set_politics = {
		ruling_party = fascism
		last_election = "1933.3.5"
		election_frequency = 48
		elections_allowed = no
	}

	set_popularities = {
		democratic = 40
		fascism = 44
		communism = 16 #12+4
	}

	create_faction = Axis
	add_to_faction = GER

	1940.5.10 = {
		add_to_faction = ITA
		add_to_faction = HUN
		if = {
			limit = { has_start_date < 1944.12.16 }
			add_to_faction = ROM
		}

		declare_war_on = { target = ENG type = annex_everything }
		declare_war_on = { target = HOL type = annex_everything }
		declare_war_on = { target = BEL type = annex_everything }
		declare_war_on = { target = LUX type = annex_everything }
		declare_war_on = { target = POL type = annex_everything }
		declare_war_on = { target = NOR type = annex_everything }
		every_country = {
			if = {
				limit = {
					is_in_allied_faction = yes
				}
				add_to_war = { targeted_alliance = ENG enemy = GER hostility_reason = asked_to_join }
			}
			else_if = {
				limit = {
					is_in_german_faction = yes
					NOT = {
						tag = ITA
						is_subject_of = ITA
					}
				}
				add_to_war = { targeted_alliance = GER enemy = ENG hostility_reason = asked_to_join }
			}
		}
		set_global_flag = city_fallen_to_axis_warsaw
	}

	1941.6.22 = {
		if = {
			limit = { has_start_date < 1944.12.16 }
			add_to_faction = FIN
			add_to_faction = BUL
		}

		declare_war_on = { target = YUG type = annex_everything }
		declare_war_on = { target = SOV type = annex_everything }

		set_global_flag = short_war

		set_global_flag = city_fallen_to_axis_paris
		set_global_flag = city_fallen_to_axis_amsterdam
	}
	1942.11.19 = {
		set_technology = { osttruppen_battalion = 1 }

		set_global_flag = city_fallen_to_axis_kiev
		set_global_flag = city_fallen_to_axis_sevastopol
		set_global_flag = city_fallen_to_axis_riga
		set_global_flag = city_fallen_to_axis_tallinn
	}

	1943.7.11 = {
		set_global_flag = total_war
	}

	1944.6.6 = {
		KIT = { add_to_war = { targeted_alliance = ENG enemy = GER hostility_reason = asked_to_join } }
		# upgrade_intelligence_agency = upgrade_naval_department
		# upgrade_intelligence_agency = upgrade_passive_defense
		# upgrade_intelligence_agency = upgrade_passive_defense
		# upgrade_intelligence_agency = upgrade_anti_partisan
		# upgrade_intelligence_agency = upgrade_anti_partisan
		# upgrade_intelligence_agency = upgrade_suicide_pills
		# upgrade_intelligence_agency = upgrade_training_centers
		# upgrade_intelligence_agency = upgrade_commando_training
		# upgrade_intelligence_agency = upgrade_interrogation_techniques
		# upgrade_intelligence_agency = upgrade_psycho_warfare
		# upgrade_intelligence_agency = upgrade_form_department
		# upgrade_intelligence_agency = upgrade_decryption_boost
		# upgrade_intelligence_agency = upgrade_decryption_boost

		set_variable = { global.german_ticker_progression_speed = 2 }

		set_variable = { global.german_ticker = 33 }
		set_variable = { global.soviet_ticker = 67 }

		set_variable = { global.allied_ticker = 5 }
		set_variable = { global.german_ticker_2 = 95 }

		set_variable = { global.ticker_modifier_value_1 = -0.15 }
		set_variable = { global.ticker_modifier_value_2 = -0.02 }

		set_variable = { global.state_control_ticker_variable = 0 }
	}

	1944.12.16 = {
		FIN = { add_to_war = { targeted_alliance = ENG enemy = GER hostility_reason = asked_to_join } }
	}

#########################################################################################

#########################################################################################
####################################### Characters ######################################
#########################################################################################
	recruit_character = GER_adolf_hitler
	recruit_character = GER_konrad_adenauer
	recruit_character = GER_wilhelm_pieck
	recruit_character = GER_karl_dönitz
	recruit_character = GER_gerd_von_rundstedt
	recruit_character = GER_günther_von_kluge
	recruit_character = GER_friedrich_paulus
	recruit_character = GER_erwin_rommel
	recruit_character = GER_erich_von_manstein
	recruit_character = GER_heinz_guderian
	recruit_character = GER_wilhelm_list
	recruit_character = GER_ewald_von_kleist
	recruit_character = GER_fedor_von_bock
	recruit_character = GER_walter_model
	recruit_character = GER_maximilian_von_weichs
	recruit_character = GER_wilhelm_ritter_von_leeb
	recruit_character = GER_georghans_reinhardt
	recruit_character = GER_walter_krüger
	recruit_character = GER_kurt_student
	recruit_character = GER_erwin_von_witzleben
	recruit_character = GER_hermann_hoth
	recruit_character = GER_johannes_blaskowitz
	recruit_character = GER_paul_hausser
	recruit_character = GER_friedrich_schulz
	recruit_character = GER_georg_von_küchler
	recruit_character = GER_alfred_jodl
	recruit_character = GER_sepp_dietrich
	recruit_character = GER_hasso_von_manteuffel
	recruit_character = GER_albert_kesselring
	recruit_character = GER_gotthard_heinrici
	recruit_character = GER_ernsteberhard_hell
	recruit_character = GER_felix_steiner
	recruit_character = GER_erich_raeder
	recruit_character = GER_alfred_saalwächter
	recruit_character = GER_hermann_boehm
	recruit_character = GER_wilhelm_marschall
	recruit_character = GER_günther_lütjens
	recruit_character = GER_heinz_hoffmann
	recruit_character = GER_von_braun
	recruit_character = GER_heisenberg
	recruit_character = GER_wolfram_von_richthofen
	recruit_character = GER_walther_wever
	recruit_character = GER_ernst_udet
	recruit_character = GER_ludwig_beck
	recruit_character = GER_wilhelm_keitel
	recruit_character = GER_franz_halder
	recruit_character = GER_walther_von_brauchitsch
	recruit_character = GER_hermann_goring
	recruit_character = GER_ritter_von_greim
	recruit_character = GER_ferdinand_schorner
	recruit_character = GER_werner_von_fritsch
	recruit_character = GER_hugo_sperrle
	recruit_character = GER_erhard_milch
	recruit_character = GER_fritz_todt
	recruit_character = GER_albert_speer
	recruit_character = GER_hjalmar_schacht
	recruit_character = GER_walther_funk
	recruit_character = GER_joseph_goebbels
	recruit_character = GER_rudolf_hess
	recruit_character = GER_heinrich_himmler
	recruit_character = GER_martin_bormann
	recruit_character = GER_joachim_von_ribbentrop
	recruit_character = GER_konstantin_von_neurath
	recruit_character = GER_wilhelm_canaris

	1945.5.1 = {
		retire_country_leader = yes

		GER_karl_dönitz = {
			add_country_leader_role = {
				character = "GER_karl_dönitz"
				country_leader = {
					ideology=despotism
					traits = { old_coup_maker hardened_officer }
					expire="1965.1.1"
				}
				promote_leader = yes
			}
		}
	}

	if = {
		limit = {
			has_dlc = "La Resistance"
		}
		create_operative_leader = {
			name = "Otto Skorzeny"
			GFX = GFX_portrait_otto_skorenzy
			traits = { operative_commando }
			bypass_recruitment = no
			available_to_spy_master = yes
			nationalities = { GER }
		}

		create_operative_leader = {
			name = "Nikolaus Ritter"
			GFX = GFX_portrait_nikolaus_ritter
			traits = { operative_safe_cracker }
			bypass_recruitment = no
			available_to_spy_master = yes
			nationalities = { GER }
		}
		create_operative_leader = {
			name = "Eleysa Bazna"
			GFX = GFX_portrait_eleysa_bazna
			traits = { operative_infiltrator }
			bypass_recruitment = no
			available_to_spy_master = yes
			nationalities = { GER }
		}
	}
#########################################################################################

#########################################################################################
################################ Equipment and Research #################################
#########################################################################################
	set_convoys = 200
	set_research_slots = 4
	capital = 317
	set_stability = 0.75
	set_war_support = 0.3
	starting_train_buffer = 2

################################################
################### General ###################
################################################

########### Template Normal #############
1936.1.1 = {
	set_technology = {
		# Infantry
        infantry_weapons = 1
		infantry_weapons1 = 1
        armored_car1 = 1
        motorised_infantry = 1
		paratroopers = 1

		# Support
		tech_support = 1
		tech_engineers = 1
		tech_military_police = 1
		tech_field_hospital = 1
		tech_signal_company = 1

		# Mechanized
		basic_train = 1
		gwtank_chassis = 1
		basic_light_tank_chassis = 1
		basic_medium_tank_chassis = 1
		basic_heavy_tank_chassis = 1

		# Artillery
		gw_artillery = 1
		interwar_artillery = 1
		interwar_antiair = 1
		interwar_antitank = 1

		# Ships
		early_ship_hull_light = 1
		basic_torpedo = 1
		early_ship_hull_submarine = 1
		basic_battery = 1

		# Planes
		early_bomber = 1
		tactical_bomber1 = 1
		early_fighter = 1
		fighter1 = 1
		CAS1 = 1

		# Industry
		fuel_silos = 1
		synth_oil_experiments = 1

		# Doctrines Land
		mobile_warfare = 1

		# Doctrine Air
		formation_flying = 1
		dive_bombing = 1

		# Doctrine Sea
		trade_interdiction = 1
		raider_patrols = 1
		convoy_interdiction_ti = 1

		#Manually added
		naval_bomber1 = 1
	}
}
1940.5.10 = {
	set_technology = {
		# Inf
        support_weapons = 1
		infantry_weapons2 = 1
		improved_infantry_weapons = 1
        marines = 1
		shocktroops = 1
		paratroopers2 = 1
		tech_engineers2 = 1

		# support
		tech_mountaineers = 1
		tech_special_forces = 1
		tech_flamethrower = 1
		tech_recon = 1
		tech_maintenance_company = 1
		tech_logistics_company = 1
		tech_military_police2 = 1
		tech_field_hospital2 = 1
		tech_signal_company2 = 1

		# Mechanized
		railway_gun = 1
		basic_light_tank_chassis = 1
		improved_heavy_tank_chassis = 1
		armor_tech_1 = 1
		engine_tech_1 = 1
		mechanised_infantry = 1
		armored_car2 = 1
		improved_medium_tank_chassis = 1

		# Artillery
		artillery1 = 1
		artillery2 = 1

		# Ships
		basic_ship_hull_light = 1
		smoke_generator = 1
		basic_depth_charges = 1
		sonar = 1
		early_ship_hull_cruiser = 1
		antitank1 = 1
		antiair1 = 1
		antitank2 = 1
		rocket_artillery = 1
		antiair2 = 1

		# Planes
		improved_airplane_launcher = 1
		early_ship_hull_heavy = 1
		basic_secondary_battery = 1
		mtg_transport = 1
		scout_plane1 = 1
		fighter2 = 1
		CAS2 = 1
		tactical_bomber2 = 1
		construction1 = 1
		construction2 = 1

		# Industry
		electronic_mechanical_engineering = 1
		radio = 1
		radio_detection = 1
		excavation1 = 1
		atomic_research = 1
		experimental_rockets = 1
		oil_processing = 1
		rubber_processing = 1
		basic_machine_tools = 1
		improved_machine_tools = 1
		dispersed_industry = 1
		dispersed_industry2 = 1

		# Doctrines Land
		delay = 1
		elastic_defence = 1

		# Doctrine Air
		direct_ground_support = 1
		formation_fighting = 1

		# Doctrine Sea
		unrestricted_submarine_warfare = 1
	}
}
1941.6.21 = {
	set_technology = {
		# Infantry
        support_weapons2 = 1
        improved_infantry_weapons_2 = 1
        mechanised_infantry = 1
		improved_special_forces = 1
		shocktroops2 = 1
		infantry_at = 1

		# Support
		tech_recon2 = 1

		# Mechanized
		wartime_train = 1
		armored_train = 1
		improved_light_tank_chassis = 1
		armor_tech_2 = 1
		engine_tech_2 = 1
		mechanised_infantry2 = 1
		armored_car3 = 1
		advanced_medium_tank_chassis = 1
		advanced_heavy_tank_chassis = 1

		#Artillery
		artillery3 = 1
		antitank3 = 1
		rocket_artillery2 = 1
		antiair3 = 1

		# Ships
		improved_sonar = 1
		basic_ship_hull_cruiser = 1
		basic_cruiser_armor_scheme = 1
		basic_ship_hull_heavy = 1
		early_ship_hull_carrier = 1
		magnetic_detonator = 1
		basic_light_battery = 1
		basic_medium_battery = 1
		basic_heavy_battery = 1

		# Planes
		naval_bomber2 = 1
		strategic_bomber1 = 1
		fighter3 = 1
		CAS3 = 1
		tactical_bomber3 = 1

		# Industry
		mechanical_computing = 1
		decimetric_radar = 1
		basic_fire_control_system = 1
		fuel_refining = 1
		rocket_engines = 1
		nuclear_reactor = 1
		improved_rubber_processing = 1
		improved_oil_processing = 1
		advanced_machine_tools = 1
		dispersed_industry3 = 1
		construction3 = 1

		# Doctrines Land
		armored_spearhead = 1

		# Doctrine Air
		hunt_and_destroy = 1

		# Doctrine Sea
		capital_ship_raiders = 1
		carrier_operations = 1
		unrestricted_submarine_warfare = 1
	}
}
1942.11.19 = {
	set_technology = {
		#Infantry
        support_weapons3 = 1
        advanced_infantry_weapons = 1
        marines2 = 1
		paratroopers3 = 1

		#Support
		tech_mountaineers2 = 1
		survival_training = 1
		tech_flamethrower2 = 1
		tech_maintenance_company2 = 1
		tech_logistics_company2 = 1
		tech_engineers3_1 = 1
		tech_military_police3 = 1
		tech_field_hospital3 = 1
		tech_signal_company3 = 1

		# Mechanized
		armor_tech_3 = 1
		engine_tech_3 = 1
		armored_car_at_upgrade = 1
		super_heavy_tank_chassis = 1

		#Artillery
		antitank4 = 1
		rocket_artillery3 = 1
		antiair4 = 1
		artillery4 = 1

		#Ships
		improved_depth_charges = 1
		basic_heavy_armor_scheme = 1
		basic_ship_hull_submarine = 1
		basic_light_shell = 1
		basic_medium_shell = 1
		basic_heavy_shell = 1
		improved_secondary_battery = 1
		damage_control_1 = 1
		fire_control_methods_1 = 1

		#Planes
		heavy_fighter1 = 1
		fighter4 = 1
		jet_fighter1 = 1
		CAS4 = 1

		#Industry
		computing_machine = 1
		excavation2 = 1
		fuel_refining2 = 1
		combined_nuclear_effort = 1
		jet_engines = 1
		advanced_oil_processing = 1
		advanced_rubber_processing = 1
		dispersed_industry4 = 1
		construction4 = 1

		# Doctrines Land
		schwerpunk = 1

		# Doctrine Air
		combat_unit_destruction = 1

		# Doctrine Sea
		advanced_submarine_warfare = 1
		wolfpacks = 1
	}
}
1943.7.11 = {
	set_technology = {
		#Infantry
        support_weapons4 = 1
        infantry_at2 = 1
		jaegers = 1
		desertinfantry_at = 1

		#Support
		tech_recon3 = 1

		#Mechanized
		advanced_light_tank_chassis = 1
		mechanised_infantry3 = 1
		semi_modern_medium_tank_chassis = 1
		semi_modern_heavy_tank_chassis = 1

		#Artillery
		artillery5 = 1
		antitank5 = 1
		rocket_artillery4 = 1
		antiair5 = 1

		#Ships
		improved_ship_hull_light = 1
		improved_cruiser_armor_scheme = 1
		improved_heavy_armor_scheme = 1
		improved_ship_torpedo_launcher = 1
		improved_ship_hull_submarine = 1
		basic_submarine_snorkel = 1
		improved_light_battery = 1
		improved_medium_battery = 1
		improved_heavy_battery = 1
		dp_secondary_battery = 1
		mtg_landing_craft = 1

		#Planes
		naval_bomber3 = 1
		strategic_bomber2 = 1
		scout_plane2 = 1
		tactical_bomber4 = 1

		#Industry
		improved_computing_machine = 1
		improved_decimetric_radar = 1
		improved_fire_control_system = 1
		advanced_moderators = 1
		improved_rocket_engines = 1
		assembly_line_production = 1

		# Doctrines Land
		blitzkrieg = 1
		kampfgruppe = 1

		# Doctrine Air
		battlefield_support = 1

		# Doctrine Sea
		battlefleet_concentration_ti = 1
		advanced_submarine_warfare = 1
	}
}
1944.6.6 = {
	set_technology = {
		#Infantry
		shocktroops3 = 1
		advanced_infantry_weapons2 = 1

		#Support
		tech_maintenance_company3 = 1
		tech_logistics_company3 = 1

		#Mechanized
		armor_tech_4 = 1
		engine_tech_4 = 1

		#Artillery
		artillery_a = 1
		antitank_a = 1
		rocket_artillery_a = 1
		antiair_a = 1

		#Ships
		improved_ship_hull_cruiser = 1
		improved_ship_hull_heavy = 1
		basic_ship_hull_carrier = 1
		electric_torpedo = 1
		advanced_ship_torpedo_launcher = 1
		improved_light_shell = 1
		improved_medium_shell = 1
		improved_heavy_shell = 1
		damage_control_2 = 1
		fire_control_methods_2 = 1

		#Planes
		naval_bomber4 = 1
		heavy_fighter2 = 1
		strategic_bomber3 = 1
		fighter5 = 1
		jet_fighter2 = 1
		CAS5 = 1

		#Industry
		advanced_computing_machine = 1
		excavation3 = 1
		fuel_refining3 = 1
		advanced_rocket_engines = 1
		nukes = 1
		modern_oil_processing = 1
		modern_rubber_processing = 1
		dispersed_industry5 = 1
		construction5 = 1

		# Doctrines Land
		volkssturm = 1

		# Doctrine Air
		keypoint_bombing = 1

		# Doctrine Sea
		floating_fortress_ti = 1
	}
}
1944.12.16 = {
	set_technology = {
		#Infantry
        night_vision = 1
        infantry_at_a = 1
        marines3 = 1
		jaegers2 = 1
		paratroopers4 = 1

		desertinfantry_at2 = 1
		elite_forces = 1

		#Arty
		artillery_b = 1

		#Support
		tech_mountaineers3 = 1
		tech_flamethrower3 = 1
		tech_engineers4 = 1
		tech_military_police4 = 1
		tech_field_hospital4 = 1
		tech_signal_company4 = 1

		#Mechanized
		mechanised_infantry4 = 1

		#Planes
		tactical_bomber5 = 1

		#Industry
		flexible_line = 1
		centimetric_radar = 1

		# Doctrines Land
		nd_conscription = 1

		# Doctrine Air
		ground_support_integration = 1

		# Doctrine Sea
		convoy_sailing_ti = 1
	}
}
1945.1.1 = {
	set_technology = {
		#Infantry
		night_vision2 = 1
		advanced_infantry_weapons_a = 1

		#Support
		tech_recon4 = 1

		#Mechanized
		semi_modern_light_tank_chassis = 1

		#Artillery
		artillery_c = 1
		antitank_b = 1
		rocket_artillery_b = 1
		antiair_b = 1
		antitank_c = 1
		antiair_c = 1

		#Ships
		damage_control_3 = 1
		fire_control_methods_3 = 1

		#Planes
		strategic_bomber4 = 1

		#Industry
		improved_centimetric_radar = 1
		excavation4 = 1
		oil_processing_6 = 1
		rubber_plant_a = 1

		# Doctrines Land
		werwolf_guerillas = 1

		# Doctrine Air
		naval_strike_torpedo_tactics = 1

		# Doctrine Sea
		floating_airfield_ti = 1
	}
}
#########################################################################################

#########################################################################################
######################################## Ideas ##########################################
#########################################################################################
	1936.1.1 = {
		add_ideas = {
			sour_loser
			export_focus
			limited_conscription
			age_17
			partial_economic_mobilisation
			minimal_education_investment
			state_press
		}
	}
	1940.5.10 = {
		add_ideas = {
			war_economy
			extensive_conscription
			age_15
		}
	}
	1941.6.21 = {
		add_ideas = {
			service_by_requirement
			propaganda_press
		}
	    add_timed_idea = { idea = GER_short_war days = 653 }
	}
	1942.11.19 = {
		add_ideas = {
			age_13
		}
		modify_timed_idea = { idea = GER_short_war days = -515 }
	}
	1943.7.11 = {
		add_ideas = {
			tot_economic_mobilisation
			limited_exports
			GER_total_war
			GER_volk
		}
		remove_ideas = GER_short_war
	}
	1944.6.6 = {
		add_ideas = {
			henschel
			ig_faben
			heinrich_himmler
			ludwig_beck
			gerd_von_rundstedt

			phantom_army

			#laws
			all_adults_serve
			age_11
		}
		add_timed_idea = { idea = armour_indecision days = 10 }
		add_dynamic_modifier = { modifier = german_ticker_dynamic_modifier scope = GER }
	}

	1944.12.16 = {
		add_ideas = {

		}
		remove_ideas = {
			armour_indecision
			phantom_army_2
			phantom_army
		}
	}
	1945.1.1 = {
		add_ideas = {
			scraping_the_barrel
			age_10
		}
	}
#########################################################################################

#########################################################################################
######################################## Focuses ########################################
#########################################################################################
	1940.5.10 = {
		unlock_national_focus = GER_rhineland 										#35
		complete_national_focus = GER_reichsautobahn 								#45
		complete_national_focus = GER_goeringsfouryearplan 							#70
		complete_national_focus = GER_utilizegermanlabourfront 						#60
		complete_national_focus = GER_autarky 										#45
		complete_national_focus = GER_construction_projects 						#30
		complete_national_focus = GER_heerrearmament 								#60

		unlock_national_focus = GER_support_scw 									#20
		unlock_national_focus = GER_artillery_support_scw 							#20
		unlock_national_focus = GER_light_tank_support_scw 							#20
		unlock_national_focus = GER_volunteer_support_scw 							#20
		unlock_national_focus = GER_air_volunteer_support_scw 						#20
		unlock_national_focus = GER_lessons_from_the_scw 							#35

		complete_national_focus = GER_hermangoeringwerke 							#60
		complete_national_focus = GER_guderiansplanforthepanzerwaffe 				#70
		unlock_national_focus = GER_panzerkampfwageniii 							#35
		complete_national_focus = GER_volkswagen 									#70
		complete_national_focus = GER_coalliquefaction 								#70
		complete_national_focus = GER_extramilitaryresearch 						#70

		complete_national_focus = GER_reasserteasternclaims 						#45
		unlock_national_focus = GER_fateofczechoslovakia 							#70
		unlock_national_focus = GER_molotovribbentroppact 							#60
		set_global_flag = sov_yes_pact
		set_global_flag = poland_divided_molotov
		add_named_threat = { threat = 5 name = SOV_molotov_ribbentrop_tension }


		unlock_national_focus = GER_danzigorwar 									#20
		unlock_national_focus = GER_operationweserbung 								#35
		complete_national_focus = GER_germanwareconomy 								#60
		unlock_national_focus = GER_strategicaireffort 								#35
		complete_national_focus = GER_airinnovationsii 								#35

		complete_national_focus = GER_anschluss 									#70
		complete_national_focus = GER_eastern_front 								#10
		unlock_national_focus = GER_anticominternpact 								#20
		complete_national_focus = GER_advancegermandoctrine 						#35
		complete_national_focus = GER_luftwafferearmament 							#45
		complete_national_focus = GER_internal_politics 							#10
		complete_national_focus = GER_munichagreement 								#60
		unlock_national_focus = GER_first_vienna_award 								#45
		unlock_national_focus = GER_panzerkampfwageniv 								#35
		complete_national_focus = GER_western_front 								#10

		unlock_national_focus = GER_secondviennaaward 								#30
		complete_national_focus = GER_alliancewithitaly 							#10
		unlock_national_focus = BUL_Prepare_For_War 								#20

		complete_national_focus = GER_form_the_reichskommissariats 				#10
	}

	1941.6.22 = {
		complete_national_focus = GER_fockewulffw190 							#60
		unlock_national_focus = GER_mansteinsplan #completed in on actions 1940	#35
		unlock_national_focus = GER_expandtheschutzstaffel 						#30
		complete_national_focus = GER_sturmgeschtz 								#45
		complete_national_focus = GER_hermangoeringwerkeexpansion 				#70
		complete_national_focus = GER_ostmarkautobahn 							#35
		complete_national_focus = GER_austrianheavyindustry 					#45
		unlock_national_focus = GER_spoilsofwar									#35
		complete_national_focus = GER_successesinthewest 						#35
		unlock_national_focus = GER_warwiththeussr 								#1
		set_global_flag = operation_barbarossa_started
		complete_national_focus = GER_middle_eastern_policy 					#1
	}

	1942.11.19 = {
		unlock_national_focus = GER_exploitthewest								#45
		unlock_national_focus = GER_exploitthenorth 							#45
		unlock_national_focus = GER_germaninfantrytactics 						#35
		complete_national_focus = GER_germanflakadvancement 					#45
		complete_national_focus = GER_panzerindustry 							#45
		complete_national_focus = GER_rocketry 									#20
		complete_national_focus = GER_wartimelabourfront 						#35
		complete_national_focus = GER_wunderwaffe 								#35
		complete_national_focus = GER_norwegian_heavy_water						#35
		complete_national_focus = GER_pro_axis_sentiment_iraq 					#30
		complete_national_focus = GER_integrateaxiseconomy	 					#60
		complete_national_focus = GER_fuhrer_stadte	 							#30
		complete_national_focus = GER_atlanticwall	 							#60
		complete_national_focus = GER_lessonfromtheeasternfront					#70
	}

	1943.7.11 = {
		complete_national_focus = GER_power_to_speer							#45
		complete_national_focus = GER_nationalise_organisation_todt				#30
		complete_national_focus = GER_finalaireffort							#45
		complete_national_focus = GER_extend_flakturm_projects					#60
		complete_national_focus = GER_final_constructions						#30
	}

	1944.6.6 = {
		complete_national_focus = GER_revive_the_stuka							#40
		complete_national_focus = GER_amerikabomber								#35
		complete_national_focus = GER_operation_margarethe						#35
	}

	1944.12.16 = {
		unlock_national_focus = GER_morning_of_6_june
		complete_national_focus = GER_jagernotprogramm							#60
		complete_national_focus = GER_renew_construction_westwall				#20
		unlock_national_focus = GER_operation_panzerfaust						#30

			HUN = {
				keep_current_politics = yes
				complete_national_focus = HUN_declare_state_of_emergency
			}

		unlock_national_focus = GER_secure_cotentin_peninsula					#20
		unlock_national_focus = GER_battle_for_st_lo							#20
		unlock_national_focus = GER_operation_luttich							#10
		complete_national_focus = GER_E_series									#35
	}
	1945.3.20 = {
		complete_national_focus = GER_prepare_to_flood_ruhr
		complete_national_focus = GER_operation_clausewitz
		complete_national_focus = GER_fortify_zitadelle
	}
#########################################################################################

#########################################################################################
####################################### Settings ########################################
#########################################################################################
	### Nuclear ###
		set_variable = { nuclear_research_var = 0 }
		set_variable = { fissile_material_var = 0 }
		set_variable = { moderator_research_var = 0 }
		set_variable = { nuclear_assembly_var = 0 }
		set_variable = { nukes_dropped = 0 }
	###

	### Settings
		set_country_flag = wants_major_news_events
		set_country_flag = wants_medium_news_events
		set_country_flag = wants_minor_news_events

		set_country_flag = wants_fallen_city_newsevents

		set_global_flag = player_wants_axis_resistance
		set_global_flag = player_wants_allies_resistance
	###

	### Bridges ###
		set_variable = { amount_of_bridges_being_repaired = 0 }
		set_variable = { amount_of_bridges_being_blown = 0 }

		set_variable = { amount_of_bridges_blown = 0 }
		set_variable = { amount_of_bridges_repaired = 0 }

		add_dynamic_modifier = { modifier = blowing_bridge_dynamic_modifier }
		add_dynamic_modifier = { modifier = repairing_bridge_dynamic_modifier }
	###
#########################################################################################

#########################################################################################
################################### Equipment Variants ##################################
#########################################################################################
	create_equipment_variant = {
		name = "Ju 86"
		type = tac_bomber_equipment_0
		upgrades = {
			plane_tac_bomb_upgrade = 2
			plane_range_upgrade = 2
			plane_engine_upgrade = 2
			plane_reliability_upgrade = 5
		}
		obsolete = yes
	}

	create_equipment_variant = {
		name = "Do 17"
		type = tac_bomber_equipment_0
		upgrades = {
			plane_tac_bomb_upgrade = 3
			plane_range_upgrade = 1
			plane_engine_upgrade = 1
			plane_reliability_upgrade = 3
		}
		obsolete = yes
	}

	1940.1.1 = {
		create_equipment_variant = {
			name = "Panzer II Ausf. F"
			type = light_tank_chassis_2
			parent_version = 0
			modules = {
				main_armament_slot = tank_auto_cannon
				turret_type_slot = tank_light_two_man_tank_turret
				suspension_type_slot = tank_torsion_bar_suspension
				armor_type_slot = tank_riveted_armor
				engine_type_slot = tank_gasoline_engine
				special_type_slot_1 = tank_radio_1
			}
			upgrades = {
				tank_nsb_engine_upgrade = 6
				tank_nsb_armor_upgrade = 5
			}
			icon = "GFX_GER_improved_light_tank_medium"
		}
		army_experience = 125
		air_experience = 50
	}

	create_equipment_variant = {
		name = "Deutschland Class"
		type = ship_hull_cruiser_panzerschiff
		name_group = GER_CA_HISTORICAL
		parent_version = 0
		modules = {
			fixed_ship_anti_air_slot = ship_anti_air_1
			fixed_ship_battery_slot = ship_heavy_battery_2
			fixed_ship_secondaries_slot = ship_secondaries_1
			fixed_ship_armor_slot = ship_armor_cruiser_1
			fixed_ship_fire_control_system_slot = ship_fire_control_system_0
			fixed_ship_engine_slot = cruiser_ship_engine_1
			rear_1_custom_slot = ship_torpedo_1
			mid_1_custom_slot = ship_airplane_launcher_1
		}
	}
	create_equipment_variant = {
		name = "Type 24 Class"
		type = ship_hull_light_1
		name_group = GER_TB_HISTORICAL
		parent_version = 0
		modules = {
			fixed_ship_battery_slot = ship_light_battery_1
			fixed_ship_anti_air_slot = empty
			fixed_ship_fire_control_system_slot = ship_fire_control_system_0
			fixed_ship_radar_slot = empty
			fixed_ship_engine_slot = light_ship_engine_1
			fixed_ship_torpedo_slot = ship_torpedo_1
			rear_1_custom_slot = ship_mine_layer_1
		}
		obsolete = yes
	}
	create_equipment_variant = {
		name = "Zerstörer 1934 Class"
		type = ship_hull_light_2
		name_group = GER_DD_HISTORICAL
		parent_version = 0
		modules = {
			fixed_ship_battery_slot = ship_light_battery_2
			fixed_ship_anti_air_slot = ship_anti_air_1
			fixed_ship_fire_control_system_slot = ship_fire_control_system_0
			fixed_ship_radar_slot = empty
			fixed_ship_engine_slot = light_ship_engine_2
			fixed_ship_torpedo_slot = ship_torpedo_1
			mid_1_custom_slot = ship_torpedo_1
			rear_1_custom_slot = ship_mine_layer_1
		}
		obsolete = yes
	}
	create_equipment_variant = {
		name = "Zerstörer 1934A Class"
		type = ship_hull_light_2
		name_group = GER_DD_HISTORICAL
		parent_version = 0
		modules = {
			fixed_ship_battery_slot = ship_light_battery_2
			fixed_ship_anti_air_slot = ship_anti_air_1
			fixed_ship_fire_control_system_slot = ship_fire_control_system_0
			fixed_ship_radar_slot = empty
			fixed_ship_engine_slot = light_ship_engine_2
			fixed_ship_torpedo_slot = ship_torpedo_1
			mid_1_custom_slot = ship_torpedo_1
			rear_1_custom_slot = ship_depth_charge_1
		}
	}
	create_equipment_variant = {
		name = "Type II Class"
		type = ship_hull_submarine_1
		name_group = GER_SS_HISTORICAL
		parent_version = 0
		modules = {
			fixed_ship_torpedo_slot = ship_torpedo_sub_1
			fixed_ship_engine_slot = sub_ship_engine_1
			rear_1_custom_slot = empty
		}
		obsolete = yes
	}
	create_equipment_variant = {
		name = "Type VII Class"
		type = ship_hull_submarine_2
		name_group = GER_SS_HISTORICAL
		parent_version = 0
		modules = {
			fixed_ship_torpedo_slot = ship_torpedo_sub_2
			fixed_ship_engine_slot = sub_ship_engine_1
			rear_1_custom_slot = empty
		}
	}
	create_equipment_variant = {
		name = "Königsberg Class"
		type = ship_hull_cruiser_1
		name_group = GER_CL_HISTORICAL
		parent_version = 0
		modules = {
			fixed_ship_battery_slot = ship_light_medium_battery_1
			fixed_ship_anti_air_slot = ship_anti_air_1
			fixed_ship_fire_control_system_slot = ship_fire_control_system_0
			fixed_ship_radar_slot = empty
			fixed_ship_engine_slot = cruiser_ship_engine_1
			fixed_ship_armor_slot = ship_armor_cruiser_1
			mid_1_custom_slot = ship_torpedo_1
			mid_2_custom_slot = ship_light_medium_battery_1
			rear_1_custom_slot = ship_mine_layer_1
		}
		obsolete = yes
	}
	create_equipment_variant = {
		name = "Emden Class"
		type = ship_hull_cruiser_1
		name_group = GER_CL_HISTORICAL
		parent_version = 0
		modules = {
			fixed_ship_battery_slot = ship_light_medium_battery_1
			fixed_ship_anti_air_slot = empty
			fixed_ship_fire_control_system_slot = ship_fire_control_system_0
			fixed_ship_radar_slot = empty
			fixed_ship_engine_slot = cruiser_ship_engine_1
			fixed_ship_armor_slot = ship_armor_cruiser_1
			mid_1_custom_slot = ship_light_medium_battery_1
			mid_2_custom_slot = ship_torpedo_1
			rear_1_custom_slot = empty
		}
		obsolete = yes
	}
	create_equipment_variant = {
		name = "Bremse Class"
		type = ship_hull_cruiser_1
		name_group = GER_CL_HISTORICAL
		parent_version = 0
		modules = {
			fixed_ship_battery_slot = ship_light_battery_1
			fixed_ship_anti_air_slot = ship_anti_air_1
			fixed_ship_fire_control_system_slot = ship_fire_control_system_0
			fixed_ship_radar_slot = empty
			fixed_ship_engine_slot = cruiser_ship_engine_1
			mid_1_custom_slot = ship_anti_air_1
			mid_2_custom_slot = ship_mine_layer_1
			rear_1_custom_slot = ship_mine_layer_1
		}
		obsolete = yes
	}
	create_equipment_variant = {
		name = "Leipzig Class"
		type = ship_hull_cruiser_2
		name_group = GER_CL_HISTORICAL
		parent_version = 0
		modules = {
			fixed_ship_battery_slot = ship_light_medium_battery_1
			fixed_ship_anti_air_slot = ship_anti_air_1
			fixed_ship_fire_control_system_slot = ship_fire_control_system_0
			fixed_ship_radar_slot = empty
			fixed_ship_engine_slot = cruiser_ship_engine_1
			fixed_ship_armor_slot = ship_armor_cruiser_1
			front_1_custom_slot = ship_anti_air_1
			mid_1_custom_slot = ship_torpedo_1
			mid_2_custom_slot = ship_light_medium_battery_1
			rear_1_custom_slot = ship_airplane_launcher_1
		}
	}
	create_equipment_variant = {
		name = "Admiral Hipper Class"
		type = ship_hull_cruiser_2
		name_group = GER_CA_HISTORICAL
		parent_version = 0
		modules = {
			fixed_ship_battery_slot = ship_medium_battery_2
			fixed_ship_anti_air_slot = ship_anti_air_1
			fixed_ship_fire_control_system_slot = ship_fire_control_system_0
			fixed_ship_radar_slot = empty
			fixed_ship_engine_slot = cruiser_ship_engine_1
			fixed_ship_armor_slot = ship_armor_cruiser_2
			front_1_custom_slot = ship_anti_air_1
			mid_1_custom_slot = ship_torpedo_1
			mid_2_custom_slot = ship_airplane_launcher_1
			rear_1_custom_slot = ship_medium_battery_2
		}
	}
	create_equipment_variant = {
		name = "Scharnhorst Class"
		type = ship_hull_heavy_2
		name_group = GER_BB_HISTORICAL
		parent_version = 0
		modules = {
			fixed_ship_battery_slot = ship_heavy_battery_2
			fixed_ship_anti_air_slot = ship_anti_air_1
			fixed_ship_fire_control_system_slot = ship_fire_control_system_0
			fixed_ship_radar_slot = empty
			fixed_ship_engine_slot = heavy_ship_engine_2
			fixed_ship_secondaries_slot = ship_secondaries_1
			fixed_ship_armor_slot = ship_armor_bb_1
			front_1_custom_slot = ship_anti_air_1
			mid_1_custom_slot = empty
			mid_2_custom_slot = ship_secondaries_1
			rear_1_custom_slot = ship_heavy_battery_2
		}
	}
	create_equipment_variant = {
		name = "Deutschland Class"
		type = ship_hull_pre_dreadnought
		name_group = GER_BB_HISTORICAL
		parent_version = 0
		modules = {
			fixed_ship_battery_slot = ship_heavy_battery_1
			fixed_ship_anti_air_slot = ship_anti_air_1
			fixed_ship_fire_control_system_slot = ship_fire_control_system_0
			fixed_ship_radar_slot = empty
			fixed_ship_engine_slot = heavy_ship_engine_1
			fixed_ship_secondaries_slot = ship_secondaries_1
			fixed_ship_armor_slot = ship_armor_bb_1
			front_1_custom_slot = ship_anti_air_1
			mid_1_custom_slot = empty
			rear_1_custom_slot = empty
		}
		obsolete = yes
	}

	create_equipment_variant = {
		name = "Leichttraktor"
		type = light_tank_chassis_0
		parent_version = 0
		modules = {
			main_armament_slot = tank_small_cannon
			turret_type_slot = tank_light_two_man_tank_turret
			suspension_type_slot = tank_christie_suspension
			armor_type_slot = tank_riveted_armor
			engine_type_slot = tank_gasoline_engine
			special_type_slot_1 = tank_radio_1
		}
		upgrades = {
			tank_nsb_engine_upgrade = 2
			tank_nsb_armor_upgrade = 2
		}
		obsolete = yes
		icon = "GFX_gwtank_medium"
	}
	create_equipment_variant = {
		name = "Panzer I Ausf. A"
		type = light_tank_chassis_1
		parent_version = 0
		modules = {
			main_armament_slot = tank_heavy_machine_gun
			turret_type_slot = tank_light_one_man_tank_turret
			suspension_type_slot = tank_christie_suspension
			armor_type_slot = tank_riveted_armor
			engine_type_slot = tank_gasoline_engine
			special_type_slot_1 = tank_radio_1
		}
		upgrades = {
			tank_nsb_engine_upgrade = 5
			tank_nsb_armor_upgrade = 1
		}
		icon = "GFX_GER_basic_light_tank_medium"
		obsolete = yes
	}
	create_equipment_variant = {
		name = "Neubaufahrzeug"
		type = heavy_tank_chassis_1
		parent_version = 0
		modules = {
			main_armament_slot = tank_close_support_gun
			turret_type_slot = tank_heavy_three_man_tank_turret
			suspension_type_slot = tank_bogie_suspension
			armor_type_slot = tank_riveted_armor
			engine_type_slot = tank_gasoline_engine
			special_type_slot_1 = tank_radio_1
			special_type_slot_2 = secondary_turret_hmg
			special_type_slot_3 = secondary_turret_hmg
			special_type_slot_4 = secondary_turret_hmg
		}
		upgrades = {
			tank_nsb_engine_upgrade = 6
			tank_nsb_armor_upgrade = 2
		}
		icon = "GFX_GER_basic_heavy_tank_medium"
	}
	create_equipment_variant = {
		name = "Panzer II Ausf. a"
		type = light_tank_chassis_2
		parent_version = 0
		modules = {
			main_armament_slot = tank_auto_cannon
			turret_type_slot = tank_light_two_man_tank_turret
			suspension_type_slot = tank_christie_suspension
			armor_type_slot = tank_riveted_armor
			engine_type_slot = tank_gasoline_engine
			special_type_slot_1 = tank_radio_1
		}
		upgrades = {
			tank_nsb_engine_upgrade = 3
			tank_nsb_armor_upgrade = 2
		}
		icon = "GFX_GER_improved_light_tank_medium"
	}


	1939.1.1 = {
		create_equipment_variant = {
			name = "Zerstörer 1936 Class"
			type = ship_hull_light_2
			name_group = GER_DD_HISTORICAL
			parent_version = 0
			modules = {
				fixed_ship_battery_slot = ship_light_battery_2
				fixed_ship_anti_air_slot = ship_anti_air_1
				fixed_ship_fire_control_system_slot = ship_fire_control_system_0
				fixed_ship_radar_slot = empty
				fixed_ship_engine_slot = light_ship_engine_2
				fixed_ship_torpedo_slot = ship_torpedo_1
				rear_1_custom_slot = ship_depth_charge_1
			}
		}
		create_equipment_variant = {
			name = "Bismarck Class"
			type = ship_hull_heavy_2
			name_group = GER_BB_HISTORICAL
			parent_version = 0
			modules = {
				fixed_ship_battery_slot = ship_heavy_battery_3
				fixed_ship_anti_air_slot = ship_anti_air_1
				fixed_ship_fire_control_system_slot = ship_fire_control_system_1
				fixed_ship_radar_slot = empty
				fixed_ship_engine_slot = heavy_ship_engine_2
				fixed_ship_secondaries_slot = ship_secondaries_2
				fixed_ship_armor_slot = ship_armor_bb_2
				front_1_custom_slot = ship_anti_air_1
				mid_1_custom_slot = ship_airplane_launcher_1
				mid_2_custom_slot = ship_secondaries_2
				rear_1_custom_slot = ship_heavy_battery_3
			}
		}
		create_equipment_variant = {
			name = "Graf Zeppelin Class"
			type = ship_hull_carrier_1
			name_group = GER_CV_HISTORICAL
			parent_version = 0
			modules = {
				fixed_ship_deck_slot_1 = ship_deck_space
				fixed_ship_deck_slot_2 = ship_deck_space
				fixed_ship_anti_air_slot = ship_anti_air_1
				fixed_ship_radar_slot = empty
				fixed_ship_engine_slot = carrier_ship_engine_2
				fixed_ship_secondaries_slot = ship_secondaries_1
				front_1_custom_slot = ship_deck_space
			}
		}
		create_equipment_variant = {
			name = "Panzer III Ausf. F"
			type = medium_tank_chassis_1
			parent_version = 0
			modules = {
				main_armament_slot = tank_small_cannon_2
				turret_type_slot = tank_medium_three_man_tank_turret
				suspension_type_slot = tank_torsion_bar_suspension
				armor_type_slot = tank_welded_armor
				engine_type_slot = tank_gasoline_engine
				special_type_slot_1 = tank_radio_1
				special_type_slot_2 = smoke_launchers
				special_type_slot_3 = empty
				special_type_slot_4 = empty
			}
			upgrades = {
				tank_nsb_engine_upgrade = 6
				tank_nsb_armor_upgrade = 3
			}
			icon = "GFX_GER_basic_medium_tank_medium"
		}
		create_equipment_variant = {
			name = "Panzer IV Ausf. C"
			type = medium_tank_chassis_1
			parent_version = 1
			modules = {
				main_armament_slot = tank_close_support_gun
				turret_type_slot = tank_medium_three_man_tank_turret
				suspension_type_slot = tank_bogie_suspension
				armor_type_slot = tank_welded_armor
				engine_type_slot = tank_gasoline_engine
				special_type_slot_1 = tank_radio_1
				special_type_slot_2 = smoke_launchers
				special_type_slot_3 = empty
				special_type_slot_4 = empty
			}
			upgrades = {
				tank_nsb_engine_upgrade = 6
				tank_nsb_armor_upgrade = 3
			}
			icon = "GFX_GER_improved_medium_tank_medium"
		}
		create_equipment_variant = {
			name = "Panzer 35(t)"
			type = light_tank_chassis_1
			parent_version = 1
			modules = {
				main_armament_slot = tank_high_velocity_cannon
				turret_type_slot = tank_light_two_man_tank_turret
				suspension_type_slot = tank_bogie_suspension
				armor_type_slot = tank_riveted_armor
				engine_type_slot = tank_gasoline_engine
				special_type_slot_1 = tank_radio_1
				special_type_slot_2 = empty
				special_type_slot_3 = empty
				special_type_slot_4 = empty
			}
			upgrades = {
				tank_nsb_engine_upgrade = 3
				tank_nsb_armor_upgrade = 2
			}
			obsolete = yes
			icon = "GFX_CZE_imp_light_tank"
		}
		create_equipment_variant = {
			name = "Panzer 38(t)"
			type = light_tank_chassis_2
			parent_version = 1
			modules = {
				main_armament_slot = tank_high_velocity_cannon
				turret_type_slot = tank_light_two_man_tank_turret
				suspension_type_slot = tank_bogie_suspension
				armor_type_slot = tank_riveted_armor
				engine_type_slot = tank_gasoline_engine
				special_type_slot_1 = tank_radio_1
				special_type_slot_2 = smoke_launchers
				special_type_slot_3 = empty
				special_type_slot_4 = empty
			}
			upgrades = {
				tank_nsb_engine_upgrade = 3
				tank_nsb_armor_upgrade = 3
			}

			icon = "GFX_CZE_basic_main_tank"
		}
		create_equipment_variant = {
			name = "He 112"
			type = fighter_equipment_1
			upgrades = {
				plane_gun_upgrade = 1
				plane_range_upgrade = 1
				plane_engine_upgrade = 0
				plane_reliability_upgrade = 2
			}
		}
		create_equipment_variant = {
			name = "Bf 109 E"
			type = fighter_equipment_1
			upgrades = {
				plane_gun_upgrade = 2
				plane_range_upgrade = 1
				plane_engine_upgrade = 2
				plane_reliability_upgrade = 4
			}
		}
	}
#########################################################################################

#########################################################################################
######################################## OOBs ###########################################
#########################################################################################
	oob = "_GER_1936"
		set_naval_oob = "naval_mtg_GER_1936"

	1940.1.1 = {
		oob = "_GER_1940"
		set_naval_oob = "naval_mtg_GER_1940"
	}

	1941.6.21 = {
		oob = "_GER_1941"
		set_naval_oob = "naval_mtg_GER_1941"
	}

	1942.11.19 = {
		oob = "_GER_1942_11"
		set_naval_oob = "naval_mtg_GER_1942_11"
	}

	1943.1.1 = {
		oob = "_GER_1943"
		set_naval_oob = "naval_mtg_GER_1943"
	}

	1944.6.1 = {
		oob = "_GER_1944_6"
		set_naval_oob = "naval_mtg_GER_1944_6"
	}



	1944.12.1 = {
		oob = "_GER_1944_12"
		set_naval_oob = "naval_mtg_GER_1944_12"
	}

	1945.1.1 = {
		oob = "_GER_1945"
		set_naval_oob = "naval_mtg_GER_1945"
	}
#########################################################################################
