GER_battle_in_the_west = {

	GER_ground_air_operations = {

		icon = generic_air


		available = {
			NOT = { has_country_flag = no_fuel_west }
			NOT = { has_idea = less_oil_airforce }
			custom_trigger_tooltip = {
				tooltip = at_least_2_ticker_west
				check_variable = { global.german_ticker_2 > 1 }
			}
		}

		visible = {
			original_tag = GER
		}

		cost = 50
		fire_only_once = no

		ai_will_do = {
			factor = 0
		}

		days_re_enable = 0
		days_remove = 30

		complete_effect = {
			add_ideas = less_oil_airforce
			set_country_flag = grounded_air_operations
			remove_1_west_ticker = yes
		}

		remove_effect = {
			remove_ideas = less_oil_airforce
			clr_country_flag = grounded_air_operations
		}
	}

	GER_halt_panzer_operations = {

		icon = generic_operation


		available = {
			NOT = { has_country_flag = no_fuel_west }
			NOT = { has_idea = less_oil_armor }
			custom_trigger_tooltip = {
				tooltip = at_least_2_ticker_west
				check_variable = { global.german_ticker_2 > 1 }
			}
		}

		cost = 50
		fire_only_once = no

		ai_will_do = {
			factor = 0
		}

		visible = {
			original_tag = GER
		}

		days_re_enable = 0
		days_remove = 30

		complete_effect = {
			add_ideas = less_oil_armor
			set_country_flag = halted_panzer_operations
			remove_1_west_ticker = yes
		}

		remove_effect = {
			remove_ideas = less_oil_armor
			clr_country_flag = halted_panzer_operations
		}
	}

	GER_temporarily_suspend_unrestricted_submarine_warfare = {

		icon = GFX_decision_sub


		available = {
			NOT = { has_idea = less_oil_navy }
			custom_trigger_tooltip = {
				tooltip = at_least_2_ticker_west
				check_variable = { global.german_ticker_2 > 1 }
			}
		}

		cost = 50
		fire_only_once = no

		ai_will_do = {
			factor = 0
		}

		visible = {
			original_tag = GER
		}

		days_re_enable = 0
		days_remove = 30
		complete_effect = {
			add_ideas = less_oil_navy
			set_country_flag = suspended_unrestricted_submarine_warfare
			remove_1_west_ticker = yes
			ENG = { remove_ideas = unrestricted_submarine_warfare }
		}

		remove_effect = {
			remove_ideas = less_oil_navy
			clr_country_flag = suspended_unrestricted_submarine_warfare
			ENG = { add_ideas = unrestricted_submarine_warfare }
		}
	}

	GER_route_fuel_west = {

		icon = oil


		available = {
		}

		cost = 50
		fire_only_once = no

		ai_will_do = {
			factor = 0
		}

		visible = {
			original_tag = GER
		}

		days_re_enable = 0
		days_remove = 30
		complete_effect = {
			set_country_flag = more_fuel_west
			add_ideas = more_fuel_deliveries
			clr_country_flag = no_fuel_west

			add_5_west_ticker = yes
			remove_5_east_ticker = yes
		}

		remove_effect = {
			clr_country_flag = more_fuel_west
			remove_ideas = more_fuel_deliveries
		}
	}

	GER_send_planes_west = {

		icon = generic_air


		available = {
			has_tech = early_fighter
		}

		cost = 50
		fire_only_once = no

		ai_will_do = {
			factor = 0
		}

		visible = {
			original_tag = GER
		}

		days_re_enable = 0
		days_remove = 30

		remove_effect = {
			custom_effect_tooltip = will_add_5_to_west_ticker

			add_5_west_ticker = yes

			if = {
				limit = {
					has_tech = early_fighter
					NOT = { has_tech = fighter1 }
				}
				add_equipment_to_stockpile = { type = fighter_equipment_0 amount = 100 }
			}

			if = {
				limit = {
					has_tech = fighter1
					NOT = { has_tech = fighter2 }
				}
				add_equipment_to_stockpile = { type = fighter_equipment_1 amount = 100 }
			}

			if = {
				limit = {
					has_tech = fighter2
					NOT = { has_tech = fighter3 }
				}
				add_equipment_to_stockpile = { type = fighter_equipment_2 amount = 100 }
			}

			if = {
				limit = { has_tech = fighter3 }
				add_equipment_to_stockpile = { type = fighter_equipment_3 amount = 100 }
			}
		}
		complete_effect = {
			remove_5_east_ticker = yes
		}
	}

	GER_bring_in_osttruppen = {

		icon = generic_army_support


		available = {
			custom_trigger_tooltip = {
				tooltip = at_least_2_ticker_east
				check_variable = { global.german_ticker_2 > 1 }
			}
			23 = { is_owned_and_controlled_by = GER }
		}

		visible = {
			original_tag = GER
		}

		cost = 50
		fire_only_once = no

		ai_will_do = {
			factor = 0
		}

		days_re_enable = 0
		days_remove = 10

		remove_effect = {
			if = {
				limit = { check_variable = { global.german_ticker_2 < 100 } }
				add_1_west_ticker = yes
			}

			23 = {
				create_unit = {
					division = "name = \"Osttruppen Battalion\" division_template = \"Osttruppen Battalion\" start_experience_factor = 0.3"
					owner = GER
				}
				create_unit = {
					division = "name = \"Osttruppen Battalion\" division_template = \"Osttruppen Battalion\" start_experience_factor = 0.3"
					owner = GER
				}
				create_unit = {
					division = "name = \"Osttruppen Battalion\" division_template = \"Osttruppen Battalion\" start_experience_factor = 0.3"
					owner = GER
				}
				create_unit = {
					division = "name = \"Osttruppen Battalion\" division_template = \"Osttruppen Battalion\" start_experience_factor = 0.3"
					owner = GER
				}
				create_unit = {
					division = "name = \"Osttruppen Battalion\" division_template = \"Osttruppen Battalion\" start_experience_factor = 0.3"
					owner = GER
				}
			}
		}
		complete_effect = {
			remove_2_east_ticker = yes
		}
	}
}

GER_category_nuclear_program = {
	start_heavy_water_production_vemork = {

		icon = generic_construction

        cost = 0
        fire_only_once = no
		days_remove = -1
		days_re_enable = 1

		available = {
			has_completed_focus = GER_norwegian_heavy_water
			91 = {
				CONTROLLER = {
					OR = {
						is_subject_of = GER
						original_tag = GER
					}
				}
			}

			NOT = { has_global_flag = GER_norway_heavy_water_production_vemork_sabotaged }
		}

		modifier = {
			civilian_factory_use = 3
			custom_modifier_tooltip = add_fissile_material_production_speed_modifier_50_tt
		}

		cancel_trigger = {
			hidden_trigger = {
				OR = {
					# Physically not possible #
					NOT = {
						91 = {
							CONTROLLER = {
								OR = {
									is_subject_of = GER
									original_tag = GER
								}
							}
						}
					}
					# Cancelled by player or sabotage #
					NOT = {
						has_global_flag = GER_norway_heavy_water_production_vemork_online
					}
				}
			}
		}

		complete_effect = {
			hidden_effect = {
				set_temp_variable = { fissile_material_production_modifier_amount = 0.5 }
				add_fissile_material_modifier = yes
				set_global_flag = GER_norway_heavy_water_production_vemork_online
			}
		}

		cancel_effect = {
			hidden_effect = {
				set_temp_variable = { fissile_material_production_modifier_amount = -0.5 }
				add_fissile_material_modifier = yes
				clr_global_flag = GER_norway_heavy_water_production_vemork_online
			}
		}

		ai_will_do = {
			factor = 1000
		}
    }

	stop_heavy_water_production_vemork = {
		icon = generic_construction

        cost = 0
        fire_only_once = no

		days_re_enable = 1

		visible = {
			has_global_flag = GER_norway_heavy_water_production_vemork_online
		}

		complete_effect = {
			clr_global_flag = GER_norway_heavy_water_production_vemork_online
		}

		ai_will_do = {
			factor = 0
		}
	}

	repair_heavy_water_production_vemork = {
		icon = generic_construction

        cost = 0
        fire_only_once = no
		days_remove = 180

		days_re_enable = 1

		visible = {
			has_global_flag = GER_norway_heavy_water_production_vemork_sabotaged
		}

		modifier = {
			civilian_factory_use = 15
		}

		complete_effect = {
			clr_global_flag = GER_norway_heavy_water_production_vemork_sabotaged
		}

		ai_will_do = {
			factor = 0
		}
	}
}

GER_category_fuhrer_stadte = {
	building_slots_hamburg = {

		icon = generic_construction

        cost = 100
        fire_only_once = no

        days_re_enable = 30

        available = {
            97 = {
				free_building_slots = {
					building = industrial_complex
					size < 2
				}
            }
        }

        complete_effect = {
			97 = {
				add_extra_state_shared_building_slots = 2
			}
		}
		ai_will_do = {
			factor = 1
			modifier = {
				factor = 10
				97 = { free_building_slots = { building = industrial_complex size < 2 include_locked = no } }
			}
		}
    }
	building_slots_linz = {

		icon = generic_construction

        cost = 100
        fire_only_once = no

        days_re_enable = 30

        available = {
            427 = {
				free_building_slots = {
					building = industrial_complex
					size < 2
				}
            }
        }

        complete_effect = {
			427 = {
				add_extra_state_shared_building_slots = 2
			}
		}
		ai_will_do = {
			factor = 1
			modifier = {
				factor = 10
				427 = { free_building_slots = { building = industrial_complex size < 2 include_locked = no } }
			}
		}
    }
	building_slots_munchen = {

		icon = generic_construction

        cost = 100
        fire_only_once = no

        days_re_enable = 30

        available = {
            420 = {
				free_building_slots = {
					building = industrial_complex
					size < 2
				}
            }
        }

        complete_effect = {
			420 = {
				add_extra_state_shared_building_slots = 2
			}
		}
		ai_will_do = {
			factor = 1
			modifier = {
				factor = 10
				420 = { free_building_slots = { building = industrial_complex size < 2 include_locked = no } }
			}
		}
    }
	building_slots_nuremberg = {

		icon = generic_construction

        cost = 100
        fire_only_once = no

        days_re_enable = 30

        available = {
            369 = {
				free_building_slots = {
					building = industrial_complex
					size < 2
				}
            }
        }

        complete_effect = {
			369 = {
				add_extra_state_shared_building_slots = 2
			}
		}
		ai_will_do = {
			factor = 1
			modifier = {
				factor = 10
				369 = { free_building_slots = { building = industrial_complex size < 2 include_locked = no } }
			}
		}
    }

	GER_fuhrer_stadt_linz = {

		icon = generic_army

		available = {
			#TODO balance around amount of factories in state
		}

		visible = {
			check_variable = { linz_fuhrer_stadt < 5 }
		}

		fire_only_once = no
		days_remove = 180

		complete_effect = {
			add_stability = 0.025
			custom_effect_tooltip = "gain_point_5_factory_output_tt"
			add_to_variable = { linz_fuhrer_stadt = 1 }
			add_to_variable = { global.fuhrer_stadt_modifier = 0.005 }

			if = {
				limit = {
					check_variable = { linz_fuhrer_stadt > 4 }
				}
				add_to_variable = { global.fuhrer_stadt_modifier = 0.03 }
				custom_effect_tooltip = "gain_3_factory_output_tt"

				#TODO newsevent for fuhrerstadt complete
			}
		}
	}

	GER_fuhrer_stadt_berlin = {

		icon = generic_army

		available = {
			#TODO balance around amount of factories in state
		}

		visible = {
			check_variable = { berlin_fuhrer_stadt < 5 }
		}

		fire_only_once = no
		days_remove = 180

		complete_effect = {
			add_stability = 0.025
			custom_effect_tooltip = "gain_point_5_factory_output_tt"
			add_to_variable = { berlin_fuhrer_stadt = 1 }
			add_to_variable = { global.fuhrer_stadt_modifier = 0.005 }

			if = {
				limit = {
					check_variable = { berlin_fuhrer_stadt > 4 }
				}
				add_to_variable = { global.fuhrer_stadt_modifier = 0.03 }
				custom_effect_tooltip = "gain_3_factory_output_tt"

				#TODO newsevent for fuhrerstadt complete
			}
		}
	}

	GER_fuhrer_stadt_hamburg = {

		icon = generic_army

		available = {
			#TODO balance around amount of factories in state
		}

		visible = {
			check_variable = { hamburg_fuhrer_stadt < 5 }
		}

		fire_only_once = no
		days_remove = 180

		complete_effect = {
			add_stability = 0.025
			custom_effect_tooltip = "gain_point_5_factory_output_tt"
			add_to_variable = { hamburg_fuhrer_stadt = 1 }
			add_to_variable = { global.fuhrer_stadt_modifier = 0.005 }

			if = {
				limit = {
					check_variable = { hamburg_fuhrer_stadt > 4 }
				}
				add_to_variable = { global.fuhrer_stadt_modifier = 0.03 }
				custom_effect_tooltip = "gain_3_factory_output_tt"

				#TODO newsevent for fuhrerstadt complete
			}
		}
	}

	GER_fuhrer_stadt_munchen = {

		icon = generic_army

		available = {
			#TODO balance around amount of factories in state
		}

		visible = {
			check_variable = { munchen_fuhrer_stadt < 5 }
		}

		fire_only_once = no
		days_remove = 180

		complete_effect = {
			add_stability = 0.025
			custom_effect_tooltip = "gain_point_5_factory_output_tt"
			add_to_variable = { munchen_fuhrer_stadt = 1 }
			add_to_variable = { global.fuhrer_stadt_modifier = 0.005 }

			if = {
				limit = {
					check_variable = { munchen_fuhrer_stadt > 4 }
				}
				add_to_variable = { global.fuhrer_stadt_modifier = 0.03 }
				custom_effect_tooltip = "gain_3_factory_output_tt"

				#TODO newsevent for fuhrerstadt complete
			}
		}
	}

	GER_fuhrer_stadt_nuremberg = {

		icon = generic_army

		available = {
			#TODO balance around amount of factories in state
		}

		visible = {
			check_variable = { nuremberg_fuhrer_stadt < 5 }
		}

		fire_only_once = no
		days_remove = 180

		complete_effect = {
			add_stability = 0.025
			custom_effect_tooltip = "gain_point_5_factory_output_tt"
			add_to_variable = { nuremberg_fuhrer_stadt = 1 }
			add_to_variable = { global.fuhrer_stadt_modifier = 0.005 }

			if = {
				limit = {
					check_variable = { nuremberg_fuhrer_stadt > 4 }
				}
				add_to_variable = { global.fuhrer_stadt_modifier = 0.03 }
				custom_effect_tooltip = "gain_3_factory_output_tt"

				#TODO newsevent for fuhrerstadt complete
			}
		}
	}
}

GER_category_phantom_army = {

	GER_required_troops = {

		icon = generic_army

		is_good = yes

		available = {
			OR = {
				divisions_in_state = { state = 45 size < 3 }
				divisions_in_state = { state = 40 size < 3 }
				divisions_in_state = { state = 39 size < 3 }
				divisions_in_state = { state = 36 size < 3 }
			}
		}

		days_mission_timeout = 180

		fire_only_once = yes

		activation = {
			original_tag = GER
			has_start_date > 1944.5.1
			has_start_date < 1944.12.13
		}


		timeout_effect = {
			remove_ideas = phantom_army
		}

		complete_effect = {
			remove_ideas = phantom_army
			add_timed_idea = { idea = phantom_army_2 days = 120 }
		}
	}
}

GER_category_fortifications_focuses = {
	GER_atlantikwall_france_phase_1 = {
		icon = generic_construction

		visible = {
			has_completed_focus = GER_atlanticwall
		}

		available = {
			num_of_available_civilian_factories > 14

			347 = { is_controlled_by_axis = yes }
			364 = { is_controlled_by_axis = yes }
			374 = { is_controlled_by_axis = yes }
			375 = { is_controlled_by_axis = yes }
			166 = { is_controlled_by_axis = yes }
			207 = { is_controlled_by_axis = yes }
			189 = { is_controlled_by_axis = yes }
			258 = { is_controlled_by_axis = yes }
			271 = { is_controlled_by_axis = yes }
			245 = { is_controlled_by_axis = yes }
			168 = { is_controlled_by_axis = yes }
			175 = { is_controlled_by_axis = yes }
			398 = { is_controlled_by_axis = yes }
			439 = { is_controlled_by_axis = yes }
			451 = { is_controlled_by_axis = yes }
			487 = { is_controlled_by_axis = yes }
			502 = { is_controlled_by_axis = yes }
		}


		highlight_states = {
			highlight_states_trigger = {
				is_core_of = FRA
				is_controlled_by_axis = yes
				is_coastal = yes
				is_in_home_area = yes
				NOT = {
					state = 155
					state = 535
					state = 201
					state = 515
					state = 547
					state = 508
				}
			}
		}

		modifier = {
			civilian_factory_use = 15
		}

		fire_only_once = yes
		days_remove = 100

		remove_effect = {
			set_country_flag = GER_atlantikwall_france_phase_1
			every_state = {
				limit = {
					OR = {
						is_core_of = FRA
						state = 380
					}
					is_coastal = yes
					NOT = {
						state = 155
						state = 535
						state = 201
						state = 515
						state = 547
						state = 508
					}
					is_controlled_by_axis = yes
					is_in_home_area = yes
				}

				add_building_construction = {
					type = coastal_bunker
					level = 1
					instant_build = yes
					province = {
						all_provinces = yes
						limit_to_coastal = yes
					}
				}
			}
		}
	}

	GER_atlantikwall_france_phase_2 = {
		icon = generic_construction

		visible = {
			has_completed_focus = GER_atlanticwall
		}

		available = {
			num_of_available_civilian_factories > 19
			has_country_flag = GER_atlantikwall_france_phase_1

			347 = { is_controlled_by_axis = yes }
			364 = { is_controlled_by_axis = yes }
			374 = { is_controlled_by_axis = yes }
			375 = { is_controlled_by_axis = yes }
			166 = { is_controlled_by_axis = yes }
			207 = { is_controlled_by_axis = yes }
			189 = { is_controlled_by_axis = yes }
			258 = { is_controlled_by_axis = yes }
			271 = { is_controlled_by_axis = yes }
			245 = { is_controlled_by_axis = yes }
			168 = { is_controlled_by_axis = yes }
			175 = { is_controlled_by_axis = yes }
			398 = { is_controlled_by_axis = yes }
			439 = { is_controlled_by_axis = yes }
			451 = { is_controlled_by_axis = yes }
			487 = { is_controlled_by_axis = yes }
			502 = { is_controlled_by_axis = yes }
		}


		highlight_states = {
			highlight_states_trigger = {
				is_core_of = FRA
				is_controlled_by_axis = yes
				is_coastal = yes
				is_in_home_area = yes
				NOT = {
					state = 155
					state = 535
					state = 201
					state = 515
					state = 547
					state = 508
				}
			}
		}

		modifier = {
			civilian_factory_use = 20
		}

		fire_only_once = yes
		days_remove = 100

		remove_effect = {
			set_country_flag = GER_atlantikwall_france_phase_2
			every_state = {
				limit = {
					OR = {
						is_core_of = FRA
						state = 380
					}
					is_coastal = yes
					NOT = {
						state = 155
						state = 535
						state = 201
						state = 515
						state = 547
						state = 508
					}
					is_controlled_by_axis = yes
					is_in_home_area = yes
				}

				add_building_construction = {
					type = coastal_bunker
					level = 1
					instant_build = yes
					province = {
						all_provinces = yes
						limit_to_coastal = yes
					}
				}
				add_building_construction = {
					type = coastal_bunker
					level = 2
					instant_build = yes
					province = {
						all_provinces = yes
						limit_to_coastal = yes
						limit_to_naval_base = yes
					}
				}
			}
		}
	}

	GER_atlantikwall_france_phase_3 = {
		icon = generic_construction

		visible = {
			has_completed_focus = GER_atlanticwall
		}

		available = {
			num_of_available_civilian_factories > 24
			has_country_flag = GER_atlantikwall_france_phase_2

			347 = { is_controlled_by_axis = yes }
			364 = { is_controlled_by_axis = yes }
			374 = { is_controlled_by_axis = yes }
			375 = { is_controlled_by_axis = yes }
			166 = { is_controlled_by_axis = yes }
			207 = { is_controlled_by_axis = yes }
			189 = { is_controlled_by_axis = yes }
			258 = { is_controlled_by_axis = yes }
			271 = { is_controlled_by_axis = yes }
			245 = { is_controlled_by_axis = yes }
			168 = { is_controlled_by_axis = yes }
			175 = { is_controlled_by_axis = yes }
			398 = { is_controlled_by_axis = yes }
			439 = { is_controlled_by_axis = yes }
			451 = { is_controlled_by_axis = yes }
			487 = { is_controlled_by_axis = yes }
			502 = { is_controlled_by_axis = yes }
		}

		highlight_states = {
			highlight_states_trigger = {
				is_core_of = FRA
				is_controlled_by_axis = yes
				is_coastal = yes
				is_in_home_area = yes
				NOT = {
					state = 155
					state = 535
					state = 201
					state = 515
					state = 547
					state = 508
				}
			}
		}

		modifier = {
			civilian_factory_use = 25
		}

		fire_only_once = yes
		days_remove = 100

		remove_effect = {
			set_country_flag = GER_atlantikwall_france_phase_3
			every_state = {
				limit = {
					OR = {
						is_core_of = FRA
						state = 380
					}
					is_coastal = yes
					NOT = {
						state = 155
						state = 535
						state = 201
						state = 515
						state = 547
						state = 508
					}
					is_controlled_by_axis = yes
					is_in_home_area = yes
				}

				add_building_construction = {
					type = bunker
					level = 5
					instant_build = yes
					province = {
						all_provinces = yes
						limit_to_coastal = yes

						limit_to_victory_point > 9
					}
				}
			}
		}
	}

	GER_atlantikwall_lowlands_phase_1 = {
		icon = generic_construction

		visible = {
			has_completed_focus = GER_atlanticwall
		}

		available = {
			num_of_available_civilian_factories > 9

			235 = { is_controlled_by_axis = yes }
			332 = { is_controlled_by_axis = yes }
			261 = { is_controlled_by_axis = yes }
			326 = { is_controlled_by_axis = yes }
			308 = { is_controlled_by_axis = yes }
			303 = { is_controlled_by_axis = yes }
			298 = { is_controlled_by_axis = yes }
			297 = { is_controlled_by_axis = yes }
		}


		highlight_states = {
			highlight_states_trigger = {
				OR = {
					is_core_of = HOL
					is_core_of = BEL
				}
				is_controlled_by_axis = yes
				is_coastal = yes
				is_in_home_area = yes
			}
		}

		modifier = {
			civilian_factory_use = 10
		}

		fire_only_once = yes
		days_remove = 100

		remove_effect = {
			set_country_flag = GER_atlantikwall_lowlands_phase_1
			every_state = {
				limit = {
					OR = {
						is_core_of = HOL
						is_core_of = BEL
					}
					CONTROLLER = { is_in_german_faction = yes }
					is_coastal = yes
					is_in_home_area = yes
				}

				add_building_construction = {
					type = coastal_bunker
					level = 1
					instant_build = yes
					province = {
						all_provinces = yes
						limit_to_coastal = yes
					}
				}
			}
		}
	}

	GER_atlantikwall_lowlands_phase_2 = {
		icon = generic_construction

		visible = {
			has_completed_focus = GER_atlanticwall
		}

		available = {
			num_of_available_civilian_factories > 14
			has_country_flag = GER_atlantikwall_lowlands_phase_1

			235 = { is_controlled_by_axis = yes }
			332 = { is_controlled_by_axis = yes }
			261 = { is_controlled_by_axis = yes }
			326 = { is_controlled_by_axis = yes }
			308 = { is_controlled_by_axis = yes }
			303 = { is_controlled_by_axis = yes }
			298 = { is_controlled_by_axis = yes }
			297 = { is_controlled_by_axis = yes }
		}


		highlight_states = {
			highlight_states_trigger = {
				OR = {
					is_core_of = HOL
					is_core_of = BEL
				}
				is_controlled_by_axis = yes
				is_coastal = yes
				is_in_home_area = yes
			}
		}

		modifier = {
			civilian_factory_use = 15
		}

		fire_only_once = yes
		days_remove = 100

		remove_effect = {
			set_country_flag = GER_atlantikwall_lowlands_phase_2
			every_state = {
				limit = {
					OR = {
						is_core_of = HOL
						is_core_of = BEL
					}
					CONTROLLER = { is_in_german_faction = yes }
					is_coastal = yes
					is_in_home_area = yes
				}

				add_building_construction = {
					type = coastal_bunker
					level = 1
					instant_build = yes
					province = {
						all_provinces = yes
						limit_to_coastal = yes
					}
				}
				add_building_construction = {
					type = coastal_bunker
					level = 2
					instant_build = yes
					province = {
						all_provinces = yes
						limit_to_coastal = yes
						limit_to_naval_base = yes
					}
				}
			}
		}
	}

	GER_atlantikwall_lowlands_phase_3 = {
		icon = generic_construction

		visible = {
			has_completed_focus = GER_atlanticwall
		}

		available = {
			num_of_available_civilian_factories > 19
			has_country_flag = GER_atlantikwall_lowlands_phase_2

			235 = { is_controlled_by_axis = yes }
			332 = { is_controlled_by_axis = yes }
			261 = { is_controlled_by_axis = yes }
			326 = { is_controlled_by_axis = yes }
			308 = { is_controlled_by_axis = yes }
			303 = { is_controlled_by_axis = yes }
			298 = { is_controlled_by_axis = yes }
			297 = { is_controlled_by_axis = yes }
		}

		highlight_states = {
			highlight_states_trigger = {
				OR = {
					is_core_of = HOL
					is_core_of = BEL
				}
				is_controlled_by_axis = yes
				is_coastal = yes
				is_in_home_area = yes
			}
		}

		modifier = {
			civilian_factory_use = 20
		}

		fire_only_once = yes
		days_remove = 100

		remove_effect = {
			set_country_flag = GER_atlantikwall_lowlands_phase_3
			every_state = {
				limit = {
					OR = {
						is_core_of = HOL
						is_core_of = BEL
					}
					CONTROLLER = { is_in_german_faction = yes }
					is_coastal = yes
					is_in_home_area = yes
				}

				add_building_construction = {
					type = bunker
					level = 5
					instant_build = yes
					province = {
						all_provinces = yes
						limit_to_coastal = yes

						limit_to_victory_point > 4
					}
				}
			}
		}
	}

	GER_atlantikwall_germany_denmark_phase_1 = {
		icon = generic_construction

		visible = {
			has_completed_focus = GER_atlanticwall
		}

		available = {
			num_of_available_civilian_factories > 9

			288 = { is_controlled_by_axis = yes }
			1055 = { is_controlled_by_axis = yes }
			286 = { is_controlled_by_axis = yes }
			253 = { is_controlled_by_axis = yes }
			236 = { is_controlled_by_axis = yes }
			195 = { is_controlled_by_axis = yes }
		}


		highlight_states = {
			highlight_states_trigger = {
				OR = {
					state = 288
					state = 1055
					state = 286
					state = 253
					state = 236
					state = 195
				}
				is_controlled_by_axis = yes
			}
		}

		modifier = {
			civilian_factory_use = 10
		}

		fire_only_once = yes
		days_remove = 100

		remove_effect = {
			set_country_flag = GER_atlantikwall_germany_denmark_phase_1
			every_state = {
				limit = {
					OR = {
						state = 288
						state = 1055
						state = 286
						state = 253
						state = 236
						state = 195
					}
					is_controlled_by_axis = yes
				}

				add_building_construction = {
					type = coastal_bunker
					level = 1
					instant_build = yes
					province = {
						all_provinces = yes
						limit_to_coastal = yes
					}
				}
			}
		}
	}

	GER_atlantikwall_germany_denmark_phase_2 = {
		icon = generic_construction

		visible = {
			has_completed_focus = GER_atlanticwall
		}

		available = {
			num_of_available_civilian_factories > 14
			has_country_flag = GER_atlantikwall_germany_denmark_phase_1

			288 = { is_controlled_by_axis = yes }
			1055 = { is_controlled_by_axis = yes }
			286 = { is_controlled_by_axis = yes }
			253 = { is_controlled_by_axis = yes }
			236 = { is_controlled_by_axis = yes }
			195 = { is_controlled_by_axis = yes }
		}


		highlight_states = {
			highlight_states_trigger = {
				OR = {
					state = 288
					state = 1055
					state = 286
					state = 253
					state = 236
					state = 195
				}
				is_controlled_by_axis = yes
			}
		}

		modifier = {
			civilian_factory_use = 15
		}

		fire_only_once = yes
		days_remove = 100

		remove_effect = {
			set_country_flag = GER_atlantikwall_germany_denmark_phase_2
			every_state = {
				limit = {
					OR = {
						state = 288
						state = 1055
						state = 286
						state = 253
						state = 236
						state = 195
					}
					is_controlled_by_axis = yes
				}

				add_building_construction = {
					type = coastal_bunker
					level = 1
					instant_build = yes
					province = {
						all_provinces = yes
						limit_to_coastal = yes
					}
				}
				add_building_construction = {
					type = coastal_bunker
					level = 2
					instant_build = yes
					province = {
						all_provinces = yes
						limit_to_coastal = yes
						limit_to_naval_base = yes
					}
				}
			}
		}
	}

	GER_atlantikwall_norway_phase_1 = {
		icon = generic_construction

		visible = {
			has_completed_focus = GER_atlanticwall
		}

		available = {
			num_of_available_civilian_factories > 14

			91 = { is_controlled_by_axis = yes }
			78 = { is_controlled_by_axis = yes }
			62 = { is_controlled_by_axis = yes }
			1 = { is_controlled_by_axis = yes }
		}


		highlight_states = {
			highlight_states_trigger = {
				is_core_of = NOR
				is_controlled_by_axis = yes
			}
		}

		modifier = {
			civilian_factory_use = 15
		}

		fire_only_once = yes
		days_remove = 100

		remove_effect = {
			set_country_flag = GER_atlantikwall_norway_phase_1
			every_state = {
				limit = {
					is_core_of = NOR
					CONTROLLER = { is_in_german_faction = yes }
					is_coastal = yes
					is_in_home_area = yes
				}

				add_building_construction = {
					type = coastal_bunker
					level = 1
					instant_build = yes
					province = {
						all_provinces = yes
						limit_to_coastal = yes
					}
				}
			}
		}
	}

	GER_atlantikwall_norway_phase_2 = {
		icon = generic_construction

		visible = {
			has_completed_focus = GER_atlanticwall
		}

		available = {
			num_of_available_civilian_factories > 19
			has_country_flag = GER_atlantikwall_norway_phase_1

			91 = { is_controlled_by_axis = yes }
			78 = { is_controlled_by_axis = yes }
			62 = { is_controlled_by_axis = yes }
			1 = { is_controlled_by_axis = yes }
		}


		highlight_states = {
			highlight_states_trigger = {
				is_core_of = NOR
				is_controlled_by_axis = yes
			}
		}

		modifier = {
			civilian_factory_use = 20
		}

		fire_only_once = yes
		days_remove = 100

		remove_effect = {
			set_country_flag = GER_atlantikwall_norway_phase_2
			every_state = {
				limit = {
					is_core_of = NOR
					CONTROLLER = { is_in_german_faction = yes }
					is_coastal = yes
					is_in_home_area = yes
				}

				add_building_construction = {
					type = coastal_bunker
					level = 1
					instant_build = yes
					province = {
						all_provinces = yes
						limit_to_coastal = yes
					}
				}
				add_building_construction = {
					type = coastal_bunker
					level = 2
					instant_build = yes
					province = {
						all_provinces = yes
						limit_to_coastal = yes
						limit_to_naval_base = yes
					}
				}
			}
		}
	}

	GER_atlantikwall_norway_phase_3 = {
		icon = generic_construction

		visible = {
			has_completed_focus = GER_atlanticwall
		}

		available = {
			num_of_available_civilian_factories > 9
			has_country_flag = GER_atlantikwall_norway_phase_2

			91 = { is_controlled_by_axis = yes }
			78 = { is_controlled_by_axis = yes }
			62 = { is_controlled_by_axis = yes }
			1 = { is_controlled_by_axis = yes }
		}

		highlight_states = {
			highlight_states_trigger = {
				is_core_of = NOR
				is_controlled_by_axis = yes
			}
		}

		modifier = {
			civilian_factory_use = 10
		}

		fire_only_once = yes
		days_remove = 100

		remove_effect = {
			set_country_flag = GER_atlantikwall_norway_phase_3
			every_state = {
				limit = {
					is_core_of = NOR
					CONTROLLER = { is_in_german_faction = yes }
					is_coastal = yes
					is_in_home_area = yes
				}

				add_building_construction = {
					type = bunker
					level = 5
					instant_build = yes
					province = {
						all_provinces = yes
						limit_to_coastal = yes

						limit_to_victory_point > 4
					}
				}
			}
		}
	}

	GER_fortifications_first_line_koblenz = {

		icon = generic_construction

		visible = {
			has_completed_focus = GER_renew_construction_westwall
		}

		available = {
			294 = { is_fully_controlled_by = GER }
			num_of_available_civilian_factories > 11
		}


		highlight_states = {
		highlight_provinces = {
			4668
			5640
			3658
			3938
		}
		}

		modifier = {
			civilian_factory_use = 12
		}

		fire_only_once = yes
		days_remove = 30

		remove_effect = {
			294 = {
				add_building_construction = { type = bunker province = 4668 level = 3 instant_build = yes }
				add_building_construction = { type = bunker province = 5640 level = 3 instant_build = yes }
				add_building_construction = { type = bunker province = 3658 level = 3 instant_build = yes }
				add_building_construction = { type = bunker province = 3938 level = 3 instant_build = yes }
			}
		}
	}

	GER_fortifications_second_line_koblenz = {

		icon = generic_construction

		visible = {
			has_completed_focus = GER_renew_construction_westwall
		}

		available = {
			294 = { is_fully_controlled_by = GER }
			num_of_available_civilian_factories > 14
		}


		highlight_states = {
		highlight_provinces = {
			5632
			5654
			1069
		}
		}

		modifier = {
			civilian_factory_use = 15
		}

		fire_only_once = yes
		days_remove = 30

		remove_effect = {
			294 = {
				add_building_construction = { type = bunker province = 5632 level = 3 instant_build = yes }
				add_building_construction = { type = bunker province = 5654 level = 3 instant_build = yes }
				add_building_construction = { type = bunker province = 1069 level = 3 instant_build = yes }
			}
		}
	}

	GER_fortifications_first_line_dusseldorf = {

		icon = generic_construction

		visible = {
			has_completed_focus = GER_renew_construction_westwall
		}

		available = {
			755 = { is_fully_controlled_by = GER }
			num_of_available_civilian_factories > 14
		}


		highlight_states = {
		highlight_provinces = {
			2033
			1873
			1963
			276
			5525
		}
		}

		modifier = {
			civilian_factory_use = 15
		}

		fire_only_once = yes
		days_remove = 30

		remove_effect = {
			755 = {
				add_building_construction = { type = bunker province = 2033 level = 3 instant_build = yes }
				add_building_construction = { type = bunker province = 1873 level = 3 instant_build = yes }
				add_building_construction = { type = bunker province = 1963 level = 3 instant_build = yes }
				add_building_construction = { type = bunker province = 276 level = 3 instant_build = yes }
				add_building_construction = { type = bunker province = 5525 level = 3 instant_build = yes }
			}
		}
	}

	GER_fortifications_first_line_koln_aachen = {

		icon = generic_construction

		visible = {
			has_completed_focus = GER_renew_construction_westwall
		}

		available = {
			333 = { is_fully_controlled_by = GER }
			num_of_available_civilian_factories > 14
		}


		highlight_states = {
		highlight_provinces = {
			2448
			5560
			4053
			5582
			2562
		}
		}

		modifier = {
			civilian_factory_use = 15
		}

		fire_only_once = yes
		days_remove = 30

		remove_effect = {
			333 = {
				add_building_construction = { type = bunker province = 2448 level = 3 instant_build = yes }
				add_building_construction = { type = bunker province = 5560 level = 3 instant_build = yes }
				add_building_construction = { type = bunker province = 4053 level = 3 instant_build = yes }
				add_building_construction = { type = bunker province = 5582 level = 3 instant_build = yes }
				add_building_construction = { type = bunker province = 2562 level = 3 instant_build = yes }
			}
		}
	}

	GER_fortifications_second_line_koln_aachen = {

		icon = generic_construction

		visible = {
			has_completed_focus = GER_renew_construction_westwall
		}

		available = {
			333 = { is_fully_controlled_by = GER }
			num_of_available_civilian_factories > 19
		}


		highlight_states = {
		highlight_provinces = {
			5566
			5577
			5594
			4786
		}
		}

		modifier = {
			civilian_factory_use = 20
		}

		fire_only_once = yes
		days_remove = 30

		remove_effect = {
			333 = {
				add_building_construction = { type = bunker province = 5566 level = 3 instant_build = yes }
				add_building_construction = { type = bunker province = 5577 level = 3 instant_build = yes }
				add_building_construction = { type = bunker province = 5594 level = 3 instant_build = yes }
				add_building_construction = { type = bunker province = 4786 level = 3 instant_build = yes }
			}
		}
	}

	GER_fortifications_first_line_moselland = {

		icon = generic_construction

		visible = {
			has_completed_focus = GER_renew_construction_westwall
		}

		available = {
			365 = { is_fully_controlled_by = GER }
			num_of_available_civilian_factories > 8
		}


		highlight_states = {
		highlight_provinces = {
			906
			4840
			5841
		}
		}

		modifier = {
			civilian_factory_use = 9
		}

		fire_only_once = yes
		days_remove = 30

		remove_effect = {
			365 = {
				add_building_construction = { type = bunker province = 906 level = 3 instant_build = yes }
				add_building_construction = { type = bunker province = 4840 level = 3 instant_build = yes }
				add_building_construction = { type = bunker province = 5841 level = 3 instant_build = yes }
			}
		}
	}

	GER_fortifications_second_line_moselland = {

		icon = generic_construction

		visible = {
			has_completed_focus = GER_renew_construction_westwall
		}

		available = {
			365 = { is_fully_controlled_by = GER }
			num_of_available_civilian_factories > 19
		}


		highlight_states = {
		highlight_provinces = {
			5728
			5756
			5786
			1553
		}
		}

		modifier = {
			civilian_factory_use = 20
		}

		fire_only_once = yes
		days_remove = 30

		remove_effect = {
			365 = {
				add_building_construction = { type = bunker province = 5728 level = 3 instant_build = yes }
				add_building_construction = { type = bunker province = 5756 level = 3 instant_build = yes }
				add_building_construction = { type = bunker province = 5786 level = 3 instant_build = yes }
				add_building_construction = { type = bunker province = 1553 level = 3 instant_build = yes }
			}
		}
	}

	GER_fortifications_first_line_saarland = {

		icon = generic_construction

		visible = {
			has_completed_focus = GER_renew_construction_westwall
		}

		available = {
			397 = { is_fully_controlled_by = GER }
			num_of_available_civilian_factories > 8
		}


		highlight_states = {
		highlight_provinces = {
			5824
			3915
			4301
		}
		}

		modifier = {
			civilian_factory_use = 9
		}

		fire_only_once = yes
		days_remove = 30

		remove_effect = {
			397 = {
				add_building_construction = { type = bunker province = 5824 level = 3 instant_build = yes }
				add_building_construction = { type = bunker province = 3915 level = 3 instant_build = yes }
				add_building_construction = { type = bunker province = 4301 level = 3 instant_build = yes }
			}
		}
	}

	GER_fortifications_second_line_saarland = {

		icon = generic_construction

		visible = {
			has_completed_focus = GER_renew_construction_westwall
		}

		available = {
			397 = { is_fully_controlled_by = GER }
			num_of_available_civilian_factories > 14
		}


		highlight_states = {
		highlight_provinces = {
			4608
			5799
			4457
		}
		}

		modifier = {
			civilian_factory_use = 15
		}

		fire_only_once = yes
		days_remove = 30

		remove_effect = {
			397 = {
				add_building_construction = { type = bunker province = 4608 level = 3 instant_build = yes }
				add_building_construction = { type = bunker province = 5799 level = 3 instant_build = yes }
				add_building_construction = { type = bunker province = 4457 level = 3 instant_build = yes }
			}
		}
	}

	GER_fortifications_first_line_rheinland = {

		icon = generic_construction

		visible = {
			has_completed_focus = GER_renew_construction_westwall
		}

		available = {
			76 = { is_fully_controlled_by = GER }
			num_of_available_civilian_factories > 2
		}

		modifier = {
			civilian_factory_use = 3
		}


		highlight_states = {
		highlight_provinces = {
			3422
		}
		}

		fire_only_once = yes
		days_remove = 30

		remove_effect = {
			76 = {
				add_building_construction = { type = bunker province = 3422 level = 3 instant_build = yes }
			}
		}
	}

	GER_fortifications_second_line_rheinland = {

		icon = generic_construction

		visible = {
			has_completed_focus = GER_renew_construction_westwall
		}

		available = {
			76 = { is_fully_controlled_by = GER }
			num_of_available_civilian_factories > 14
		}

		modifier = {
			civilian_factory_use = 15
		}


		highlight_states = {
		highlight_provinces = {
			5714
			585
			5695
		}
		}

		fire_only_once = yes
		days_remove = 30

		remove_effect = {
			76 = {
				add_building_construction = { type = bunker province = 5714 level = 3 instant_build = yes }
				add_building_construction = { type = bunker province = 585 level = 3 instant_build = yes }
				add_building_construction = { type = bunker province = 5695 level = 3 instant_build = yes }
			}
		}
	}
}

GER_category_inundation = {
	GER_prepare_inundation_rheinland = {

		icon = hol_inundate_water_lines

		available = {
			76 = { is_fully_controlled_by = GER }
		}

		cost = 25
		fire_only_once = yes
		days_remove = 14

		highlight_states = {
		highlight_state_targets = { state = 76 }


		highlight_provinces = {
			3422
			5714
			585
			5695
			5727
			3241
			4801
			5704
			3510
			5690
			2094
			2635
			5646
		}
		}

		visible = {
			NOT = { has_country_flag = inundation_rheinland_prepared }
		}

		remove_effect = {
			if = {
				limit = {
					76 = { is_fully_controlled_by = ROOT }
				}
				set_country_flag = inundation_rheinland_prepared
			}
		}
	}
	GER_inundate_rheinland = {

		icon = hol_inundate_water_lines

		available = {
			76 = { is_fully_controlled_by = GER }
		}

		cost = 25
		fire_only_once = no
		days_remove = 7

		highlight_states = {
		highlight_state_targets = { state = 76 }


		highlight_provinces = {
			3422
			5714
			585
			5695
			5727
			3241
			4801
			5704
			3510
			5690
			2094
			2635
			5646
		}
		}

		visible = {
			has_country_flag = inundation_rheinland_prepared
			NOT = { has_country_flag = rheinland_inundated }
		}

		remove_effect = {
			if = {
				limit = {
					76 = { is_fully_controlled_by = GER }
				}
				76 = {
					add_province_modifier = {
						static_modifiers = { flooded }
						province = {
							id = 3422
							id = 5714
							id = 585
							id = 5695
							id = 5727
							id = 3241
							id = 4801
							id = 5704
							id = 3510
							id = 5690
							id = 2094
							id = 2635
							id = 5646
						}
					}
					damage_building = {
						type = infrastructure
						damage = 2
					}
					damage_building = {
						type = industrial_complex
						damage = 0.5
					}
					damage_building = {
						type = arms_factory
						damage = 0.5
					}
				}
				set_country_flag = rheinland_inundated
			}
		}
	}
	GER_drain_rheinland = {

		icon = hol_drain_water_lines

		available = {
			76 = { is_fully_controlled_by = GER }
		}

		cost = 25
		fire_only_once = no
		days_remove = 14

		highlight_states = {
		highlight_state_targets = { state = 76 }


		highlight_provinces = {
			3422
			5714
			585
			5695
			5727
			3241
			4801
			5704
			3510
			5690
			2094
			2635
			5646
		}
		}

		visible = {
			has_country_flag = rheinland_inundated
			76 = { is_fully_controlled_by = ROOT }
		}

		remove_effect = {
			76 = {
				remove_province_modifier = {
					static_modifiers = { flooded }
					province = {
						id = 3422
						id = 5714
						id = 585
						id = 5695
						id = 5727
						id = 3241
						id = 4801
						id = 5704
						id = 3510
						id = 5690
						id = 2094
						id = 2635
						id = 5646
					}
				}
			}
			clr_country_flag = rheinland_inundated
		}
	}

	GER_prepare_inundation_koblenz = {

		icon = hol_inundate_water_lines

		available = {
			294 = { is_fully_controlled_by = GER }
		}

		cost = 25
		fire_only_once = yes
		days_remove = 14

		highlight_states = {
		highlight_state_targets = { state = 294 }


		highlight_provinces = {
			3938
			3658
			5640
			4668
			5654
			1069
			5663
			5632
			4308
			3537
			3879
			5593
		}
		}

		visible = {
			NOT = { has_country_flag = inundation_koblenz_prepared }
		}

		remove_effect = {
			if = {
				limit = {
					294 = { is_fully_controlled_by = ROOT }
				}
				set_country_flag = inundation_koblenz_prepared
			}
		}
	}
	GER_inundate_koblenz = {

		icon = hol_inundate_water_lines

		available = {
			294 = { is_fully_controlled_by = GER }
		}

		cost = 25
		fire_only_once = no
		days_remove = 7

		highlight_states = {
		highlight_state_targets = { state = 294 }


		highlight_provinces = {
			3938
			3658
			5640
			4668
			5654
			1069
			5663
			5632
			4308
			3537
			3879
			5593
		}
		}

		visible = {
			has_country_flag = inundation_koblenz_prepared
			NOT = { has_country_flag = koblenz_inundated }
		}

		remove_effect = {
			if = {
				limit = {
					294 = { is_fully_controlled_by = GER }
				}
				294 = {
					add_province_modifier = {
						static_modifiers = { flooded }
						province = {
							id = 3938
							id = 3658
							id = 5640
							id = 4668
							id = 5654
							id = 1069
							id = 5663
							id = 5632
							id = 4308
							id = 3537
							id = 3879
							id = 5593
						}
					}
					damage_building = {
						type = infrastructure
						damage = 2
					}
					damage_building = {
						type = industrial_complex
						damage = 0.5
					}
					damage_building = {
						type = arms_factory
						damage = 0.5
					}
				}
				set_country_flag = koblenz_inundated
			}
		}
	}
	GER_drain_koblenz = {

		icon = hol_drain_water_lines

		available = {
			294 = { is_fully_controlled_by = GER }
		}

		cost = 25
		fire_only_once = no
		days_remove = 14

		highlight_states = {
		highlight_state_targets = { state = 294 }


		highlight_provinces = {
			3938
			3658
			5640
			4668
			5654
			1069
			5663
			5632
			4308
			3537
			3879
			5593
		}
		}

		visible = {
			has_country_flag = koblenz_inundated
			294 = { is_fully_controlled_by = ROOT }
		}

		remove_effect = {
			294 = {
				remove_province_modifier = {
					static_modifiers = { flooded }
					province = {
							id = 3938
							id = 3658
							id = 5640
							id = 4668
							id = 5654
							id = 1069
							id = 5663
							id = 5632
							id = 4308
							id = 3537
							id = 3879
							id = 5593
					}
				}
			}
			clr_country_flag = koblenz_inundated
		}
	}

	GER_prepare_inundation_dusseldorf = {

		icon = hol_inundate_water_lines

		available = {
			755 = { is_fully_controlled_by = GER }
		}

		cost = 25
		fire_only_once = yes
		days_remove = 14

		highlight_states = {
		highlight_state_targets = { state = 755 }


		highlight_provinces = {
			5525
			276
			5519
			1936
			1873
			5469
			2030
		}
		}

		visible = {
			NOT = { has_country_flag = inundation_dusseldorf_prepared }
		}

		remove_effect = {
			if = {
				limit = {
					755 = { is_fully_controlled_by = ROOT }
				}
				set_country_flag = inundation_dusseldorf_prepared
			}
		}
	}
	GER_inundate_dusseldorf = {

		icon = hol_inundate_water_lines

		available = {
			755 = { is_fully_controlled_by = GER }
		}

		cost = 25
		fire_only_once = no
		days_remove = 7

		highlight_states = {
		highlight_state_targets = { state = 755 }


		highlight_provinces = {
			5525
			276
			5519
			1936
			1873
			5469
			2030
		}
		}

		visible = {
			has_country_flag = inundation_dusseldorf_prepared
			NOT = { has_country_flag = dusseldorf_inundated }
		}

		remove_effect = {
			if = {
				limit = {
					755 = { is_fully_controlled_by = GER }
				}
				755 = {
					add_province_modifier = {
						static_modifiers = { flooded }
						province = {
							id = 5525
							id = 276
							id = 5519
							id = 1936
							id = 1873
							id = 5469
							id = 2030
						}
					}
					damage_building = {
						type = infrastructure
						damage = 2
					}
					damage_building = {
						type = industrial_complex
						damage = 0.5
					}
					damage_building = {
						type = arms_factory
						damage = 0.5
					}
				}
				set_country_flag = dusseldorf_inundated
			}
		}
	}
	GER_drain_dusseldorf = {

		icon = hol_drain_water_lines

		available = {
			755 = { is_fully_controlled_by = GER }
		}

		cost = 25
		fire_only_once = no
		days_remove = 14

		highlight_states = {
		highlight_state_targets = { state = 755 }


		highlight_provinces = {
			5525
			276
			5519
			1936
			1873
			5469
			2030
		}
		}

		visible = {
			has_country_flag = dusseldorf_inundated
			755 = { is_fully_controlled_by = ROOT }
		}

		remove_effect = {
			755 = {
				remove_province_modifier = {
					static_modifiers = { flooded }
					province = {
						id = 5525
						id = 276
						id = 5519
						id = 1936
						id = 1873
						id = 5469
						id = 2030
					}
				}
			}
			clr_country_flag = dusseldorf_inundated
		}
	}

	GER_prepare_inundation_koln_aachen = {

		icon = hol_inundate_water_lines

		available = {
			333 = { is_fully_controlled_by = GER }
		}

		cost = 25
		fire_only_once = yes
		days_remove = 14

		highlight_states = {
		highlight_state_targets = { state = 333 }


		highlight_provinces = {
			2448
			3650
			5560
			5566
			3005
			5552
			4053
			5582
			5577
			5569
			2562
			5594
			4326
			4786
		}
		}

		visible = {
			NOT = { has_country_flag = inundation_koln_aachen_prepared }
		}

		remove_effect = {
			if = {
				limit = {
					333 = { is_fully_controlled_by = ROOT }
				}
				set_country_flag = inundation_koln_aachen_prepared
			}
		}
	}
	GER_inundate_koln_aachen = {

		icon = hol_inundate_water_lines

		available = {
			333 = { is_fully_controlled_by = GER }
		}

		cost = 25
		fire_only_once = no
		days_remove = 7

		highlight_states = {
		highlight_state_targets = { state = 333 }


		highlight_provinces = {
			2448
			3650
			5560
			5566
			3005
			5552
			4053
			5582
			5577
			5569
			2562
			5594
			4326
			4786
		}
		}

		visible = {
			has_country_flag = inundation_koln_aachen_prepared
			NOT = { has_country_flag = koln_aachen_inundated }
		}

		remove_effect = {
			if = {
				limit = {
					333 = { is_fully_controlled_by = GER }
				}
				333 = {
					add_province_modifier = {
						static_modifiers = { flooded }
						province = {
							id = 2448
							id = 3650
							id = 5560
							id = 5566
							id = 3005
							id = 5552
							id = 4053
							id = 5582
							id = 5577
							id = 5569
							id = 2562
							id = 5594
							id = 4326
							id = 4786
						}
					}
					damage_building = {
						type = infrastructure
						damage = 2
					}
					damage_building = {
						type = industrial_complex
						damage = 0.5
					}
					damage_building = {
						type = arms_factory
						damage = 0.5
					}
				}
				set_country_flag = koln_aachen_inundated
			}
		}
	}
	GER_drain_koln_aachen = {

		icon = hol_drain_water_lines

		available = {
			333 = { is_fully_controlled_by = GER }
		}

		cost = 25
		fire_only_once = no
		days_remove = 14

		highlight_states = {
		highlight_state_targets = { state = 333 }


		highlight_provinces = {
			2448
			3650
			5560
			5566
			3005
			5552
			4053
			5582
			5577
			5569
			2562
			5594
			4326
			4786
		}
		}

		visible = {
			has_country_flag = koln_aachen_inundated
			333 = { is_fully_controlled_by = ROOT }
		}

		remove_effect = {
			333 = {
				remove_province_modifier = {
					static_modifiers = { flooded }
					province = {
						id = 2448
						id = 3650
						id = 5560
						id = 5566
						id = 3005
						id = 5552
						id = 4053
						id = 5582
						id = 5577
						id = 5569
						id = 2562
						id = 5594
						id = 4326
						id = 4786
					}
				}
			}
			clr_country_flag = koln_aachen_inundated
		}
	}

	GER_prepare_inundation_moselland = {

		icon = hol_inundate_water_lines

		available = {
			365 = { is_fully_controlled_by = GER }
		}

		cost = 25
		fire_only_once = yes
		days_remove = 14



		highlight_states = {
			highlight_state_targets = { state = 365 }
		highlight_provinces = {
			5841
			4840
			906
			5786
			1553
			4961
			3982
			5756
			5728
			954
			5739
			5715
			4723
			5705
			4323
		}
		}

		visible = {
			NOT = { has_country_flag = inundation_moselland_prepared }
		}

		remove_effect = {
			if = {
				limit = {
					365 = { is_fully_controlled_by = ROOT }
				}
				set_country_flag = inundation_moselland_prepared
			}
		}
	}
	GER_inundate_moselland = {

		icon = hol_inundate_water_lines

		available = {
			365 = { is_fully_controlled_by = GER }
		}

		cost = 25
		fire_only_once = no
		days_remove = 7


		highlight_states = {
		highlight_state_targets = { state = 365 }

		highlight_provinces = {
			5841
			4840
			906
			5786
			1553
			4961
			3982
			5756
			5728
			954
			5739
			5715
			4723
			5705
			4323
		}
		}

		visible = {
			has_country_flag = inundation_moselland_prepared
			NOT = { has_country_flag = moselland_inundated }
		}

		remove_effect = {
			if = {
				limit = {
					365 = { is_fully_controlled_by = GER }
				}
				365 = {
					add_province_modifier = {
						static_modifiers = { flooded }
						province = {
							id = 5841
							id = 4840
							id = 906
							id = 5786
							id = 1553
							id = 4961
							id = 3982
							id = 5756
							id = 5728
							id = 954
							id = 5739
							id = 5715
							id = 4723
							id = 5705
							id = 4323
						}
					}
					damage_building = {
						type = infrastructure
						damage = 2
					}
					damage_building = {
						type = industrial_complex
						damage = 0.5
					}
					damage_building = {
						type = arms_factory
						damage = 0.5
					}
				}
				set_country_flag = moselland_inundated
			}
		}
	}
	GER_drain_moselland = {

		icon = hol_drain_water_lines

		available = {
			365 = { is_fully_controlled_by = GER }
		}

		cost = 25
		fire_only_once = no
		days_remove = 14


		highlight_states = {
		highlight_state_targets = { state = 365 }

		highlight_provinces = {
			5841
			4840
			906
			5786
			1553
			4961
			3982
			5756
			5728
			954
			5739
			5715
			4723
			5705
			4323
		}
		}

		visible = {
			has_country_flag = moselland_inundated
			365 = { is_fully_controlled_by = ROOT }
		}

		remove_effect = {
			365 = {
				remove_province_modifier = {
					static_modifiers = { flooded }
					province = {
						id = 5841
						id = 4840
						id = 906
						id = 5786
						id = 1553
						id = 4961
						id = 3982
						id = 5756
						id = 5728
						id = 954
						id = 5739
						id = 5715
						id = 4723
						id = 5705
						id = 4323
					}
				}
			}
			clr_country_flag = moselland_inundated
		}
	}

	GER_prepare_inundation_saarland = {

		icon = hol_inundate_water_lines

		available = {
			397 = { is_fully_controlled_by = GER }
		}

		cost = 25
		fire_only_once = yes
		days_remove = 14


		highlight_states = {
		highlight_state_targets = { state = 397 }

		highlight_provinces = {
			3915
			4301
			4608
			5799
			5824
			4457
			2412
		}
		}

		visible = {
			NOT = { has_country_flag = inundation_saarland_prepared }
		}

		remove_effect = {
			if = {
				limit = {
					397 = { is_fully_controlled_by = ROOT }
				}
				set_country_flag = inundation_saarland_prepared
			}
		}
	}
	GER_inundate_saarland = {

		icon = hol_inundate_water_lines

		available = {
			397 = { is_fully_controlled_by = GER }
		}

		cost = 25
		fire_only_once = no
		days_remove = 7


		highlight_states = {
		highlight_state_targets = { state = 397 }

		highlight_provinces = {
			3915
			4301
			4608
			5799
			5824
			4457
			2412
		}
		}

		visible = {
			has_country_flag = inundation_saarland_prepared
			NOT = { has_country_flag = saarland_inundated }
		}

		remove_effect = {
			if = {
				limit = {
					397 = { is_fully_controlled_by = GER }
				}
				397 = {
					add_province_modifier = {
						static_modifiers = { flooded }
						province = {
							id = 3915
							id = 4301
							id = 4608
							id = 5799
							id = 5824
							id = 4457
							id = 2412
						}
					}
					damage_building = {
						type = infrastructure
						damage = 2
					}
					damage_building = {
						type = industrial_complex
						damage = 0.5
					}
					damage_building = {
						type = arms_factory
						damage = 0.5
					}
				}
				set_country_flag = saarland_inundated
			}
		}
	}
	GER_drain_saarland = {

		icon = hol_drain_water_lines

		available = {
			397 = { is_fully_controlled_by = GER }
		}

		cost = 25
		fire_only_once = no
		days_remove = 14


		highlight_states = {
		highlight_state_targets = { state = 397 }

		highlight_provinces = {
			3915
			4301
			4608
			5799
			5824
			4457
			2412
		}
		}

		visible = {
			has_country_flag = saarland_inundated
			397 = { is_fully_controlled_by = ROOT }
		}

		remove_effect = {
			397 = {
				remove_province_modifier = {
					static_modifiers = { flooded }
					province = {
						id = 3915
						id = 4301
						id = 4608
						id = 5799
						id = 5824
						id = 4457
						id = 2412
					}
				}
			}
			clr_country_flag = saarland_inundated
		}
	}
}


GER_case_anton_category = {
	GER_case_anton = {

		icon = generic_operation

		available = {
			original_tag = GER
			has_government = fascism
			country_exists = EFR
			EFR = { has_war = yes }
			NOT = {
				is_in_faction_with = EFR
				EFR = { is_subject_of = GER }
				EFR = { has_war_with = GER }
			}

			OR = {
				GER = { any_neighbor_country = { TAG = EFR } }
				GFR = { any_neighbor_country = { TAG = EFR } }
			}
		}

		cost = 0
		fire_only_once = yes

		war_with_on_remove = EFR


		days_remove = 10

		visible = {
			original_tag = GER
			has_government = fascism
			country_exists = EFR
			NOT = {
				is_in_faction_with = EFR
				EFR = { is_subject_of = GER }
				EFR = { has_war_with = GER }
			}

			OR = {
				GER = { any_neighbor_country = { TAG = EFR } }
				GFR = { any_neighbor_country = { TAG = EFR } }
			}
		}
		ai_will_do = {
			factor = 100
		}
		remove_effect = {
			declare_war_on = { target = EFR type = annex_everything }
		}
	}
}
#TODO Portrait
GER_reichskommissariats = {
	GER_reichskommissariat_norwegen = {

		icon = ger_reichskommissariats

		visible = {
			GNO = {
				NOT = { is_subject_of = GER }
			}
		}

		available = {
			78 = {
				CONTROLLER = {
					OR = {
						is_subject_of = ROOT
						tag = ROOT
					}
				}
			}
			91 = {
				CONTROLLER = {
					OR = {
						is_subject_of = ROOT
						tag = ROOT
					}
				}
			}
			62 = {
				CONTROLLER = {
					OR = {
						is_subject_of = ROOT
						tag = ROOT
					}
				}
			}
			1 = {
				CONTROLLER = {
					OR = {
						is_subject_of = ROOT
						tag = ROOT
					}
				}
			}
		}

		cost = 25
		ai_will_do = {
			factor = 100
		}

		complete_effect = {
			GNO = {
				add_state_core = 78
				add_state_core = 91
				add_state_core = 62
				add_state_core = 1

				transfer_state = 78
				transfer_state = 91
				transfer_state = 62
				transfer_state = 1
			}
			GER = { set_autonomy = { target = GNO autonomy_state = autonomy_reichskommissariat } }
		}
	}

	GER_reichskommissariat_niederlande = {

		icon = ger_reichskommissariats

		visible = {
			GNL = {
				NOT = { is_subject_of = GER }
			}
		}

		available = {
			297 = {
				CONTROLLER = {
					OR = {
						is_subject_of = ROOT
						tag = ROOT
					}
				}
			}
			298 = {
				CONTROLLER = {
					OR = {
						is_subject_of = ROOT
						tag = ROOT
					}
				}
			}
			301 = {
				CONTROLLER = {
					OR = {
						is_subject_of = ROOT
						tag = ROOT
					}
				}
			}
			316 = {
				CONTROLLER = {
					OR = {
						is_subject_of = ROOT
						tag = ROOT
					}
				}
			}
			292 = {
				CONTROLLER = {
					OR = {
						is_subject_of = ROOT
						tag = ROOT
					}
				}
			}
			269 = {
				CONTROLLER = {
					OR = {
						is_subject_of = ROOT
						tag = ROOT
					}
				}
			}
			308 = {
				CONTROLLER = {
					OR = {
						is_subject_of = ROOT
						tag = ROOT
					}
				}
			}
			261 = {
				CONTROLLER = {
					OR = {
						is_subject_of = ROOT
						tag = ROOT
					}
				}
			}
			326 = {
				CONTROLLER = {
					OR = {
						is_subject_of = ROOT
						tag = ROOT
					}
				}
			}
			332 = {
				CONTROLLER = {
					OR = {
						is_subject_of = ROOT
						tag = ROOT
					}
				}
			}
			338 = {
				CONTROLLER = {
					OR = {
						is_subject_of = ROOT
						tag = ROOT
					}
				}
			}
			303 = {
				CONTROLLER = {
					OR = {
						is_subject_of = ROOT
						tag = ROOT
					}
				}
			}
			130 = {
				CONTROLLER = {
					OR = {
						is_subject_of = ROOT
						tag = ROOT
					}
				}
			}
			14 = {
				CONTROLLER = {
					OR = {
						is_subject_of = ROOT
						tag = ROOT
					}
				}
			}
			104 = {
				CONTROLLER = {
					OR = {
						is_subject_of = ROOT
						tag = ROOT
					}
				}
			}
			128 = {
				CONTROLLER = {
					OR = {
						is_subject_of = ROOT
						tag = ROOT
					}
				}
			}
			169 = {
				CONTROLLER = {
					OR = {
						is_subject_of = ROOT
						tag = ROOT
					}
				}
			}
			129 = {
				CONTROLLER = {
					OR = {
						is_subject_of = ROOT
						tag = ROOT
					}
				}
			}
			123 = {
				CONTROLLER = {
					OR = {
						is_subject_of = ROOT
						tag = ROOT
					}
				}
			}
			183 = {
				CONTROLLER = {
					OR = {
						is_subject_of = ROOT
						tag = ROOT
					}
				}
			}
			124 = {
				CONTROLLER = {
					OR = {
						is_subject_of = ROOT
						tag = ROOT
					}
				}
			}
			122 = {
				CONTROLLER = {
					OR = {
						is_subject_of = ROOT
						tag = ROOT
					}
				}
			}
			629 = {
				CONTROLLER = {
					OR = {
						is_subject_of = ROOT
						tag = ROOT
					}
				}
			}
		}

		cost = 25

		ai_will_do = {
			factor = 100
		}

		complete_effect = {
			GNL = {
				add_state_core = 297
				add_state_core = 298
				add_state_core = 301
				add_state_core = 316
				add_state_core = 292
				add_state_core = 269
				add_state_core = 308
				add_state_core = 261
				add_state_core = 326
				add_state_core = 332
				add_state_core = 338
				add_state_core = 303
				add_state_core = 130
				add_state_core = 14
				add_state_core = 104
				add_state_core = 128
				add_state_core = 169
				add_state_core = 129
				add_state_core = 123
				add_state_core = 183
				add_state_core = 124
				add_state_core = 122
				add_state_core = 629

				transfer_state = 297
				transfer_state = 298
				transfer_state = 301
				transfer_state = 316
				transfer_state = 292
				transfer_state = 269
				transfer_state = 308
				transfer_state = 261
				transfer_state = 326
				transfer_state = 332
				transfer_state = 338
				transfer_state = 303
				transfer_state = 130
				transfer_state = 14
				transfer_state = 104
				transfer_state = 128
				transfer_state = 169
				transfer_state = 129
				transfer_state = 123
				transfer_state = 183
				transfer_state = 124
				transfer_state = 122
				transfer_state = 629
			}
			GER = { set_autonomy = { target = GNL autonomy_state = autonomy_reichskommissariat } }
		}
	}

	GER_military_occupation_belgien_nordfrankreich = {

		icon = ger_reichskommissariats

		visible = {
			GBF = {
				NOT = { is_subject_of = GER }
			}
		}

		available = {
			235 = {
				CONTROLLER = {
					OR = {
						is_subject_of = ROOT
						tag = ROOT
					}
				}
			}
			204 = {
				CONTROLLER = {
					OR = {
						is_subject_of = ROOT
						tag = ROOT
					}
				}
			}
			343 = {
				CONTROLLER = {
					OR = {
						is_subject_of = ROOT
						tag = ROOT
					}
				}
			}
			227 = {
				CONTROLLER = {
					OR = {
						is_subject_of = ROOT
						tag = ROOT
					}
				}
			}
			358 = {
				CONTROLLER = {
					OR = {
						is_subject_of = ROOT
						tag = ROOT
					}
				}
			}
			270 = {
				CONTROLLER = {
					OR = {
						is_subject_of = ROOT
						tag = ROOT
					}
				}
			}
			360 = {
				CONTROLLER = {
					OR = {
						is_subject_of = ROOT
						tag = ROOT
					}
				}
			}
			211 = {
				CONTROLLER = {
					OR = {
						is_subject_of = ROOT
						tag = ROOT
					}
				}
			}
			252 = {
				CONTROLLER = {
					OR = {
						is_subject_of = ROOT
						tag = ROOT
					}
				}
			}
			241 = {
				CONTROLLER = {
					OR = {
						is_subject_of = ROOT
						tag = ROOT
					}
				}
			}
			141 = {
				CONTROLLER = {
					OR = {
						is_subject_of = ROOT
						tag = ROOT
					}
				}
			}
			794 = {
				CONTROLLER = {
					OR = {
						is_subject_of = ROOT
						tag = ROOT
					}
				}
			}
			48 = {
				CONTROLLER = {
					OR = {
						is_subject_of = ROOT
						tag = ROOT
					}
				}
			}
			67 = {
				CONTROLLER = {
					OR = {
						is_subject_of = ROOT
						tag = ROOT
					}
				}
			}
			347 = {
				CONTROLLER = {
					OR = {
						is_subject_of = ROOT
						tag = ROOT
					}
				}
			}
		}

		cost = 25

		ai_will_do = {
			factor = 100
		}

		complete_effect = {
			GBF = {
				add_state_core = 235
				add_state_core = 204
				add_state_core = 343
				add_state_core = 227
				add_state_core = 358
				add_state_core = 270
				add_state_core = 360
				add_state_core = 211
				add_state_core = 252
				add_state_core = 241
				add_state_core = 141
				add_state_core = 794
				add_state_core = 48
				add_state_core = 67
				add_state_core = 347

				transfer_state = 235
				transfer_state = 204
				transfer_state = 343
				transfer_state = 227
				transfer_state = 358
				transfer_state = 270
				transfer_state = 360
				transfer_state = 211
				transfer_state = 252
				transfer_state = 241
				transfer_state = 141
				transfer_state = 794
				transfer_state = 48
				transfer_state = 67
				transfer_state = 347
				transfer_state = 1116
				transfer_state = 1115
				transfer_state = 1114
			}
			GER = { set_autonomy = { target = GBF autonomy_state = autonomy_military_occupation } }
		}
	}

	GER_reichskommissariat_belgien_nordfrankreich = {
		icon = ger_reichskommissariats

		available = {
			GBF = { any_neighbor_country = { has_war_with = GBF } }
		}

		visible = {
			GBF = {
				is_subject_of = GER
				NOT = { has_autonomy_state = autonomy_reichskommissariat }
			}
			date > 1942.1.1
		}

		cost = 25

		ai_will_do = {
			factor = 100
		}

		complete_effect = {
			GER = { set_autonomy = { target = GBF autonomy_state = autonomy_reichskommissariat } }
			GBF = {
				retire_country_leader = yes

				create_country_leader = {
					name = "Josef Grohé"
					desc = ""
					picture = "gfx/leaders/BEL/BEL_Josef_Grohe.dds"
					expire = "1965.1.1"
					ideology = nazism
					traits = {
					}
				}
			}
		}
	}

	GER_generalgouvernement = {

		icon = ger_reichskommissariats

		visible = {
			GPO = {
				NOT = { is_subject_of = GER }
			}
		}

		available = {
			has_global_flag = poland_divided_molotov
			348 = {
				CONTROLLER = {
					OR = {
						is_subject_of = ROOT
						tag = ROOT
					}
				}
			}
			330 = {
				CONTROLLER = {
					OR = {
						is_subject_of = ROOT
						tag = ROOT
					}
				}
			}
			291 = {
				CONTROLLER = {
					OR = {
						is_subject_of = ROOT
						tag = ROOT
					}
				}
			}
			309 = {
				CONTROLLER = {
					OR = {
						is_subject_of = ROOT
						tag = ROOT
					}
				}
			}
			1023 = {
				CONTROLLER = {
					OR = {
						is_subject_of = ROOT
						tag = ROOT
					}
				}
			}
			1026 = {
				CONTROLLER = {
					OR = {
						is_subject_of = ROOT
						tag = ROOT
					}
				}
			}
			1027 = {
				CONTROLLER = {
					OR = {
						is_subject_of = ROOT
						tag = ROOT
					}
				}
			}
			1028 = {
				CONTROLLER = {
					OR = {
						is_subject_of = ROOT
						tag = ROOT
					}
				}
			}
			1029 = {
				CONTROLLER = {
					OR = {
						is_subject_of = ROOT
						tag = ROOT
					}
				}
			}
			1030 = {
				CONTROLLER = {
					OR = {
						is_subject_of = ROOT
						tag = ROOT
					}
				}
			}
			1031 = {
				CONTROLLER = {
					OR = {
						is_subject_of = ROOT
						tag = ROOT
					}
				}
			}
			1032 = {
				CONTROLLER = {
					OR = {
						is_subject_of = ROOT
						tag = ROOT
					}
				}
			}
			1035 = {
				CONTROLLER = {
					OR = {
						is_subject_of = ROOT
						tag = ROOT
					}
				}
			}
		}

		cost = 25

		ai_will_do = {
			factor = 100
		}

		complete_effect = {
			GPO = {
				add_state_core = 351
				add_state_core = 350
				add_state_core = 371
				add_state_core = 348
				add_state_core = 330
				add_state_core = 291
				add_state_core = 309

				transfer_state = 348
				transfer_state = 330
				transfer_state = 291
				transfer_state = 309
				transfer_state = 1023
				transfer_state = 1026
				transfer_state = 1027
				transfer_state = 1028
				transfer_state = 1029
				transfer_state = 1030
				transfer_state = 1031
				transfer_state = 1032
				transfer_state = 1035
			}
			GER = { set_autonomy = { target = GPO autonomy_state = autonomy_reichskommissariat } }
		}
	}

	GER_generalgouvernement_2 = {

		icon = ger_reichskommissariats

		visible = {
			country_exists = GPO
			NOT = {
				GPO = {
					371 = {
						CONTROLLER = {
							OR = {
								is_subject_of = ROOT
								tag = ROOT
							}
						}
					}
					350 = {
						CONTROLLER = {
							OR = {
								is_subject_of = ROOT
								tag = ROOT
							}
						}
					}
					351 = {
						CONTROLLER = {
							OR = {
								is_subject_of = ROOT
								tag = ROOT
							}
						}
					}
					1007 = {
						CONTROLLER = {
							OR = {
								is_subject_of = ROOT
								tag = ROOT
							}
						}
					}
				}
			}
		}

		available = {
			GPO = { is_subject_of = GER }

			371 = {
				CONTROLLER = {
					OR = {
						is_subject_of = ROOT
						tag = ROOT
					}
				}
			}
			350 = {
				CONTROLLER = {
					OR = {
						is_subject_of = ROOT
						tag = ROOT
					}
				}
			}
			351 = {
				CONTROLLER = {
					OR = {
						is_subject_of = ROOT
						tag = ROOT
					}
				}
			}
			1007 = {
				CONTROLLER = {
					OR = {
						is_subject_of = ROOT
						tag = ROOT
					}
				}
			}
		}

		cost = 25

		ai_will_do = {
			factor = 100
		}

		complete_effect = {
			GPO = {
				add_state_core = 371
				add_state_core = 350
				add_state_core = 351

				transfer_state = 371
				transfer_state = 350
				transfer_state = 351
				transfer_state = 1007
			}
		}
	}

	GER_reichskommissariat_ostland = {

		icon = ger_reichskommissariats

		visible = {
			GOS = {
				NOT = { is_subject_of = GER }
			}
		}

		available = {
			170 = { is_controlled_by_axis = yes }
			137 = { is_controlled_by_axis = yes }
			136 = { is_controlled_by_axis = yes }
			179 = { is_controlled_by_axis = yes }
			186 = { is_controlled_by_axis = yes }
			209 = { is_controlled_by_axis = yes }
			205 = { is_controlled_by_axis = yes }
			213 = { is_controlled_by_axis = yes }
			210 = { is_controlled_by_axis = yes }
			248 = { is_controlled_by_axis = yes }
			220 = { is_controlled_by_axis = yes }
			1097 = { is_controlled_by_axis = yes }
		}

		cost = 25

		ai_will_do = {
			factor = 100
		}

		complete_effect = {
			GOS = {
				add_state_core = 170
				add_state_core = 137
				add_state_core = 136
				add_state_core = 179
				add_state_core = 186
				add_state_core = 209
				add_state_core = 205
				add_state_core = 213
				add_state_core = 210
				add_state_core = 248
				add_state_core = 220
				add_state_core = 1097

				transfer_state = 170
				transfer_state = 137
				transfer_state = 136
				transfer_state = 179
				transfer_state = 186
				transfer_state = 209
				transfer_state = 205
				transfer_state = 213
				transfer_state = 210
				transfer_state = 248
				transfer_state = 220
				transfer_state = 1097
			}
			GER = { set_autonomy = { target = GOS autonomy_state = autonomy_reichskommissariat } }
		}
	}

	GER_reichskommissariat_ukraine = {

		icon = ger_reichskommissariats

		visible = {
			GUK = {
				NOT = { is_subject_of = GER }
			}
		}

		available = {
			289 = { is_controlled_by_axis = yes }
			311 = { is_controlled_by_axis = yes }
			283 = { is_controlled_by_axis = yes }
			336 = { is_controlled_by_axis = yes }
			306 = { is_controlled_by_axis = yes }
			304 = { is_controlled_by_axis = yes }
			323 = { is_controlled_by_axis = yes }
			344 = { is_controlled_by_axis = yes }
			373 = { is_controlled_by_axis = yes }
			382 = { is_controlled_by_axis = yes }
			312 = { is_controlled_by_axis = yes }
			331 = { is_controlled_by_axis = yes }
			356 = { is_controlled_by_axis = yes }
			334 = { is_controlled_by_axis = yes }
			384 = { is_controlled_by_axis = yes }
		}

		cost = 25

		ai_will_do = {
			factor = 100
		}

		complete_effect = {
			GUK = {
				add_state_core = 289
				add_state_core = 311
				add_state_core = 283
				add_state_core = 336
				add_state_core = 306
				add_state_core = 304
				add_state_core = 323
				add_state_core = 344
				add_state_core = 373
				add_state_core = 382
				add_state_core = 312
				add_state_core = 331
				add_state_core = 356
				add_state_core = 334
				add_state_core = 384

				transfer_state = 289
				transfer_state = 311
				transfer_state = 283
				transfer_state = 336
				transfer_state = 306
				transfer_state = 304
				transfer_state = 323
				transfer_state = 344
				transfer_state = 373
				transfer_state = 382
				transfer_state = 312
				transfer_state = 331
				transfer_state = 356
				transfer_state = 334
				transfer_state = 384
				transfer_state = 1021
				transfer_state = 1020
			}
			GER = { set_autonomy = { target = GUK autonomy_state = autonomy_reichskommissariat } }
		}
	}

	GER_reichskommissariat_kaukasus = {

		icon = ger_reichskommissariats

		visible = {
			GKA = {
				NOT = { is_subject_of = GER }
			}
		}

		available = {
			335 = { is_controlled_by_axis = yes }
			290 = { is_controlled_by_axis = yes }
			278 = { is_controlled_by_axis = yes }
			349 = { is_controlled_by_axis = yes }
			405 = { is_controlled_by_axis = yes }
			352 = { is_controlled_by_axis = yes }
			411 = { is_controlled_by_axis = yes }
			464 = { is_controlled_by_axis = yes }
			429 = { is_controlled_by_axis = yes }
			441 = { is_controlled_by_axis = yes }
		}

		cost = 25

		ai_will_do = {
			factor = 100
		}

		complete_effect = {
			GKA = {
				add_state_core = 335
				add_state_core = 290
				add_state_core = 278
				add_state_core = 349
				add_state_core = 405
				add_state_core = 352
				add_state_core = 411
				add_state_core = 464
				add_state_core = 429
				add_state_core = 441

				transfer_state = 335
				transfer_state = 290
				transfer_state = 278
				transfer_state = 349
				transfer_state = 405
				transfer_state = 352
				transfer_state = 411
				transfer_state = 464
				transfer_state = 429
				transfer_state = 441
			}
			GER = { set_autonomy = { target = GKA autonomy_state = autonomy_reichskommissariat } }
		}
	}

	GER_reichskommissariat_moskowien = {

		icon = ger_reichskommissariats

		visible = {
			GMO = {
				NOT = { is_subject_of = GER }
			}
		}

		available = {
			111 = { is_controlled_by_axis = yes }
			146 = { is_controlled_by_axis = yes }
			202 = { is_controlled_by_axis = yes }
			197 = { is_controlled_by_axis = yes }
			224 = { is_controlled_by_axis = yes }
			246 = { is_controlled_by_axis = yes }
			230 = { is_controlled_by_axis = yes }
			225 = { is_controlled_by_axis = yes }
			266 = { is_controlled_by_axis = yes }
			262 = { is_controlled_by_axis = yes }
			238 = { is_controlled_by_axis = yes }
			274 = { is_controlled_by_axis = yes }
			228 = { is_controlled_by_axis = yes }
			222 = { is_controlled_by_axis = yes }
		}

		cost = 25

		ai_will_do = {
			factor = 100
		}

		complete_effect = {
			GMO = {
				add_state_core = 111
				add_state_core = 146
				add_state_core = 202
				add_state_core = 197
				add_state_core = 224
				add_state_core = 246
				add_state_core = 230
				add_state_core = 225
				add_state_core = 266
				add_state_core = 262
				add_state_core = 263
				add_state_core = 293
				add_state_core = 320
				add_state_core = 296
				add_state_core = 238
				add_state_core = 274
				add_state_core = 228
				add_state_core = 222

				transfer_state = 111
				transfer_state = 146
				transfer_state = 202
				transfer_state = 197
				transfer_state = 224
				transfer_state = 246
				transfer_state = 230
				transfer_state = 225
				transfer_state = 266
				transfer_state = 262
				transfer_state = 263
				transfer_state = 293
				transfer_state = 320
				transfer_state = 296
				transfer_state = 238
				transfer_state = 274
				transfer_state = 228
				transfer_state = 222
			}
			GER = { set_autonomy = { target = GMO autonomy_state = autonomy_military_occupation } }
		}
	}

	GER_reichskommissariat_moskowien_2 = {

		icon = ger_reichskommissariats

		available = {
			country_exists = GMO
			GMO = { is_subject_of = GER }
			101 = { is_controlled_by_axis = yes }
			112 = { is_controlled_by_axis = yes }
			108 = { is_controlled_by_axis = yes }
			156 = { is_controlled_by_axis = yes }
			191 = { is_controlled_by_axis = yes }
			194 = { is_controlled_by_axis = yes }
			218 = { is_controlled_by_axis = yes }
			193 = { is_controlled_by_axis = yes }
			177 = { is_controlled_by_axis = yes }
			217 = { is_controlled_by_axis = yes }
		}

		cost = 25

		ai_will_do = {
			factor = 100
		}

		complete_effect = {
			set_country_flag = moscowien_phase_2
			GMO = {
				add_state_core = 101
				add_state_core = 112
				add_state_core = 108
				add_state_core = 156
				add_state_core = 191
				add_state_core = 194
				add_state_core = 218
				add_state_core = 193
				add_state_core = 177
				add_state_core = 217

				transfer_state = 101
				transfer_state = 112
				transfer_state = 108
				transfer_state = 156
				transfer_state = 191
				transfer_state = 194
				transfer_state = 218
				transfer_state = 193
				transfer_state = 177
				transfer_state = 217
			}
			GER = { set_autonomy = { target = GMO autonomy_state = autonomy_reichskommissariat } }
		}
	}

	GER_reichskommissariat_moskowien_3 = {

		icon = ger_reichskommissariats

		visible = {
			has_country_flag = moscowien_phase_2
		}

		available = {
			country_exists = GMO
			GMO = { is_subject_of = GER }
			6 = { is_controlled_by_axis = yes }
			55 = { is_controlled_by_axis = yes }
			105 = { is_controlled_by_axis = yes }
			102 = { is_controlled_by_axis = yes }
			66 = { is_controlled_by_axis = yes }
			144 = { is_controlled_by_axis = yes }
			85 = { is_controlled_by_axis = yes }
			147 = { is_controlled_by_axis = yes }
			176 = { is_controlled_by_axis = yes }
		}

		cost = 25

		ai_will_do = {
			factor = 100
		}

		complete_effect = {
			GMO = {
				add_state_core = 6
				add_state_core = 55
				add_state_core = 105
				add_state_core = 102
				add_state_core = 66
				add_state_core = 144
				add_state_core = 85
				add_state_core = 147
				add_state_core = 176

				transfer_state = 6
				transfer_state = 55
				transfer_state = 105
				transfer_state = 102
				transfer_state = 66
				transfer_state = 144
				transfer_state = 85
				transfer_state = 147
				transfer_state = 176
			}
		}
	}

	GER_reichskommissariat_moskowien_finland = {

		icon = ger_reichskommissariats

		visible = {
			has_country_flag = moscowien_phase_2
			has_global_flag = lappland_war
		}

		available = {
			country_exists = GMO
			GMO = { is_subject_of = GER }
			32 = { is_controlled_by_axis = yes }
			5 = { is_controlled_by_axis = yes }
			25 = { is_controlled_by_axis = yes }
			4 = { is_controlled_by_axis = yes }
			64 = { is_controlled_by_axis = yes }
		}

		cost = 25

		ai_will_do = {
			factor = 100
		}

		complete_effect = {
			GMO = {
				add_state_core = 32
				add_state_core = 5
				add_state_core = 25
				add_state_core = 4
				add_state_core = 64

				transfer_state = 32
				transfer_state = 5
				transfer_state = 25
				transfer_state = 4
				transfer_state = 64
			}
		}
	}
}
GER_renaming_category = {
	GER_greater_reich = {
		icon = ger_reichskommissariats

		available = {
			412 = {
				CONTROLLER = { is_in_german_faction = yes }
			}
			270 = {
				CONTROLLER = { is_in_german_faction = yes }
			}
			308 = {
				CONTROLLER = { is_in_german_faction = yes }
			}
			363 = {
				CONTROLLER = { is_in_german_faction = yes }
			}
			1051 = {
				CONTROLLER = { is_in_german_faction = yes }
			}
			291 = {
				CONTROLLER = { is_in_german_faction = yes }
			}
			220 = {
				CONTROLLER = { is_in_german_faction = yes }
			}
			304 = {
				CONTROLLER = { is_in_german_faction = yes }
			}
			222 = {
				CONTROLLER = { is_in_german_faction = yes }
			}
		}
		complete_effect = {
			set_cosmetic_tag = G_GER_fascism
		}
	}
}