name="Endsieg: Primo Victoria"
tags={
	"Historical"
	"Military"
	"Map"
	"Balance"
}
replace_path="common/abilities"
replace_path="common/achievements"
replace_path="common/ai_areas"
replace_path="common/ai_equipment"
replace_path="common/ai_focuses"
replace_path="common/ai_peace"
replace_path="common/ai_strategy"
replace_path="common/ai_strategy_plans"
replace_path="common/ai_templates"
replace_path="common/autonomous_states"
replace_path="common/bookmarks"
replace_path="common/characters"
replace_path="common/countries"
replace_path="common/country_tags"
replace_path="common/decisions"
replace_path="common/decisions/categories"
replace_path="common/game_rules"
replace_path="common/idea_tags"
replace_path="common/ideas"
replace_path="common/names"
replace_path="common/national_focus"
replace_path="common/opinion_modifiers"
replace_path="common/on_actions"
replace_path="common/operations"
replace_path="common/scripted_effects"
replace_path="common/scripted_guis"
replace_path="common/scripted_localisation"
replace_path="common/scripted_triggers"
replace_path="common/technologies"
replace_path="common/technology_sharing"
replace_path="common/units"
replace_path="common/units/names"
replace_path="common/units/names_divisions"
replace_path="common/units/names_railway_guns"
replace_path="common/units/names_ships"
replace_path="common/units/codenames_operatives"
replace_path="events"
replace_path="history/countries"
replace_path="history/general"
replace_path="history/states"
replace_path="history/units"
replace_path="map/strategicregions"
replace_path="map/supplyareas"
supported_version="1.11.*"
path="mod/france-ww2"
remote_file_id="2121051896"
picture="thumbnail.png"
