
strategic_region={
	id=114
	name="STRATEGICREGION_114"
	provinces={
		1112 1260 1424 1589 1782 1860 1965 2274 2287 2382 2726 3230 3272 3273 3310 3393 3640 4040 4180 4214 4232 4390 4430 4671 4740 4784 4951 4954 4957 5612 5624 5644 5653 5656 5658 5659 5664 5666 5667 5670 5676 5677 5688 5691 5692 5694 5696 5703 5709 5732 5761 8334 8335 8349 8357 8358 11217 11362 11366 
	}
	weather={
	}
}
