
strategic_region={
	id=13
	name="STRATEGICREGION_13"
	provinces={
		30 426 427 430 449 452 554 687 744 829 874 926 995 1048 1153 1167 1269 1305 1323 1348 1356 1361 1379 1461 1521 1626 1680 1707 1739 1741 1746 1762 1769 1812 1830 1833 1930 1960 1993 2097 2272 2289 2291 2295 2300 2334 2340 2414 2438 2487 2497 2644 2655 2740 2765 2769 2777 2785 2791 2874 2930 2954 2977 2993 3012 3018 3030 3034 3066 3088 3112 3146 3173 3176 3211 3246 3274 3317 3341 3344 3415 3433 3443 3446 3450 3559 3639 3644 3683 3804 3809 3837 3904 3960 3983 4067 4084 4135 4161 4194 4265 4318 4349 4399 4413 4475 4617 4663 4684 4775 4782 4819 4873 4909 4959 4970 6719 6752 6790 6802 6803 6814 6815 6823 6832 6840 6846 6857 6864 6873 6877 6886 6890 6895 6900 6906 6907 6910 6915 6918 6919 6924 6925 6931 6932 6941 6943 6956 6958 6964 6970 6978 6981 6983 6996 6998 7000 7008 7014 7017 7020 7028 7035 7045 7064 7066 7076 7088 7102 7115 7123 7132 7143 7149 7152 7156 7160 7171 7186 7577 8457 8530 8538 8540 8545 8547 8555 8556 8557 8566 8567 8568 8575 8582 8583 8584 8585 8586 9455 9717 11386 11388 11389 11395 11402 
	}
	weather={
	}
}
