
strategic_region={
	id=137
	name="STRATEGICREGION_137"
	provinces={
		7845 8624 8625 8627 8630 8631 8632 8633 8634 8636 8638 8639 8640 8642 8645 8647 8648 8649 8650 8651 8652 8662 8663
	}
	weather={
	}
}
