
strategic_region={
	id=140
	name="STRATEGICREGION_140"
	provinces={
		8842 8854 8861 8863 8874 8881 8886 8900 8901 8904 8910 8913 8926 8929 8935 8936 8945 8949 8950 8956 8957 8962 8972 8973 8975 8977 8980 8982 8988 9001 9003 9004 9006 9008 9009 9012 9016 9019 9022 9023 9025 9028 9035 9036 9039 9040 9041 9045 9048 9049 9056 9057 9058 9060 9061 9064 9065 9066 9067 9068 9070 9073 9077 9078 9084 9087 9088 9090 9092 9093 9094 9098 9099 9100 9102 9106 9109 9111 9114 9116 9118 9119 9121 9122 9123 9128 9129 9131 9133 9137 9139 9140 9141 9143 9154 9158 9165 9167 9168 9242 9244 9249 9252 9258 9262 9280 9288 9289 9297 9303 9304 9306 9308 9312 9315 9339 9343 9352 9362 9364 9366 9371 9389 9390 9391 9365
	}
	weather={
	}
}
