
strategic_region={
	id=141
	name="STRATEGICREGION_141"
	provinces={
		8674 8675 8676 8678 8679 8680 8681 8682 8683 8685 8686 8687 8688 8689 8690 8692 8694 8695 8696 8697 8699 8702 8703 8704 8705 8706 8707 8708 8709 8710 8711 8712 8714 8715 8717 8718 8720 8721 8725 8726 8727 8728 8729 8730 8731 8733 8734 8735 8737 8738 8740 8742 8743 8744 8747 8748 8751 8753 8757 8758 8759 8761 8765 8768 8769 8770 8771 8772 8773 8775 8776 8777 8782 8783 8784 8785 8786 8787 8788 8790 8791 8792 8794 8795 8797 8799 8803 8804 8805 8808 8809 8810 8812 8813 8815 8817 8818 8819 8821 8822 8824 8826 8827 8828 8834 8838 8851 8860 8862 9227 9228 9254 9268 9269 9271 9273 9274 9275 9276 9277 9279 9281 9283 9327 9328 9329 9330 9331 9332 9333 9335 9336 9341 9394 9395 9396 9397 9398 9399 9400 9401 11319 
	}
	weather={
	}
}
