
strategic_region={
	id=152
	name="STRATEGICREGION_152"
	provinces={
		487 532 746 751 760 763 767 838 839 883 885 1106 1568 1577 1666 1760 1764 1928 2026 2168 2190 2360 2452 2472 2511 3074 3085 3381 3533 3584 3758 5019 5021 5028 5030 5032 5034 5046 7523 7534 7536 7537 7541 7890 7891 7907 7908 7909 7910 7911 7912 7913 7914 7915 7916 7917 7918 7919 7920 7921 7922 7923 7924 7925 7926 7927 7928 7930 7931 7932 7933 7934 7935 7936 7937 7940 7942 7943 7945 7947 7948 7949 7950 7952 7953 7954 7957 7958 7961 7982 7988 7991 7997 7998 7999 8015 8017 8019 10020 11064 11073 11075 11105 11109 11138 11148 11151 11155 11159
	}
	weather={
	}
}
