strategic_region={
	id=167
	name="STRATEGICREGION_167"
	provinces={
		441 798 890 1353 1673 1682 1748 1771 1999 2101 2214 2425 2429 2611 2637 2794 2960 3050 3187 3319 3368 3428 3530 3592 3614 4041 4074 4213 4293 4380 4382 4417 4421 4558 4676 4717 4855 4865 4973 6902 6920 6922 6952 6960 6969 6973 6977 6984 6987 6997 7001 7004 7034 7074 7081 7131 7572 7669 7677 7693 7698 7727 
	}
	weather={
	}
}
