
strategic_region={
	id=18
	name="STRATEGICREGION_18"
	provinces={
		29 111 192 796 869 971 1035 1105 1141 1333 1365 1445 1460 1844 2215 2244 2488 2597 2674 3669 3849 3986 4291 4795 6703 6715 6725 6748 6785 6791 6796 6812 6813 6816 6818 6827 6845 6848 6862 6868 7558 7559 7562 7568 9585 9586 9587 9721 9724 9725 9727 9734 9739 11309 11310 
	}
	weather={
	}
}
