
strategic_region={
	id=20
	name="STRATEGICREGION_20"
	provinces={
		9 10 15 35 42 46 50 64 66 82 83 85 133 140 151 163 170 182 196 205 219 230 243 249 251 252 254 264 275 283 285 286 300 304 316 337 339 345 370 376 377 401 403 406 420 421 433 450 453 457 470 495 496 530 538 541 542 573 607 617 627 645 658 704 745 754 761 793 804 813 815 861 881 886 897 910 936 944 967 974 990 994 1025 1123 1199 1318 1335 1338 1354 1417 1545 1559 1564 1571 1606 1611 1614 1645 1731 1750 1779 1780 1785 1818 1821 1878 1907 1918 1943 1958 1981 1997 2022 2062 2067 2172 2225 2321 2349 2357 2408 2464 2465 2483 2627 2707 3121 3125 3150 3180 3195 3218 3219 3391 3397 3521 3565 3695 3773 3777 3797 3850 3861 4026 4076 4116 4244 4259 4338 4355 4361 4376 4410 4420 4437 4479 4603 4649 4753 4863 4921 7304 7335 7352 7426 7435 7436 7439 7444 7451 7455 7460 7467 7469 7478 7479 7483 7486 7487 7742
	}
	weather={
	}
}
