
strategic_region={
	id=23
	name="STRATEGICREGION_23"
	provinces={
		272 533 1217 1279 1427 1612 1803 1856 1924 2197 2251 2581 3035 3130 3744 4892 5180 7492 7552 7583 7613 7648 11077 11190 
	}
	weather={
	}
}
