strategic_region={
	id=30
	name="STRATEGICREGION_30"
	provinces={
		33 152 976 1213 1298 1309 1347 1372 1408 1415 1487 1556 1841 1842 1898 1911 1949 1952 1966 2012 2018 2081 2151 2191 2196 2217 2269 2328 2336 2451 2476 2489 2546 2551 2561 2571 2614 2634 2641 2816 2818 2999 3123 3167 3190 3254 3283 3334 3339 3362 3384 3385 3410 3505 3576 3585 3795 3807 3897 3906 4188 4204 4219 4229 4267 4329 4364 4367 4454 4539 4559 4651 4669 4815 4974 5053 5056 5061 5063 5065 5070 5073 5077 5082 5084 5086 5090 5091 5092 5095 5096 5100 5102 5107 5110 5111 5112 5115 5120 5122 5125 5131 5132 5133 5135 5137 5139 5142 5145 5147 5151 5152 5153 5155 5158 5159 5160 5165 5166 5169 5170 5171 5172 5173 5174 5175 5176 5177 7539
	}
	weather={
	}
}
