
strategic_region={
	id=4
	name="STRATEGICREGION_4"
	provinces={
		126 141 245 281 287 380 598 626 636 641 710 777 784 811 987 1111 1116 1222 1258 1278 1294 1339 1351 1428 1502 1637 1641 1675 1679 1736 1843 1851 1925 2468 2587 2622 2759 3444 3726 3900 4697 4750 4791 5215 5223 5252 5357 5365 5399 5565 5602 5621 5661 9507 9508 9509 9531 9534 9540 9543 9625 9697 9701 9870 9875 9879 9882 9886 9888 9892 10251 10266 10268 10286 10290 10295 10303 10315 10331 10333 10365 10369 10375 10384 10386 10388 10403 10430 10435 10443 10454 10507 10515 10519 10526 10542 10548 10556 10563 10590 10598 10601 10637 11181 11203 11274 11276 11279 11280 11283 11287 11296 11300 11302 11303 
	}
	weather={
	}
}
