strategic_region={
	id=42
	name="STRATEGICREGION_42"
	provinces={
		67 169 356 392 410 466 503 563 622 817 957 1063 1086 1156 1158 1190 1207 1234 1241 1247 1255 1280 1304 1437 1511 1513 1514 1549 1582 1702 1724 1745 1831 1861 1882 1904 1934 1961 1998 2004 2005 2017 2066 2086 2089 2092 2137 2153 2207 2240 2253 2264 2293 2314 2335 2344 2406 2417 2421 2447 2486 2531 2563 2620 2716 2718 2736 2762 2778 2786 2796 2810 2831 2851 2860 2870 2938 2945 2992 2994 3009 3039 3059 3089 3134 3162 3179 3222 3252 3258 3265 3269 3294 3300 3346 3356 3366 3371 3413 3478 3500 3528 3540 3582 3587 3590 3663 3710 3745 3760 3781 3782 3789 3805 3811 3892 3943 3980 4066 4086 4125 4203 4239 4245 4368 4385 4387 4477 4485 4509 4511 4593 4616 4630 4688 4700 4759 4799 4860 4884 4903 4930 7130 7137 7138 7142 7147 7151 7157 7164 7166 7167 7172 7174 7175 7178 7180 7184 7189 7190 7192 7194 7198 7200 7204 7208 7209 7210 7212 7214 7215 7216 7218 7219 7221 7222 7223 7225 7227 7229 7230 7232 7233 7234 7236 7238 7241 7244 7246 7247 7249 7250 7251 7254 7256 7257 7261 7266 7268 7269 7274 7275 7276 7277 7279 7282 7284 7292 7298 7303 7509 7511 7514 7515 7517 7518 7520 7533 7535 
	}
	weather={
	}
}
