
strategic_region={
	id=48
	name="STRATEGICREGION_48"
	provinces={
		831 984 1009 1312 1704 1798 2058 2121 2149 2158 2329 2409 2456 2568 2780 2817 2853 3099 3107 3178 3212 3409 3509 3541 3645 3675 3730 3785 4532 4709 4871 4902 7355 7370 7389 7399 7407 7408 7415 7417 7418 7420 7431 7442 7448 7449 7452 7454 7668 7685 7688 7701 7738 7739 8507 8508 8509 8510 8511 9443 10021 
	}
	weather={
	}
}
