
strategic_region={
	id=5
	name="STRATEGICREGION_5"
	provinces={
		76 104 314 849 1084 1108 1328 1399 1416 1489 1624 1735 1885 2180 2230 2419 2866 3058 4264 4440 4525 5917 5984 9495 9500 9501 9502 9503 9504 9505 9506 9514 9515 9516 9522 9523 9539 9568 9613 9615 9616 9617 9618 9619 9620 9621 9622 9623 9624 9654 9823 9829 9833 9836 9839 9840 9849 9855 9858 9866 9868 9873 9876 9911 9912 9938 9939 10019 11196 11197 11198 11199 11200 11201 11202 11204 11206 11207 11265 11306 11351 11361 
	}
	weather={
	}
}
