
strategic_region={
	id=50
	name="STRATEGICREGION_50"
	provinces={
		597 671 1061 1178 1198 1390 1409 1507 1509 1601 1681 1686 1694 1775 2049 2194 2237 2248 2267 2559 2663 2848 2973 3000 3021 3165 3440 3573 3690 3711 3732 3734 3776 3870 3935 3971 3981 4061 4292 4442 4692 4752 4825 4967 7307 7319 7323 7332 7349 7353 7364 7366 7376 7386 7393 7394 7424 7425 7434 7447 7489 7625 8045 8515 8516 8520 8524 9716 
	}
	weather={
	}
}
