
strategic_region={
	id=55
	name="STRATEGICREGION_55"
	provinces={
		625 1058 1791 1903 2061 2444 2941 3848 4592 4644 5453 5460 5463 5465 5466 5470 5473 5477 5484 5485 5486 5497 5498 5499 5500 5504 5507 5512 8377 8395 8397 8410 8424 8427 8428 8613 
	}
	weather={
	}
}
