
strategic_region={
	id=58
	name="STRATEGICREGION_58"
	provinces={
		276 706 1069 1873 1936 2030 2448 2562 3005 3537 3650 3658 3879 3938 4053 4308 4326 4668 4786 5469 5519 5525 5552 5560 5566 5569 5577 5582 5586 5593 5594 5606 5632 5640 5654 5663 11364 
	}
	weather={
	}
}
