
strategic_region={
	id=69
	name="STRATEGICREGION_69"
	provinces={
		1062 1919 1939 1962 2145 2178 2331 2365 2386 2466 2541 2554 2588 2669 2885 2928 3131 3431 3654 3768 3876 4024 4177 4260 4271 4393 4443 4478 4653 4702 4812 4854 4913 7016 7022 7023 7025 7026 7030 7031 7033 7038 7040 7042 7043 7044 7049 7052 7054 7055 7058 7060 7061 7062 7069 7071 7072 7073 7078 7079 7082 7083 7089 7094 7095 7097 7098 7103 7106 7108 7109 7110 7114 7118 7120 7125 7126 7127 7139 7140 7148 7706 7733 8062 8063 8064 11239 11240 11241 11242 11243 11244 
	}
	weather={
	}
}
