
strategic_region={
	id=70
	name="STRATEGICREGION_70"
	provinces={
		110 115 491 848 1001 1051 1136 1238 1262 1548 1580 1795 1926 1970 2176 2202 2281 2309 2445 2504 2724 2803 2891 2936 2970 3122 3154 3249 3253 3261 3306 3314 3331 3503 3596 3620 3756 3823 3964 4157 4227 4278 4429 4468 4531 4597 4742 4861 4905 5002 5005 6751 6769 6776 6788 6806 6807 6809 6817 6821 6824 6829 6839 6841 6843 6847 6853 6858 6861 6865 6871 6875 6876 6881 6899 6912 6923 6928 6938 6939 6940 6953 6957 6968 6976 6993 7005 8067 8068 8069 8070 8073 8074
	}
	weather={
	}
}
