
strategic_region={
	id=71
	name="STRATEGICREGION_71"
	provinces={
		535 567 609 648 662 955 1464 1519 1811 1876 1935 2000 2366 2628 2704 2811 2909 2943 2963 3090 3207 3228 3263 3288 3340 3420 3488 3615 3985 4050 4101 4220 4241 4246 4459 4484 4503 4581 4682 4731 4925 4934 4995 6687 6691 6693 6710 6712 6717 6722 6724 6728 6730 6734 6737 6738 6740 6742 6743 6750 6753 6757 6758 6761 6762 6767 6768 6770 6772 6773 6775 6777 6778 6780 6784 6793 6799 8071 8072 8075 8076 8079 8080 8081 11245 
	}
	weather={
	}
}
