
strategic_region={
	id=75
	name="STRATEGICREGION_75"
	provinces={
		71 613 669 1276 1395 1538 1558 1728 1776 1859 1937 1973 1976 2090 2290 2320 2367 2390 2657 2904 3006 3019 3023 3075 3104 3143 3200 3321 3327 3336 3347 3547 3625 3664 3667 3752 3826 3840 3885 3914 3916 3944 3972 4018 4108 4144 4153 4250 4255 4304 4377 4578 4602 4646 4695 4712 4718 4739 4964 4985 4997 6228 6239 6242 6245 6250 6255 6256 6266 6269 6274 6275 6276 6277 6279 6288 6298 6299 6302 6303 6310 6317 6328 6329 6332 6333 6334 6337 6338 6346 6353 6354 6356 6359 6360 6367 6370 6371 6373 6378 6379 6380 6382 6388 6389 6394 6399 6400 6404 6406 6414 6419 6427 6431 6440 6447 6451 7503 7508 7605 7606 7622 8124 8129 8134 8136 8140 8143 8144 8145 8147 8160 8161 8163 8165 8166 8167 8168 8184 8185 10017 11251 11252 11339 11407 
	}
	weather={
	}
}
