
strategic_region={
	id=81
	name="STRATEGICREGION_81"
	provinces={
		585 906 954 1553 2094 2412 2635 3241 3422 3510 3915 3982 4273 4301 4323 4457 4608 4801 4840 4961 5646 5690 5695 5704 5705 5714 5715 5727 5728 5739 5756 5786 5799 5824 5841 8317 8328 8329 8331 8337 8343 11230 11363 
	}
	weather={
	}
}
