
strategic_region={
	id=83
	name="STRATEGICREGION_83"
	provinces={
		61 73 282 614 739 749 1043 1077 1088 1322 1426 1465 1477 1486 1605 1664 1822 1838 1895 1945 2011 2249 2286 2296 2424 2428 2505 2506 2530 2660 2687 2781 2887 2957 3060 3153 3156 3168 3235 3399 3401 3434 3479 3522 3548 3598 3660 3666 3696 3753 3847 3875 3910 3917 3926 3936 3957 3979 4087 4102 4109 4327 4392 4483 4500 4528 4579 4587 4601 4704 4810 4945 4962 4971 5609 5618 5633 5641 5642 5645 5660 5681 5683 5710 5729 5735 5778 5800 5801 5843 5864 5874 5881 5893 5926 5947 5953 5956 5964 5979 5992 5995 5998 6005 6006 6017 6030 6036 6052 6059 6062 6070 6071 6106 8215 8218 8226 8232 8240 8243 8264 8270 8272 8281 8283 8291 8297 8305 8307 8315 8319 8320 8322 8338 8340 8341 8351 8537 8271
	}
	weather={
	}
}
