characters={
	GRE_konstantinos_demertzis={
		name=GRE_konstantinos_demertzis
		portraits={
			civilian={
				large="GFX_portrait_gre_konstantinos_demertzis"
			}
		}
		country_leader={
			ideology=centrism
			traits={ monarchist_puppet }
			expire="1965.1.1.1"
			id=-1
		}
	}

	GRE_nikos_zachariadis={
		name=GRE_nikos_zachariadis
		portraits={
			civilian={
				large="GFX_portrait_gre_nikos_zachariadis"
			}
		}
		country_leader={
			ideology=stalinism
			traits={ reluctant_stalinist }
			expire="1965.1.1.1"
			id=-1
		}
	}

	GRE_george_mercouris={
		name=GRE_george_mercouris
		portraits={
			civilian={
				large="GFX_portrait_gre_george_mercouris"
			}
		}
		country_leader={
			ideology=gen_nazism
			traits={ polemarch likes_turkey }
			expire="1965.1.1.1"
			id=-1
		}
	}

	GRE_ioannis_metaxas={
		instance={
			allowed={ NOT = { has_dlc = "Battle for the Bosporus" } }
			name=GRE_ioannis_metaxas
			portraits={
				civilian={
					large="gfx/leaders/GRE/Portrait_Greece_Ioannis_Metaxas.dds"
				}
			}
			country_leader={
				ideology=despotism
				expire="1965.1.1.1"
				id=-1
			}
		}
		instance={
			allowed = { has_dlc = "Battle for the Bosporus" }
			name=GRE_ioannis_metaxas
			portraits={
				army={
					small="GFX_idea_gre_ioannis_metaxas"
				}
				civilian={
					large="gfx/leaders/GRE/Portrait_Greece_Ioannis_Metaxas.dds"
				}
			}
			advisor={
				slot = political_advisor
				idea_token = GRE_ioannis_metaxas
				allowed = {
					original_tag = GRE
					has_dlc = "Battle for the Bosporus"
				}
				available = {
					AND = {
						OR = {
							custom_trigger_tooltip = {
								tooltip = GRE_monarchists_friendly_or_loyal
								check_variable = {
									var = GRE_monarchist_loyalty
									value = 1.000
									compare = greater_than_or_equals
								}
							}
							custom_trigger_tooltip = {
								tooltip = GRE_fascists_friendly_or_loyal
								check_variable = {
									var = GRE_fascist_loyalty
									value = 1.000
									compare = greater_than_or_equals
								}
							}
						}
						NOT = {
							has_country_leader = {
								character = GRE_ioannis_metaxas
								ruling_only = yes
							}
							has_country_flag = GRE_metaxas_is_dead_crab_rave_flag
						}
					}
				}
				traits = {
					devoted_corporatist
				}
			}
			country_leader = {
				ideology = despotism
				expire="1965.1.1.1"
				traits = {
					arkhigos
				}
			}
			country_leader = {
				expire = "1965.1.1"
				ideology = fascism_ideology
				traits = {
					arkhigos
				}
			}
		}
	}

	GRE_markos_vafiadis={
		instance={
			allowed={ has_dlc = "Battle for the Bosporus" }
			name=GRE_markos_vafiadis
			portraits={
				army={
					large="GFX_portrait_GRE_markos_vafiadis"
					small="gfx/interface/ideas/idea_gre_markos_vafiadis.dds"
				}
				civilian={
					large="gfx/leaders/GRE/Portrait_Greece_Markos_Vafiadis.dds"
				}
			}
			advisor={
				slot = political_advisor
				idea_token = GRE_markos_vafiadis
				allowed = {
					original_tag = GRE
					has_dlc = "Battle for the Bosporus"
				}
				available = {
					custom_trigger_tooltip = {
						tooltip = GRE_communists_friendly_or_loyal
						check_variable = {
							var = GRE_communist_loyalty
							value = 1.000
							compare = greater_than_or_equals
						}
					}
				}
				traits = {
					guerilla_warfare_expert
				}
			}
		}
		instance={
			allowed={ NOT = { has_dlc = "Battle for the Bosporus" } }
			name=GRE_markos_vafiadis
			portraits={
				civilian={
					large="gfx/leaders/GRE/Portrait_Greece_Markos_Vafiadis.dds"
				}
			}
			country_leader={
				ideology=marxism
				expire="1965.1.1.1"
				id=-1
			}
		}
	}

	GRE_konstantinos_tsaldaris={
		instance={
			allowed={ has_dlc = "Battle for the Bosporus" }
			name=GRE_konstantinos_tsaldaris
			portraits={
				army={
					small="GFX_idea_gre_konstantinos_tsaldaris"
				}
			}
			advisor={
				slot = political_advisor
				idea_token = GRE_konstantinos_tsaldaris
				allowed = {
					original_tag = GRE
					has_dlc = "Battle for the Bosporus"
				}
				available = {
					custom_trigger_tooltip = {
						tooltip = GRE_monarchists_friendly_or_loyal
						check_variable = {
							var = GRE_monarchist_loyalty
							value = 1.000
							compare = greater_than_or_equals
						}
					}
				}
				traits = {
					sharp_tongued_lawyer
				}
			}
		}
		instance={
			allowed={ NOT = { has_dlc = "Battle for the Bosporus" } }
			name=GRE_konstantinos_tsaldaris
			portraits={
				civilian={
					large="gfx/leaders/Europe/Portrait_Europe_Generic_2.dds"
				}
			}
			country_leader={
				ideology=conservatism
				expire="1965.1.1.1"
				id=-1
			}
		}
	}

	GRE_georgios_kosmidis={
		name=GRE_georgios_kosmidis
		portraits={
			civilian={
				large="GFX_portrait_gre_georgios_kosmidis"
			}
		}
		country_leader={
			ideology=nazism
			expire="1965.1.1.1"
			id=-1
		}
	}

	GRE_charalambos_katsimitros={
		name=GRE_charalambos_katsimitros
		portraits={
			army={
				large="GFX_portrait_gre_charalambos_katsimitros"
				small="gfx/interface/ideas/idea_GRE_charalambos_katsimitros.dds"
			}
		}
		corps_commander={
			traits={ inflexible_strategist trait_cautious war_hero trait_GRE_stauch_monarchist trickster trait_mountaineer }
			skill=3
			attack_skill=2
			defense_skill=3
			planning_skill=2
			logistics_skill=2
			legacy_id=304
		}
	}

	GRE_markos_drakos={
		instance = {
			allowed = {
				has_dlc = "Battle for the Bosporus"
			}
			name=GRE_markos_drakos
			portraits={
				army={
					large="GFX_portrait_gre_markos_drakos"
					small="gfx/interface/ideas/idea_GRE_markos_drakos.dds"
				}
			}
			corps_commander={
				traits={ career_officer infantry_officer trickster trait_mountaineer }
				skill=3
				attack_skill=1
				defense_skill=3
				planning_skill=3
				logistics_skill=3
				legacy_id=306
			}
		}
		instance = {
			allowed = {
				NOT = { has_dlc = "Battle for the Bosporus" }
			}
			name=GRE_markos_drakos
			portraits={
				army={
					large="gfx/leaders/Europe/Portrait_Europe_Generic_land_5.dds"
					small="gfx/interface/ideas/idea_europe_generic_land_5.dds"
				}
			}
			corps_commander={
				traits={ hill_fighter }
				skill=3
				attack_skill=1
				defense_skill=3
				planning_skill=3
				logistics_skill=3
				legacy_id=-1
			}
		}
	}

	### Empty characters -> Can become Unit Leaders later

	GRE_theodoros_pangalos = {
		name=GRE_theodoros_pangalos
		portraits={
			army={
				large="GFX_portrait_gre_theodoros_pangalos"
				small="gfx/interface/ideas/idea_GRE_theodoros_pangalos.dds" #Can become a unit leader later
			}
		}
	}

	GRE_dimitrios_psarros = {
		name=GRE_dimitrios_psarros
		portraits={
			army={
				large="GFX_portrait_gre_dimitrios_psarros"
				small="gfx/interface/ideas/idea_GRE_dimitrios_psarros.dds" #Can become a unit leader later
			}
		}
	}

	GRE_panagiotis_demestichas = {
		name=GRE_panagiotis_demestichas
		portraits={
			army={
				large="GFX_portrait_gre_panagiotis_demestichas"
				small="gfx/interface/ideas/idea_GRE_panagiotis_demestichas.dds" #Can become a unit leader later
			}
		}
	}

	GRE_nikolaos_plastiras={
		instance = {
			allowed = {
				has_dlc = "Battle for the Bosporus"
			}
			name=GRE_nikolaos_plastiras
			portraits={
				army={
					small="GFX_idea_gre_nikolaos_plastiras"
					large="GFX_portrait_gre_nikolaos_plastiras" #Can become unit leader later
				}
			}
			advisor={
				slot = army_chief
				idea_token = GRE_nikolaos_plastiras
				ledger = army
				name = GRE_nikolaos_plastiras
				allowed = {
					original_tag = GRE
					has_dlc = "Battle for the Bosporus"
				}
				available = {
					custom_trigger_tooltip = {
						tooltip = GRE_republicans_friendly_or_loyal
						check_variable = {
							var = GRE_republican_loyalty
							value = 1.000
							compare = greater_than_or_equals
						}
					}
				}
				traits = {
					army_chief_maneuver_3
				}

				ai_will_do = {
					factor = 1.000
				}
			}
		}
		instance = {
			allowed = {
				NOT = { has_dlc = "Battle for the Bosporus" }
			}
			name=GRE_nikolaos_plastiras
			portraits={
				army={
					small="GFX_idea_generic_army_europe_3"
				}
			}
			advisor={

				slot = theorist
				idea_token = GRE_nikolaos_plastiras
				ledger = army
				allowed = {
					original_tag = GRE
					NOT = {
						has_dlc = "Battle for the Bosporus"
					}
				}
				traits = {
					military_theorist
				}
			}
		}
	}

	GRE_napoleon_zervas={
		instance = {
			allowed = {
				has_dlc = "Battle for the Bosporus"
			}
			name=GRE_napoleon_zervas
			portraits={
				army={
					small="GFX_idea_gre_napoleon_zervas"
					large="GFX_portrait_GRE_napoleon_zervas" #Can become unit leader later
				}
			}
			advisor={
				slot = high_command
				idea_token = GRE_napoleon_zervas
				ledger = army
				name = GRE_napoleon_zervas
				allowed = {
					original_tag = GRE
					has_dlc = "Battle for the Bosporus"
				}
				available = {
					OR = {
						custom_trigger_tooltip = {
							tooltip = GRE_republicans_friendly_or_loyal
							check_variable = {
								var = GRE_republican_loyalty
								value = 1.000
								compare = greater_than_or_equals
							}
						}
						custom_trigger_tooltip = {
							tooltip = GRE_fascists_friendly_or_loyal
							check_variable = {
								var = GRE_fascist_loyalty
								value = 1.000
								compare = greater_than_or_equals
							}
						}
					}
				}
				traits = {
					army_infantry_2
				}

				ai_will_do = {
					factor = 1.000
				}
			}
		}
		instance = {
			allowed = {
				NOT = { has_dlc = "Battle for the Bosporus" }
			}
			name=GRE_napoleon_zervas
			portraits={
				army={
					small="GFX_idea_generic_army_europe_2"
				}
			}
			advisor={
				slot = high_command
				idea_token = GRE_napoleon_zervas
				ledger = army
				allowed = {
					original_tag = GRE
					NOT = {
						has_dlc = "Battle for the Bosporus"
					}
				}
				traits = {
					army_infantry_2
				}

				ai_will_do = {
					factor = 1.000
				}
			}
		}
	}

	GRE_dimitrios_oikonomou={
		name=GRE_dimitrios_oikonomou
		portraits={
			army={
				small="GFX_idea_gre_dimitrios_oikonomou"
			}
		}
		advisor={
			slot = high_command
			idea_token = GRE_dimitrios_oikonomou
			ledger = navy
			allowed = {
				original_tag = GRE
				has_dlc = "Battle for the Bosporus"
			}
			available = {
				custom_trigger_tooltip = {
					tooltip = GRE_monarchists_friendly_or_loyal
					check_variable = {
						var = GRE_monarchist_loyalty
						value = 1.000
						compare = greater_than_or_equals
					}
				}
			}
			traits = {
				air_naval_strike_2
			}

			ai_will_do = {
				factor = 1.000
			}
		}
	}

	GRE_konstantinos_ventiris={
		instance = {
			allowed = {
				has_dlc = "Battle for the Bosporus"
			}
			name=GRE_konstantinos_ventiris
			portraits={
				army={
					small="GFX_idea_gre_konstantinos_ventiris"
				}
			}
			advisor={

				slot = theorist
				idea_token = GRE_konstantinos_ventiris
				name = GRE_konstantinos_ventiris
				ledger = army
				allowed = {
					original_tag = GRE
					has_dlc = "Battle for the Bosporus"
				}

				traits = {
					grand_battle_plan_expert
				}
			}
		}
		instance = {
			allowed = {
				NOT = { has_dlc = "Battle for the Bosporus" }
			}
			name=GRE_konstantinos_ventiris
			portraits={
				army={
					small="GFX_idea_generic_army_europe_5"
				}
			}
			advisor={
				slot = army_chief
				idea_token = GRE_konstantinos_ventiris
				allowed = {
					original_tag = GRE
					NOT = {
						has_dlc = "Battle for the Bosporus"
					}
				}
				traits = {
					army_chief_defensive_2
				}

				ai_will_do = {
					factor = 1.000
				}
			}
		}
	}

	GRE_nikos_beloyannis={
		instance = {
			allowed = {
				has_dlc = "Battle for the Bosporus"
			}
			name=GRE_nikos_beloyannis
			portraits={
				army={
					small="GFX_idea_gre_nikos_beloyannis"
				}
			}
			advisor={
				slot = high_command
				idea_token = GRE_nikos_beloyannis
				ledger = army
				name = "GRE_nikos_beloyannis"
				allowed = {
					original_tag = GRE
					has_dlc = "Battle for the Bosporus"
				}
				available = {
					custom_trigger_tooltip = {
						tooltip = GRE_communists_friendly_or_loyal
						check_variable = {
							var = GRE_communist_loyalty
							value = 1.000
							compare = greater_than_or_equals
						}
					}
				}
				traits = {
					army_regrouping_2
				}

				ai_will_do = {
					factor = 1.000
				}
			}
		}
		instance = {
			allowed = {
				NOT = { has_dlc = "Battle for the Bosporus" }
			}
			name=GRE_nikos_beloyannis
			portraits={
				army={
					small="GFX_idea_generic_air_europe_2"
				}
			}
			advisor={
				slot = high_command
				idea_token = GRE_nikos_beloyannis
				ledger = navy
				allowed = {
					original_tag = GRE
					NOT = {
						has_dlc = "Battle for the Bosporus"
					}
				}
				traits = {
					air_naval_strike_2
				}

				ai_will_do = {
					factor = 1.000
				}
			}
		}
	}

	GRE_alexandros_sakellariou={
		instance = {
			allowed = {
				has_dlc = "Battle for the Bosporus"
			}
			name=GRE_alexandros_sakellariou
			portraits={
				army={
					small="GFX_idea_gre_alexandros_sakellariou"
					large="gfx/leaders/Europe/portrait_europe_generic_navy_4.dds"
				}
			}
			advisor={
				slot = navy_chief
				idea_token = GRE_alexandros_sakellariou
				name = GRE_alexandros_sakellariou
				allowed = {
					original_tag = GRE
					has_dlc = "Battle for the Bosporus"
				}
				available = {
					custom_trigger_tooltip = {
						tooltip = GRE_monarchists_friendly_or_loyal
						check_variable = {
							var = GRE_monarchist_loyalty
							value = 1.000
							compare = greater_than_or_equals
						}
					}
				}
				traits = {
					navy_chief_decisive_battle_2
				}

				ai_will_do = {
					factor = 1.000
				}
			}

			navy_leader={
				traits={ media_personality bold caustic_personality fleet_protector }
				skill=3
				attack_skill=3
				defense_skill=2
				maneuvering_skill=3
				coordination_skill=2
				legacy_id=-1
			}
		}
		instance = {
			allowed = {
				NOT = { has_dlc = "Battle for the Bosporus" }
			}
			name=GRE_alexandros_sakellariou
			portraits={
				army={
					small="GFX_idea_generic_navy_europe_1"
				}
			}
			advisor={
				slot = navy_chief
				idea_token = GRE_alexandros_sakellariou
				allowed = {
					original_tag = GRE
					NOT = {
						has_dlc = "Battle for the Bosporus"
					}
				}
				traits = {
					navy_chief_commerce_raiding_2
				}

				ai_will_do = {
					factor = 1.000
				}
			}
		}
	}

	GRE_spyridon_avgeris={
		name=GRE_spyridon_avgeris
		portraits={
			army={
				small="GFX_idea_generic_navy_anti_submarine_eastern_european_2d"
			}
		}
		advisor={

			slot = theorist
			idea_token = GRE_spyridon_avgeris
			ledger = navy
			allowed = {
				original_tag = GRE
				has_dlc = "Battle for the Bosporus"
			}
			traits = {
				naval_theorist
			}
		}
	}

	GRE_panagiotis_gazis={
		instance = {
			allowed = {
				has_dlc = "Battle for the Bosporus"
			}
			name=GRE_panagiotis_gazis
			portraits={
				army={
					small="GFX_idea_gre_panagiotis_gazis"
				}
			}
			advisor={
				slot = air_chief
				idea_token = GRE_panagiotis_gazis
				name = "GRE_panagiotis_gazis"
				allowed = {
					original_tag = GRE
					has_dlc = "Battle for the Bosporus"
				}
				traits = {
					air_chief_reform_2
				}

				ai_will_do = {
					factor = 1.000
				}
			}
		}
		instance = {
			allowed = {
				NOT = { has_dlc = "Battle for the Bosporus" }
			}
			name=GRE_panagiotis_gazis
			portraits={
				army={
					small="GFX_idea_generic_air_europe_1"
				}
			}
			advisor={
				slot = air_chief
				idea_token = GRE_panagiotis_gazis
				allowed = {
					original_tag = GRE
					NOT = {
						has_dlc = "Battle for the Bosporus"
					}
				}
				traits = {
					air_chief_reform_2
				}

				ai_will_do = {
					factor = 1.000
				}
			}
		}
	}

	GRE_alexandros_papagos={
		name=GRE_alexandros_papagos
		portraits={
			army={
				small="GFX_idea_gre_alexandros_papagos"
				large="GFX_portrait_gre_alexandros_papagos"
			}
		}
		advisor={
			slot = army_chief
			idea_token = GRE_alexandros_papagos
			allowed = {
				original_tag = GRE
				has_dlc = "Battle for the Bosporus"
			}
			available = {
				custom_trigger_tooltip = {
					tooltip = GRE_monarchists_friendly_or_loyal
					check_variable = {
						var = GRE_monarchist_loyalty
						value = 1.000
						compare = greater_than_or_equals
					}
				}
			}
			traits = {
				army_chief_defensive_2
			}

			ai_will_do = {
				factor = 1.000
			}
		}

		advisor={

			slot = theorist
			idea_token = GRE_alexandros_papagos_theorist
			ledger = army
			allowed = {
				original_tag = GRE
				has_dlc = "Battle for the Bosporus"
			}
			available = {
				custom_trigger_tooltip = {
					tooltip = GRE_monarchists_friendly_or_loyal
					check_variable = {
						var = GRE_monarchist_loyalty
						value = 1.000
						compare = greater_than_or_equals
					}
				}
			}
			traits = {
				military_theorist
			}
			ai_will_do = {
				factor = 1.000
			}
		}

		field_marshal={
			traits={ old_guard inflexible_strategist career_officer war_hero trait_GRE_stauch_monarchist trait_mountaineer }
			skill=3
			attack_skill=2
			defense_skill=3
			planning_skill=3
			logistics_skill=2
			legacy_id=300
		}
	}

	GRE_petros_voulgaris={
		instance = {
			allowed = {
				has_dlc = "Battle for the Bosporus"
			}
			name=GRE_petros_voulgaris
			portraits={
				army={
					small="GFX_idea_gre_petros_voulgaris"
				}
			}
			advisor={
				slot = navy_chief
				idea_token = GRE_petros_voulgaris
				name = "GRE_petros_voulgaris"
				allowed = {
					original_tag = GRE
					has_dlc = "Battle for the Bosporus"
				}
				available = {
					custom_trigger_tooltip = {
						tooltip = GRE_republicans_friendly_or_loyal
						check_variable = {
							var = GRE_republican_loyalty
							value = 1.000
							compare = greater_than_or_equals
						}
					}
				}
				traits = {
					navy_chief_maneuver_2
				}

				ai_will_do = {
					factor = 1.000
				}
			}
		}
		instance = {
			allowed = {
				NOT = { has_dlc = "Battle for the Bosporus" }
			}
			name=GRE_petros_voulgaris
			portraits={
				army={
					small="GFX_idea_generic_navy_europe_1"
				}
			}
			advisor={
				slot = navy_chief
				idea_token = GRE_petros_voulgaris
				allowed = {
					original_tag = GRE
					NOT = {
						has_dlc = "Battle for the Bosporus"
					}
				}
				traits = {
					navy_chief_maneuver_2
				}

				ai_will_do = {
					factor = 1.000
				}
			}
		}
	}

	GRE_eleftherios_venizelos={
		name=GRE_eleftherios_venizelos
		portraits={
			army={
				small="gfx/interface/ideas/idea_GRE_eleftherios_venizelos.dds"
			}
			civilian={
				large="GFX_portrait_gre_eleftherios_venizelos"
			}
		}
		advisor={

			slot = theorist
			idea_token = GRE_eleftherios_venizelos
			ledger = air
			allowed = {
				original_tag = GRE
				NOT = {
					has_dlc = "Battle for the Bosporus"
				}
			}
			traits = {
				air_warfare_theorist
			}
		}

		country_leader={
			ideology=liberalism
			traits={ ethnarch }
			expire="1965.1.1.1"
			id=-1
		}
	}

	GRE_georgios_tsolakoglou={
		name=GRE_georgios_tsolakoglou
		portraits={
			army={
				small="GFX_idea_gre_georgios_tsolakoglou"
			}
		}
		advisor={
			slot = army_chief
			idea_token = GRE_georgios_tsolakoglou
			allowed = {
				original_tag = GRE
				has_dlc = "Battle for the Bosporus"
			}
			available = {
				custom_trigger_tooltip = {
					tooltip = GRE_fascists_friendly_or_loyal
					check_variable = {
						var = GRE_fascist_loyalty
						value = 1.000
						compare = greater_than_or_equals
					}
				}
			}
			traits = {
				army_chief_offensive_1
			}

			ai_will_do = {
				factor = 1.000
			}
		}
	}

	GRE_vasilios_tsarpalis={
		instance = {
			allowed = {
				has_dlc = "Battle for the Bosporus"
			}
			name=GRE_vasilios_tsarpalis
			portraits={
				army={
					small="GFX_idea_gre_vasilios_tsarpalis"
				}
			}
			advisor={
				slot = air_chief
				idea_token = GRE_vasilios_tsarpalis
				name = "GRE_vasilios_tsarpalis"
				allowed = {
					original_tag = GRE
					has_dlc = "Battle for the Bosporus"
				}
				traits = {
					air_chief_safety_2
				}

				ai_will_do = {
					factor = 1.000
				}
			}
		}
		instance = {
			allowed = {
				NOT = { has_dlc = "Battle for the Bosporus" }
			}
			name=GRE_vasilios_tsarpalis
			portraits={
				army={
					small="GFX_idea_generic_air_europe_2"
				}
			}
			advisor={
				slot = air_chief
				idea_token = GRE_vasilios_tsarpalis
				allowed = {
					original_tag = GRE
					NOT = {
						has_dlc = "Battle for the Bosporus"
					}
				}
				traits = {
					air_chief_safety_2
				}

				ai_will_do = {
					factor = 1.000
				}
			}
		}
	}
	GRE_epameinondas_kavvadias={
		name=GRE_epameinondas_kavvadias
		portraits={
			army={
				small="GFX_idea_gre_epameinondas_kavvadias"
			}
		}
		advisor={
			slot = high_command
			idea_token = GRE_epameinondas_kavvadias
			ledger = air
			allowed = {
				original_tag = GRE
				has_dlc = "Battle for the Bosporus"
			}
			traits = {
				navy_screen_2
			}

			ai_will_do = {
				factor = 1.000
			}
		}
	}

	GRE_marinos_mitralexis={
		name=GRE_marinos_mitralexis
		portraits={
			army={
				small="GFX_idea_generic_air_warfare_theorist_south_american_2d"
			}
		}
		advisor={

			slot = theorist
			idea_token = GRE_marinos_mitralexis
			ledger = air
			allowed = {
				original_tag = GRE
				has_dlc = "Battle for the Bosporus"
			}
			traits = {
				air_warfare_theorist
			}
		}
	}

	GRE_georgios_kosmas={
		name=GRE_georgios_kosmas
		portraits={
			army={
				small="GFX_idea_gre_giorgios_kosmas"
			}
		}
		advisor={
			slot = high_command
			idea_token = GRE_georgios_kosmas
			ledger = navy
			allowed = {
				original_tag = GRE
				has_dlc = "Battle for the Bosporus"
			}
			traits = {
				army_artillery_2
			}

			ai_will_do = {
				factor = 1.000
			}
		}
	}

	GRE_aristeidis_moraitinis={
		name=GRE_aristeidis_moraitinis
		portraits={
			army={
				small="GFX_idea_generic_air_europe_2"
			}
		}
		advisor={
			slot = high_command
			idea_token = GRE_aristeidis_moraitinis
			ledger = air
			allowed = {
				original_tag = GRE
				NOT = {
					has_dlc = "Battle for the Bosporus"
				}
			}
			traits = {
				air_bomber_interception_2
			}

			ai_will_do = {
				factor = 1.000
			}
		}
	}

	GRE_aris_velouchiotis={
		instance = {
			allowed = {
				has_dlc = "Battle for the Bosporus"
			}
			name=GRE_aris_velouchiotis
			portraits={
				army={
					small="GFX_idea_gre_aris_velouchiotis"
					large = "GFX_portrait_gre_aris_velouchiotis" #Can become unit leader later
				}
			}
			advisor={
				slot = army_chief
				idea_token = GRE_aris_velouchiotis
				name = "GRE_aris_velouchiotis"
				allowed = {
					original_tag = GRE
					has_dlc = "Battle for the Bosporus"
				}
				available = {
					custom_trigger_tooltip = {
						tooltip = GRE_communists_friendly_or_loyal
						check_variable = {
							var = GRE_communist_loyalty
							value = 1.000
							compare = greater_than_or_equals
						}
					}
				}
				traits = {
					army_chief_defensive_2
				}

				ai_will_do = {
					factor = 1.000
				}
			}
		}
		instance = {
			allowed = {
				NOT = { has_dlc = "Battle for the Bosporus" }
			}
			name=GRE_aris_velouchiotis
			portraits={
				army={
					small="GFX_idea_generic_army_europe_1"
				}
			}
			advisor={
				slot = high_command
				idea_token = GRE_aris_velouchiotis
				ledger = army
				allowed = {
					original_tag = GRE
					NOT = {
						has_dlc = "Battle for the Bosporus"
					}
				}
				traits = {
					army_artillery_2
				}

				ai_will_do = {
					factor = 1.000
				}
			}
		}
	}

	GRE_aristeidis_dimitratos={
		name=GRE_aristeidis_dimitratos
		portraits={
			army={
				small="GFX_idea_generic_political_advisor_south_america_1"
			}
		}
		advisor={
			slot = political_advisor
			idea_token = GRE_aristeidis_dimitratos
			allowed = {
				original_tag = GRE
				has_dlc = "Battle for the Bosporus"
			}
			available = {
				custom_trigger_tooltip = {
					tooltip = GRE_monarchists_friendly_or_loyal
					check_variable = {
						var = GRE_monarchist_loyalty
						value = 1.000
						compare = greater_than_or_equals
					}
				}
			}
			traits = {
				war_industrialist
			}
		}
	}


	GRE_georgios_papandreou={
		instance = {
			allowed = {
				has_dlc = "Battle for the Bosporus"
			}
			name=GRE_georgios_papandreou
			portraits={
				army={
					small="GFX_idea_gre_george_papandreou"
				}
			}
			advisor={
				slot = political_advisor
				idea_token = GRE_georgios_papandreou
				name = GRE_georgios_papandreou
				allowed = {
					original_tag = GRE
					has_dlc = "Battle for the Bosporus"
				}
				available = {
					has_government = democratic
				}
				traits = {
					resolute_social_democrat
				}
			}
		}
		instance = {
			allowed = {
				NOT = { has_dlc = "Battle for the Bosporus" }
			}
			name=GRE_georgios_papandreou
			portraits={
				army={
					small="GFX_idea_generic_political_advisor_europe_2"
				}
			}
			advisor={
				slot = political_advisor
				idea_token = GRE_georgios_papandreou
				allowed = {
					original_tag = GRE
					NOT = {
						has_dlc = "Battle for the Bosporus"
					}
				}
				traits = {
					silent_workhorse
				}
			}
		}
	}

	GRE_father_dimistrios={
		name=GRE_father_dimistrios
		portraits={
			army={
				small="GFX_idea_gre_father_dimistrios"
			}
		}
		advisor={
			slot = political_advisor
			idea_token = GRE_father_dimistrios
			allowed = {
				original_tag = GRE
				AND = {
					has_dlc = "La Resistance"
					has_dlc = "Battle for the Bosporus"
				}
			}
			available = {
				has_intelligence_agency = yes
			}
			traits = {
				head_of_intelligence
			}
		}
	}

	GRE_sophoklis_venizelos={
		name=GRE_sophoklis_venizelos
		portraits={
			army={
				small="GFX_idea_gre_sophoklis_venizelos"
			}
		}
		advisor={
			slot = political_advisor
			idea_token = GRE_sophoklis_venizelos
			allowed = {
				original_tag = GRE
				has_dlc = "Battle for the Bosporus"
			}
			available = {
				custom_trigger_tooltip = {
					tooltip = GRE_republicans_friendly_or_loyal
					check_variable = {
						var = GRE_republican_loyalty
						value = 1.000
						compare = greater_than_or_equals
					}
				}
			}
			traits = {
				backroom_backstabber
			}
		}
	}

	GRE_dimitris_glinos={
		name=GRE_dimitris_glinos
		portraits={
			army={
				small="GFX_idea_gre_dimitris_glinos"
			}
		}
		advisor={
			slot = political_advisor
			idea_token = GRE_dimitris_glinos
			allowed = {
				original_tag = GRE
				has_dlc = "Battle for the Bosporus"
			}
			available = {
				has_government = communism
			}
			traits = {
				marxist_academic
			}
		}
	}

	GRE_evripidis_bakirtris={
		name=GRE_evripidis_bakirtris
		portraits={
			army={
				small="GFX_idea_generic_political_advisor_europe_3"
			}
		}
		advisor={
			slot = political_advisor
			idea_token = GRE_evripidis_bakirtris
			allowed = {
				original_tag = GRE
				NOT = {
					has_dlc = "Battle for the Bosporus"
				}
			}
			traits = {
				war_industrialist
			}
		}
	}

	GRE_aristotle_onassis={
		name=GRE_aristotle_onassis
		portraits={
			army={
				small="GFX_idea_gre_aristotle_onassis"
			}
			civilian = {
				large = "gfx/leaders/GRE/portrait_gre_aristotle_onassis.dds" #Can become country leader later
			}
		}
		advisor={
			slot = political_advisor
			idea_token = GRE_aristotle_onassis
			allowed = {
				original_tag = GRE
				has_dlc = "Battle for the Bosporus"
			}
			available = {
				has_country_flag = onassis_proposition_accepted
				NOT = {
					has_country_leader = {
						character = GRE_aristotle_onassis
						ruling_only = yes
					}
				}
			}
			visible = {
				has_country_flag = onassis_proposition_accepted
			}
			traits = {
				gifted_shipping_magnate
			}
		}
	}

	GRE_dimitrios_holevas={
		name=GRE_dimitrios_holevas
		portraits={
			army={
				small="GFX_idea_gre_dimitrios_holevas"
			}
		}
		advisor={
			slot = political_advisor
			idea_token = GRE_dimitrios_holevas
			allowed = {
				original_tag = GRE
				has_dlc = "Battle for the Bosporus"
			}
			available = {
				custom_trigger_tooltip = {
					tooltip = GRE_communists_friendly_or_loyal
					check_variable = {
						var = GRE_communist_loyalty
						value = 1.000
						compare = greater_than_or_equals
					}
				}
			}
			traits = {
				marxist_priest
			}
		}
	}

	GRE_damaskinos={
		name=GRE_damaskinos
		portraits={
			army={
				small="GFX_idea_generic_political_advisor_europe_5"
			}
		}
		advisor={
			slot = political_advisor
			idea_token = GRE_damaskinos
			allowed = {
				original_tag = GRE
				NOT = {
					has_dlc = "Battle for the Bosporus"
				}
			}
			traits = {
				compassionate_gentleman
			}
		}
	}

	GRE_konstantinos_maniadakis={
		name=GRE_konstantinos_maniadakis
		portraits={
			army={
				small="GFX_idea_generic_political_advisor_south_america_3"
			}
		}
		advisor={
			slot = political_advisor
			idea_token = GRE_konstantinos_maniadakis
			allowed = {
				original_tag = GRE
				has_dlc = "Battle for the Bosporus"
			}
			available = {
				OR = {
					custom_trigger_tooltip = {
						tooltip = GRE_monarchists_friendly_or_loyal
						check_variable = {
							var = GRE_monarchist_loyalty
							value = 1.000
							compare = greater_than_or_equals
						}
					}
					custom_trigger_tooltip = {
						tooltip = GRE_fascists_friendly_or_loyal
						check_variable = {
							var = GRE_fascist_loyalty
							value = 1.000
							compare = greater_than_or_equals
						}
					}
				}
			}
			traits = {
				prince_of_terror
			}
		}
	}
}
