
music_station = "base_music"

music = {
	song = "claustrophobic_march"

	chance = {
		factor = 1
		modifier = {
			not = { original_tag = ENG }
			factor = 0.25
		}
		modifier = {
			has_stability < 0.5
			factor = 1.5
		}
		modifier = {
			original_tag = ENG
			has_idea_with_trait = fascist_demagogue
			not = { has_government = fascism }
			factor = 2
		}
	}

}

music = {
	song = "communist_america"

	chance = {
		factor = 1
	}
}

music = {
	song = "confederate_flags"

	chance = {
		factor = 1
		modifier = {
			has_civil_war = yes
			has_government = fascism
			factor = 1.5
		}
	}
}

music = {
	song = "democratic_movements"

	chance = {
		factor = 1
		modifier = {
			OR = {
				not = {
					OR = {
						original_tag = USA
						original_tag = ENG
					}
				}
				not = { has_government = democratic }
			}
			factor = 0
		}
		modifier = {
			has_war = yes
			factor = 2
		}
	}
}
