################################################
################### Template ###################
################################################

########### Template Normal #############
1936.1.1 = {
	set_technology = {
		infantry_weapons = 1
		basic_train = 1
		infantry_weapons1 = 1
		tech_recon = 1
		tech_engineers = 1
		tech_support = 1
		tech_mountaineers = 1
		early_fighter = 1
	}
}
1940.6.5 = {
	set_technology = {

	}
}
1941.6.21 = {
	set_technology = {

	}
}
1942.11.19 = {
	set_technology = {

	}
}
1943.7.11 = {
	set_technology = {

	}
}
1944.6.6 = {
	set_technology = {

	}
}
1944.12.16 = {
	set_technology = {

	}
}
1945.1.1 = {
	set_technology = {

	}
}

######inf weapons####
infantry_weapons = 1
infantry_weapons1 = 1
#support
tech_recon = 1
tech_support = 1		
tech_engineers = 1
tech_military_police = 1
tech_mountaineers = 1
motorised_infantry = 1
paratroopers = 1
gw_artillery = 1
######planes#########
early_fighter = 1
fighter1 = 1
CAS1 = 1
early_bomber = 1
strategic_bomber1 = 1
naval_bomber1 = 1
######doctrines######
mass_assault = 1
fleet_in_being = 1