ideas = {
	country = {
		EFR_french_volunteer_army_1 = {
			removal_cost = -1
			allowed = {
				always = no # Unlocked via focus
			}

			allowed_civil_war = {
				always = yes
			}

			picture = generic_manpower_bonus

			modifier = {
				stability_factor = -0.02

				army_morale_factor = 0.02
			}
		}

		EFR_french_volunteer_army_2 = {
			removal_cost = -1
			allowed = {
				always = no # Unlocked via focus
			}

			allowed_civil_war = {
				always = yes
			}

			picture = generic_manpower_bonus

			modifier = {
				stability_factor = -0.04

				army_morale_factor = 0.04
			}
		}

		EFR_war_repairs = {
			removal_cost = -1
			allowed = {
				always = no
			}
			allowed_civil_war = {
				always = yes
			}
			picture = FRA_factory_strikes

			modifier = {
				consumer_goods_factor = 0.05
			}
		}

		EFR_german_war_repairs = {
			removal_cost = -1
			allowed = {
				always = no
			}
			allowed_civil_war = {
				always = yes
			}
			picture = FRA_factory_strikes

			modifier = {
				consumer_goods_factor = -0.05
				industry_repair_factor = 0.10
			}
		}

		idea_EFR_neutrality = {
			picture = neutrality_idea

			allowed = {
				original_tag = EFR
			}

			allowed_civil_war = {
				always = yes
			}

			removal_cost = -1

			modifier = {
				enemy_justify_war_goal_time = 5.0
				join_faction_tension = 2.00
				lend_lease_tension = 2
				send_volunteers_tension = 0.20
				guarantee_tension = 2.0
				ai_get_ally_desire_factor = -100
			}
		}

		idea_EFR_chantiers_de_la_jeunesse = {

			picture = ast_all_in

			allowed = {
				original_tag = EFR
			}

			allowed_civil_war = {
				always = yes
			}

			removal_cost = -1

			modifier = {
                production_speed_infrastructure_factor = 0.10
				production_speed_industrial_complex_factor = 0.10
				industry_repair_factor = 0.05
			}
		}
		idea_EFR_secret_military_researches = {
			allowed = {
				always = no
				original_research_slots < 5
			}

			modifier = {
				research_speed_factor = 0.05
			}

			removal_cost = -1
			picture = generic_research_bonus
		}
		idea_EFR_STO = {

			allowed = {
				always = no
			}

			allowed_civil_war = {

			}

			removal_cost = -1

			modifier = {
				conscription = -0.005
			}
		}
		idea_EFR_STO2 = {

			picture = idea_EFR_STO

			allowed = {
				always = no
			}

			allowed_civil_war = {

			}

			removal_cost = -1

			modifier = {
				conscription = -0.01
			}
		}
		idea_EFR_STO3 = {

			picture = idea_EFR_STO

			allowed = {
				always = no
			}

			allowed_civil_war = {

			}

			removal_cost = -1

			modifier = {
				conscription = -0.015
			}
		}
		idea_EFR_rationning = {

			picture = generic_agrarian_reform

			allowed = {
				always = no
			}

			allowed_civil_war = {

			}

			removal_cost = -1

			modifier = {
				consumer_goods_factor = -0.05
			}
		}
		idea_EFR_recycling = {

			picture = generic_flexible_foreign_policy2

			allowed = {
				always = no
			}

			allowed_civil_war = {

			}

			removal_cost = -1

			modifier = {
				consumer_goods_factor = -0.02
			}
		}
	}
	political_advisor = {
		EFR_marcel_deat = {


			allowed = {
				original_tag = EFR
			}
			available ={
			}

			traits = { fascist_demagogue }

			on_add = {
				country_event = political.7
			}

			do_effect = {
				NOT = {
					has_government = fascism
				}
			}

			ai_will_do = {
				factor = 0
			}
		}
		EFR_joseph_darnand = {

			allowed = {
				original_tag = EFR
			}
			available = {
				OR = {
					has_government = fascism
					has_government = neutrality
				}
			}
			traits = { prince_of_terror }
			ai_will_do = {
				factor = 1
			}
		}
		EFR_pierre_laval = {

			allowed = {
				original_tag = EFR
			}
			available = {
				OR = {
					has_government = fascism
					has_government = neutrality
				}
			}
			traits = { silent_workhorse }
			ai_will_do = {
				factor = 1
			}
		}
		EFR_jacques_doriot = {

			allowed = {
				original_tag = EFR
			}
			available = {
				OR = {
					has_government = fascism
					has_government = neutrality
				}
			}
			traits = { backroom_backstabber }

			cost = 175
		}
		EFR_rene_belin = {

			allowed = {
				original_tag = EFR
			}
			available = {
				OR = {
					has_government = fascism
					has_government = neutrality
				}
			}
			traits = { captain_of_industry }
		}
		EFR_francois_darlan = { ##political version, vichy, also as navy chief in the france file #### Maybe custom trait with navy XP and PP or naval base construction and PP.

			allowed = {
				original_tag = EFR
			}
			available = {
				OR = {
					has_government = fascism
					has_government = neutrality
				}
			}
			traits = { quartermaster_general }

			ai_will_do = {
				factor = 1
			}
		}
	}

	theorist = {

		EFR_pierre_hering = {
ledger = army
			allowed = {
				original_tag = EFR
			}

			cost = 175

			research_bonus = {
				cat_grand_battle_plan = 0.20
			}

			traits = { grand_battle_plan_expert }

			ai_will_do = {
				factor = 1
				modifier = {
					factor = 0

					GER = { is_ai = yes }
					date < 1939.1.1
				}
			}

		}

		EFR_paul_gastin = {
ledger = air
			picture = generic_air_europe_1

			allowed = {
				original_tag = EFR
			}

			traits = { air_warfare_theorist }
		}
	}

	high_command = {
		EFR_henri_bineau = { ###Henri Bineau Vichyste jusqu'auboutistes
ledger = army
			allowed = {
				original_tag = EFR
			}



			traits = { army_entrenchment_2 }

			ai_will_do = {
				factor = 1
			}
		}
		EFR_emile_mollard = { ###should change side and bring equipment at some point. Chief of the « Conservation du Matériel » ou CDM qui veut aussi dire « Camouflage du Matériel ». to cheat on the armistice treaty.
ledger = army
			allowed = {
				original_tag = EFR
			}



			traits = { army_concealment_3 }

			ai_will_do = {
				factor = 1
			}
		}
	}
	# MILITARY
	army_chief = {
		EFR_odilon_picquendar  = { ###see role diff with hutzinger he was chief of staff
ledger = army
			allowed = {
				original_tag = EFR
			}

			traits = { army_chief_defensive_2 }

			ai_will_do = {
				factor = 1
			}
		}
		## Huntzinger before he died, while he was Secrétaire d’État à la Guerre so like minister of defense.
		EFR_charles_huntziger = {
ledger = army
			allowed = {
				original_tag = EFR
			}

			traits = { army_chief_organizational_2 }

			ai_will_do = {
				factor = 1
			}
		}
		EFR_eugene_bridoux = { ###successor of Hutzinger, wanted an african phalanx to fight againt the anglo americans

			allowed = {
				original_tag = EFR
			}
ledger = army
			traits = { army_chief_offensive_2 }

			ai_will_do = {
				factor = 1
			}
		}
	}
	air_chief = {

		EFR_bertrand_pujo = {
ledger = air
			allowed = {
				original_tag = EFR
			}

			traits = { air_chief_all_weather_2 }

			ai_will_do = {
				factor = 1
			}
		}
		EFR_jean_romatet = {
ledger = air
			allowed = {
				original_tag = EFR
			}

			traits = { air_air_combat_training_2 }

			ai_will_do = {
				factor = 1
			}
		}
	}

}
