ideas = {

    country = {

		GER_resource_payments = {

			allowed = {
				always = no
			}

			allowed_civil_war = {
				always = yes
			}

			removal_cost = -1

			picture = generic_goods_red_bonus

			modifier = {
				consumer_goods_factor = 0.01
			}
		}

		SOV_resource_payments = {

			allowed = {
				always = no
			}

			allowed_civil_war = {
				always = yes
			}

			removal_cost = -1

			picture = generic_goods_red_bonus

			modifier = {
				consumer_goods_factor = -0.01
			}
		}

        GER_navaltreaty_1 = {


            picture = "ger_naval_treaty"

            cancel = {
                has_war_with = ENG
            }

            allowed = {
                original_tag = GER
            }

            modifier = {
                industrial_capacity_dockyard = -0.05
            }
            equipment_bonus = {
                carrier = {
                    instant = yes
                    build_cost_ic = 0.12
                }
                capital_ship = {
                    instant = yes
                    build_cost_ic = 0.12
                }
                screen_ship = {
                    instant = yes
                    build_cost_ic = 0.12
                }
                submarine = {
                    instant = yes
                    build_cost_ic = 0.12
                }
            }
        }

        GER_navaltreaty_2 = {

            picture = "ger_naval_treaty"

            cancel = {
                has_war_with = ENG
            }

            allowed = {
                original_tag = GER
            }

            modifier = {}
            equipment_bonus = {
                carrier = {
                    instant = yes
                    build_cost_ic = 0.1
                }
                capital_ship = {
                    instant = yes
                    build_cost_ic = 0.1
                }
                screen_ship = {
                    instant = yes
                    build_cost_ic = 0.1
                }
                submarine = {
                    instant = yes
                    build_cost_ic = 0.1
                }
            }

        }

        allies_exploited = {

            allowed = {
                original_tag = GER
            }

            removal_cost = 1

            picture = "GER_exploit"

            modifier = {
                industrial_capacity_factory = 0.1
                production_speed_buildings_factor = 0.1
            }
        }

        GER_heer = {

            picture = "general_staff"

            allowed = {
                original_tag = GER
            }

            allowed_civil_war = {
                always = yes
            }

            removal_cost = -1

            modifier = {
                planning_speed = 0.25
                army_org_Factor = 0.10
                max_planning = 0.04
                training_time_factor = -0.05
            }
        }

        GER_heer_ss = {

            picture = "german_advisors"

            allowed = {
                original_tag = GER
            }

            allowed_civil_war = {
                always = yes
            }

            removal_cost = -1

            modifier = {
                planning_speed = 0.25
                army_org_Factor = 0.15
                max_planning = 0.04
                army_morale_factor = 0.10
                training_time_factor = -0.1
                conscription_factor = 0.15
            }
        }

        GER_ss = {

            picture = "ger_ss"
            allowed = {
                original_tag = GER
            }

            modifier = {
                conscription = 0.01
                army_morale_factor = 0.15
            }
        }

        GER_volk = {

            picture = "ger_volk"
            allowed = {
                original_tag = GER
            }

            modifier = {
                conscription = 0.01
                army_core_attack_factor = 0.04
                army_core_defence_factor = 0.04
            }
        }

        GER_med_panzerwaffe = {

            picture = "ger_med_panzerwaffe"

            allowed = {
                original_tag = GER
            }
            research_bonus = {
                armor = 0.10
            }
            equipment_bonus = {
                medium_tank_chassis = {
                    maximum_speed = 0.05
                }
            }
        }

        GER_med_panzerwaffe_2 = {

            picture = "ger_med_panzerwaffe"

            allowed = {
                original_tag = GER
            }
            research_bonus = {
                armor = 0.10
            }
            equipment_bonus = {
                medium_tank_chassis = {
                    maximum_speed = 0.05
                }
                medium_tank_destroyer_chassis = {
                    build_cost_ic = -0.30 instant = yes
                }
            }
        }

        GER_heavy_panzerwaffe = {

            picture = "ger_heavy_panzer"

            allowed = {
                original_tag = GER
            }

            research_bonus = {
                armor = 0.10
            }

            equipment_bonus = {
                heavy_tank_chassis = {
                    armor_value = 0.05
                }
            }
        }

        GER_NLF = {

            allowed = {
                original_tag = GER
                NOT = {
                    has_war_with = ENG
                }
            }

            removal_cost = 1

            picture = "ger_labourfront"

            cancel = {
                has_war_with = ENG
            }
            modifier = {
                stability_factor = 0.10
                industrial_capacity_factory = 0.10
            }
        }


        GER_NLF_2 = {

            allowed = {
                original_tag = GER
            }

            removal_cost = 1

            picture = "ger_labourfront_2"


            equipment_bonus = {
                infantry_equipment = {
                    build_cost_ic = -0.2 instant = yes
                }
                support_equipment = {
                    build_cost_ic = -0.15 instant = yes
                }
            }
            modifier = {
                war_support_factor = 0.10
            }
        }
    }
}
