ideas = {
	country = {
	    peace_time_army = {

			picture = "generic_infantry_bonus"

			modifier = {
				experience_gain_battleship_training_factor = 10.0
				experience_gain_submarine_training_factor  = 10.0
				experience_gain_battle_cruiser_training_factor = 10.0
				experience_gain_destroyer_training_factor 10.0
				experience_gain_carrier_training_factor = 10.0
				experience_gain_heavy_cruiser_training_factor = 10.0
				experience_gain_light_cruiser_training_factor = 10.0
				training_time_factor = -0.45
			}
		}

		usa_special_forces = {
			allowed = { always = yes }
			picture = ast_volunteer_defence_corps
			removal_cost = -1
			modifier = { special_forces_cap = 0.25 }
		}

		USA_husky = {
			removal_cost = -1
			allowed = {
				always = no # Unlocked via focus
			}

			allowed_civil_war = {
				always = yes
			}

			picture = generic_morale_bonus

			modifier = {
				army_org_Factor = 0.1
				army_morale_factor = 0.1

				invasion_preparation = -0.5 #-50% invasion prep time
				amphibious_invasion = 0.5 #Invasion speed 50%
				amphibious_invasion_defence = 0.50 #Defence on invasion (in sea)
				naval_invasion_capacity = 6 #capacity

				supply_consumption_factor = -0.20
			}
		}

		USA_husky_failed = {
			removal_cost = -1
			allowed = {
				always = no # Unlocked via focus
			}

			allowed_civil_war = {
				always = yes
			}

			picture = generic_morale_bonus



			modifier = {
				army_morale_factor = -0.05
				war_support_factor = -0.05

				invasion_preparation = 0.25 #+25% invasion prep time
			}
		}

		USA_counter_husky_enemy = {
			removal_cost = -1
			allowed = {
				always = no # Unlocked via focus
			}

			allowed_civil_war = {
				always = yes
			}

			picture = generic_morale_bonus


			modifier = {
				army_morale_factor = -0.10
			}
		}

		generic_neutral_country = {
			allowed = { always = yes }
			removal_cost = -1
			picture = generic_goods_red_bonus
			modifier = {
				drift_defence_factor = 2.0
				enemy_justify_war_goal_time = 5.0
				join_faction_tension = 2.00
				#lend_lease_tension = 2.00
				send_volunteers_tension = 2.00
				guarantee_tension = 2.0
				ai_badass_factor = 0.01    # Will receive 1% of the threat from others
				ai_get_ally_desire_factor = -200
				political_power_factor = -2.00
				consumer_goods_factor = 1.00
			}
		}

		annex_canada_idea = {
			allowed = { always = yes }
			removal_cost = -1
			picture = generic_goods_red_bonus
			modifier = {
				stability_factor = -0.10
				industrial_capacity_factory = -0.075
			}
		}

		annex_bulgaria_idea = {
			allowed = { always = yes }
			removal_cost = -1
			picture = generic_goods_red_bonus
			modifier = {
				stability_factor = -0.05
				industrial_capacity_factory = -0.03
			}
		}

		annex_hungary_idea = {
			allowed = { always = yes }
			removal_cost = -1
			picture = generic_goods_red_bonus
			modifier = {
				stability_factor = -0.05
				industrial_capacity_factory = -0.05
			}
		}

		annex_romania_idea = {
			allowed = { always = yes }
			removal_cost = -1
			picture = generic_goods_red_bonus
			modifier = {
				stability_factor = -0.05
				industrial_capacity_factory = -0.05
			}
		}

		baltics_debuff = {
			allowed = { always = yes }
			removal_cost = -1
			picture = generic_goods_red_bonus
			modifier = {
				enemy_justify_war_goal_time = 5.0
				join_faction_tension = 2.00
				send_volunteers_tension = 2.00
				guarantee_tension = 2.0
				ai_get_ally_desire_factor = -200
				political_power_factor = -2.00
				production_speed_arms_factory_factor = -0.80
				production_speed_industrial_complex_factor = -0.80
                research_speed_factor = -1000
			}
		}

		JFU_generic_bonus_research = {

			picture = generic_air_research

			research_bonus = {
				air_equipment = 0.15
			}

			modifier = {
				land_doctrine_cost_factor = -0.15
			}
		}

		JFU_generic_refinery_and_army_recovery = {

			picture = generic_infantry_bonus

			modifier = {
				production_speed_synthetic_refinery_factor = 0.10
				army_morale_factor = 0.05
			}
		}

		debt_paid = {
			picture = generic_goods_red_bonus

			modifier = {
				consumer_goods_factor = -0.07
			}
		}

		GER_payment = {
			picture = generic_goods_red_bonus

			modifier = {
				consumer_goods_factor = 0.07
			}
		}
	}
}
