focus_tree = {
	id = usa_focus

	country = {
		factor = 0

		modifier = {
			add = 10
			original_tag = USA
		}
	}
	continuous_focus_position = { x = 50 y = 1600 }
	default = no
#	focus = {
#		id = USA_
#		#icon = GFX_
#		prerequisite = { focus = }
#		mutually_exclusive = { focus =  }
#		x = -3
#		y = 0
#		relative_position_id =
#
#		cost = 70
#
#		ai_will_do = {
#			factor = 1
#		}
#
#		available = {
#
#		}
#
#		bypass = {
#
#		}
#
#		cancel_if_invalid = yes
#		continue_if_invalid = no
#		available_if_capitulated = no
#
#		complete_tooltip = {
#
#		}
#
#		completion_reward = {
#
#		}
#	}

	focus = {
		id = USA_continue_the_new_deal
		icon = GFX_focus_generic_self_management

		x = -12
		y = 0

		mutually_exclusive = { focus = USA_reestablish_the_gold_standard }
		cost = 45

		ai_will_do = {
			factor = 1
		}

		cancel_if_invalid = yes
		continue_if_invalid = no
		available_if_capitulated = no

		completion_reward = {
			add_political_power = 150
		}
	}

   	focus = {
   		id = USA_wpa
   		icon = GFX_goal_generic_production
   		prerequisite = { focus = USA_continue_the_new_deal }
   		relative_position_id = USA_continue_the_new_deal
   		x = -3
   		y = 1
   		cost = 70
   		#ai_will_do = {
   		#	factor = 1
   		#}

		available = {
			threat > 0.10
		}

   		available_if_capitulated = yes

   		completion_reward = {
   			add_political_power = 150
	        swap_ideas = {
	            remove_idea = great_depression
	            add_idea = great_depression_2
	        }
   		}
   	}
   	focus = {
   		id = USA_agricultural_adjustment_act
   		icon = GFX_goal_generic_consumer_goods
   		x = 0
   		y = 1
   		prerequisite = { focus = USA_wpa }
   		relative_position_id = USA_wpa
   		cost = 70

   		ai_will_do = {
   			factor = 1
   		}

		available = {
			threat > 0.15
		}

   		bypass = {
   			not = {
   				OR = {
   					has_idea = great_depression
   					has_idea = great_depression_2
   					has_idea = great_depression_3
   				}
   			}
   		}

   		cancel_if_invalid = no
   		continue_if_invalid = yes
   		available_if_capitulated = no

   		completion_reward = {
	        swap_ideas = {
	            remove_idea = great_depression_2
	            add_idea = great_depression_3
	        }
   		}
   	}
	focus = {
		id = USA_reach_out_to_the_ware_group
		icon = GFX_goal_generic_propaganda
		x = -2
		y = 1
		prerequisite = { focus = USA_agricultural_adjustment_act }
		relative_position_id = USA_agricultural_adjustment_act
		cost = 45

		ai_will_do = {
			factor = 1
		}

		available = {
			not = {
				has_government = communism
			}
		}

		cancel_if_invalid = yes
		continue_if_invalid = no
		available_if_capitulated = no

		completion_reward = {
			custom_effect_tooltip = available_political_advisor
			show_ideas_tooltip = harry_white
			custom_effect_tooltip = available_political_advisor
			show_ideas_tooltip = victor_perlo
			custom_effect_tooltip = available_political_advisor
			show_ideas_tooltip = whittaker_chambers
		}
	}
   	focus = {
   		id = USA_fair_labour_standards_act
   		icon = GFX_focus_eng_concessions_to_the_trade_unions
   		x = 0
   		y = 2
   		prerequisite = { focus = USA_agricultural_adjustment_act }
   		relative_position_id = USA_wpa
   		cost = 45

   		ai_will_do = {
   			factor = 1
   		}

		available = {
			threat > 0.20
		}

   		bypass = {
   			not = {
   				OR = {
   					has_idea = great_depression
   					has_idea = great_depression_2
   					has_idea = great_depression_3
   				}
   			}
   		}

   		cancel_if_invalid = no
   		continue_if_invalid = yes
   		available_if_capitulated = no

   		completion_reward = {
	        remove_ideas = great_depression_3
   		}
   	}
   	focus = {
   		id = USA_federal_housing_act
   		icon = GFX_goal_generic_construct_civilian
   		x = 0
   		y = 3
   		prerequisite = { focus = USA_fair_labour_standards_act }
   		relative_position_id = USA_wpa
   		cost = 20

   		ai_will_do = {
   			factor = 1
   		}

   		cancel_if_invalid = no
   		continue_if_invalid = yes
   		available_if_capitulated = no
   		complete_tooltip = {
			1072 = { add_extra_state_shared_building_slots = 10 }
			801 = { add_extra_state_shared_building_slots = 10 }
			1081 = { add_extra_state_shared_building_slots = 10 }
   		}
   		completion_reward = {
			1072 = { add_extra_state_shared_building_slots = 10 }
			801 = { add_extra_state_shared_building_slots = 10 }
			1081 = { add_extra_state_shared_building_slots = 10 }
   		}
   	}
   	focus = {
   		id = USA_office_of_scientific_research_and_development
   		icon = GFX_focus_research
   		x = -2
   		y = 1
   		prerequisite = { focus = USA_wpa }
   		relative_position_id = USA_wpa
   		cost = 70

   		ai_will_do = {
   			factor = 1
   		}

   		cancel_if_invalid = yes
   		continue_if_invalid = no
   		available_if_capitulated = no

   		completion_reward = {
   			add_research_slot = 1
   		}
   	}
	focus = {
		id = USA_reestablish_the_gold_standard
		icon = GFX_focus_usa_reestablish_the_gold_standard
		x = 4
		y = 0
		relative_position_id = USA_continue_the_new_deal
		cost = 45

		ai_will_do = {
			factor = 1
		}
		mutually_exclusive = { focus = USA_continue_the_new_deal }
		available = {
			has_government = democratic
			NOT = {
				has_country_leader = { ruling_only = yes character = USA_franklin_delano_roosevelt }
			}

			is_mp = no
		}

		bypass = {

		}

		cancel_if_invalid = yes
		continue_if_invalid = no
		available_if_capitulated = no
		search_filters = {FOCUS_FILTER_INDUSTRY FOCUS_FILTER_STABILITY FOCUS_FILTER_USA_CONGRESS}
		completion_reward = {
			add_ideas = USA_gold_standard
		}
	}

	focus = {
		id = USA_limited_intervention
		icon = GFX_goal_generic_territory_or_war
		prerequisite = { focus = USA_continue_the_new_deal focus = USA_reestablish_the_gold_standard }
		mutually_exclusive = { focus = USA_neutrality_act }
		continue_if_invalid = yes
		x = -1
		y = 1
		relative_position_id = USA_continue_the_new_deal
		cost = 45
		#ai_will_do = {
		#	factor = 1
		#}

		available_if_capitulated = no
		cancel_if_invalid = no
		continue_if_invalid = yes
		available = {
			has_war_support > 0.2
			has_government = democratic
			NOT = { has_idea_with_trait = fascist_demagogue }
			NOT = { has_idea_with_trait = communist_revolutionary }
			is_mp = no
		}
		bypass = {

		}
		search_filters = {FOCUS_FILTER_USA_CONGRESS}
		completion_reward = {
			hidden_effect = {
				every_other_country = {
					limit = {
						is_major = yes
						has_government = ROOT
					}
					ROOT = {
						add_ai_strategy = {
							type = support
							id = PREV
							value = 200
						}
						add_ai_strategy = {
							type = alliance
							id = PREV
							value = 200
						}
					}
				}
			}
			set_rule = { can_send_volunteers = yes }
			add_ideas = USA_limited_intervention
			if = {
				limit = {
					has_war_support < 0.4
					has_war_support > 0.2
				}
				add_stability = -0.1
			}
			else_if = {
				limit = {
					has_war_support < 0.2
				}
				add_stability = -0.2
			}
			custom_effect_tooltip = USA_limited_intervention_tt
			hidden_effect = {
				news_event = { id = mtg_news.4 days = 3 }
			}
		}
	}

	focus = {
		id = USA_war_propaganda
		icon = GFX_goal_generic_propaganda
		prerequisite = { focus = USA_limited_intervention }
		available = {
			has_government = democratic
		}

		bypass = {

		}

		available_if_capitulated = yes
		relative_position_id = USA_limited_intervention
		continue_if_invalid = yes
		x = 0
		y = 2
		cost = 45
		#ai_will_do = {
		#	factor = 1
		#}
		search_filters = {FOCUS_FILTER_WAR_SUPPORT FOCUS_FILTER_USA_CONGRESS}
		completion_reward = {
			add_war_support = 0.1
		}
	}
	focus = {
		id = USA_focus_on_europe
		icon = GFX_focus_usa_focus_on_europe
		x = 0
		y = 1
		prerequisite = { focus = USA_war_propaganda }
		relative_position_id = USA_war_propaganda
		cost = 45

		ai_will_do = {
			factor = 1
		}

		available = {
			has_government = democratic
		}

		bypass = {
			OR = {
				has_war_with = GER
				has_war_with = ENG
				has_war_with = FRA
			}
		}

		cancel_if_invalid = yes
		continue_if_invalid = no
		available_if_capitulated = no

		completion_reward = {
			unlock_decision_category_tooltip = USA_intervention_mandate
			custom_effect_tooltip = USA_intervention_mandate_tt
			hidden_effect = {
				every_other_country = {
					limit = {
						is_major = yes
						capital_scope = {
							is_on_continent = europe
						}
						not = { has_government = ROOT }
					}
					ROOT = {
						add_ai_strategy = {
							type = contain
							id = PREV
							value = 200
						}
					}
				}
			}
		}
	}
	focus = {
		id = USA_office_of_strategic_services
		icon = GFX_goal_generic_major_war
		prerequisite = { focus = USA_focus_on_europe }
		available = {

		}
		x = 0
		y = 1
		relative_position_id = USA_focus_on_europe
		cost = 35
		ai_will_do = {
			factor = 1
		}
		available_if_capitulated = yes
		search_filters = {FOCUS_FILTER_RESEARCH}
		completion_reward = {
			if = {
				limit = {
					NOT = {
						has_dlc = "La Resistance"
					}
				}
				add_ideas = office_of_strategic_services
			}
			else = {
				add_ideas = office_of_strategic_services_lar
			}
		}
	}
	focus = {
		id = USA_black_chamber
		icon = GFX_goal_generic_military_deal
		prerequisite = { focus = USA_office_of_strategic_services}
		available = { }
		x = 1
		y = 3
		relative_position_id = USA_war_propaganda
		cost = 35
		ai_will_do = {
			factor = 1
		}
		search_filters = {FOCUS_FILTER_RESEARCH}
		completion_reward = {
			if = {
				limit = {
					NOT = {
						has_dlc = "La Resistance"
					}
				}
				add_tech_bonus = {
					name = USA_black_chamber
					bonus = 1.0
					uses = 2
					category = encryption_tech
					category = decryption_tech
				}
			}
			else = {
				add_ideas = USA_black_chamber
			}
		}
	}

	focus = {
		id = USA_neutrality_act
		icon = GFX_goal_generic_neutrality_focus
		x = 1
		y = 1
		prerequisite = { focus = USA_continue_the_new_deal focus = USA_reestablish_the_gold_standard }
		relative_position_id = USA_reestablish_the_gold_standard
		mutually_exclusive = { focus = USA_limited_intervention }
		cost = 45

		ai_will_do = {
			factor = 1
		}

		cancel_if_invalid = no
		continue_if_invalid = yes
		available_if_capitulated = no

		completion_reward = {
			add_political_power = 100
			add_ideas = USA_neutrality_act
			add_war_support = -0.05
		}
	}


   	focus = {
   		id = USA_rubber_reserve_company
   		icon = GFX_focus_generic_rubber
   		prerequisite = { focus = USA_neutrality_act focus = USA_limited_intervention }
   		available = {

   		}
   		x = -2
   		y = 1
   		relative_position_id = USA_neutrality_act
   		cost = 60
		available = {
			date > 1940.6.1
		}
   		completion_reward = {
   			add_tech_bonus = {
   				name = USA_rubber_reserve_company
   				bonus = 2
   				uses = 4
   				technology = rubber_processing
   				technology = improved_rubber_processing
   				technology = advanced_rubber_processing
   				technology = modern_rubber_processing
   			}
   		}
   	}

	focus = {
		id = USA_regulate_peoples_intake
		icon = GFX_focus_regulate_intake
		x = 0
		y = 3
		cost = 60

		available = {
			has_war = yes
		}

		relative_position_id = USA_rubber_reserve_company
		prerequisite = { focus = USA_rubber_reserve_company }

		available_if_capitulated = yes

		completion_reward = {
			add_ideas = USA_regulate_peoples_intake_idea
		}
	}

	focus = {
		id = USA_disband_war_relocation_authority
		icon = GFX_focus_wra
		x = -1
		y = 1
		cost = 45

		available = {
			has_war = yes
		}

		relative_position_id = USA_rubber_reserve_company
		prerequisite = { focus = USA_rubber_reserve_company }

		available_if_capitulated = yes

		completion_reward = {
			add_stability = -0.05
			add_war_support = 0.15
		}
	}

	focus = {
		id = USA_arsenal_of_democracy
		icon = GFX_goal_support_democracy
		prerequisite = { focus = USA_neutrality_act }
		x = 0
		y = 2
		relative_position_id = USA_neutrality_act
		cost = 100
		ai_will_do = {
			factor = 1
		}
		available = {
			threat > 0.05
		}
		complete_tooltip = {
			if = {
				limit = { has_idea = undisturbed_isolation }
				add_ideas = isolation
			}
			air_experience = 50
			navy_experience = 50
			army_experience = 10
			1072 = {
				add_extra_state_shared_building_slots = 2
				add_building_construction = { type = arms_factory level = 2 instant_build = yes }
			}
			802 = {
				add_extra_state_shared_building_slots = 2
				add_building_construction = { type = arms_factory level = 2 instant_build = yes }
			}
			803 = {
				add_extra_state_shared_building_slots = 2
				add_building_construction = { type = arms_factory level = 2 instant_build = yes }
			}
		}
		completion_reward = {
			if = {
				limit = { has_idea = undisturbed_isolation }
				add_ideas = isolation
			}
			navy_experience = 50
			army_experience = 50
			air_experience = 10
			1072 = {
				add_extra_state_shared_building_slots = 4
				add_building_construction = { type = arms_factory level = 2 instant_build = yes }
				add_building_construction = { type = dockyard level = 2 instant_build = yes }
			}
			802 = {
				add_extra_state_shared_building_slots = 2
				add_building_construction = { type = arms_factory level = 2 instant_build = yes }
			}
			803 = {
				add_extra_state_shared_building_slots = 4
				add_building_construction = { type = arms_factory level = 2 instant_build = yes }
				add_building_construction = { type = dockyard level = 2 instant_build = yes }
			}
		}
	}

	focus = {
		id = USA_scientist_haven
		icon = GFX_focus_research
		prerequisite = { focus = USA_arsenal_of_democracy focus = USA_black_chamber }
		x = -3
		y = 4
		cost = 70
		#ai_will_do = {
		#	factor = 1
		#}

		relative_position_id = USA_arsenal_of_democracy

		available_if_capitulated = yes
		completion_reward = {
			add_research_slot = 1
		}
	}
	focus = {
		id = USA_manhattan_project
		icon = GFX_focus_wonderweapons
		prerequisite = { focus = USA_scientist_haven }

		x = 0
		y = 1
		relative_position_id = USA_scientist_haven
		cost = 70
		#ai_will_do = {
		#	factor = 1
		#}

		available_if_capitulated = yes

		completion_reward = {
			add_tech_bonus = {
				name = USA_manhattan_project
				bonus = 2.0
				uses = 2
				category = nuclear
			}
			add_to_variable = { nuclear_research_var = 25 tooltip = add_to_nuclear_research_var_tt }
		}
	}
	focus = {
		id = USA_institute_of_american_sciences
		icon = GFX_focus_research
		x = 0
		y = 1
		prerequisite = { focus = USA_manhattan_project }
		relative_position_id = USA_manhattan_project
		cost = 70

		ai_will_do = {
			factor = 1
		}

		available = {
			has_war = yes
		}

		bypass = {

		}

		cancel_if_invalid = yes
		continue_if_invalid = no
		available_if_capitulated = no
		search_filters = {FOCUS_FILTER_RESEARCH}
		completion_reward = {
			add_research_slot = 1
		}
	}
	focus = {
		id = USA_the_giant_wakes
		icon = GFX_goal_generic_construct_civ_factory
		prerequisite = { focus = USA_arsenal_of_democracy }
		available = {
			threat > 0.30
		}
		continue_if_invalid = yes
		x = 0
		y = 2
		relative_position_id = USA_arsenal_of_democracy
		cost = 100
		ai_will_do = {
			factor = 1
		}

		available_if_capitulated = yes

		bypass = {
			has_idea = USA_homeland_defense
		}

		completion_reward = {
			add_ideas = war_bonds_focus
			1078 = {
				add_extra_state_shared_building_slots = 3
				add_building_construction = { type = industrial_complex level = 3 instant_build = yes }
			}
			1088 = {
				add_extra_state_shared_building_slots = 3
				add_building_construction = { type = industrial_complex level = 3 instant_build = yes }
			}
			1072 = {
				add_extra_state_shared_building_slots = 3
				add_building_construction = { type = industrial_complex level = 3 instant_build = yes }
			}
		}
	}
	focus = {
		id = USA_wartime_industry
		icon = GFX_goal_generic_construct_mil_factory
		prerequisite = { focus = USA_the_giant_wakes }
		x = 0
		y = 2
		relative_position_id = USA_the_giant_wakes
		cost = 100
		ai_will_do = {
			factor = 1
		}
		available_if_capitulated = yes
		available = {
			has_war = yes
		}
		completion_reward = {
			add_ideas = wartime_industry_focus_us
			custom_effect_tooltip = available_designer
			show_ideas_tooltip = USA_general_motors
			1072 = {
				add_extra_state_shared_building_slots = 3
				add_building_construction = { type = arms_factory level = 5 instant_build = yes }
			}
			1076 = {
				add_extra_state_shared_building_slots = 3
				add_building_construction = { type = arms_factory level = 5 instant_build = yes }
			}
			1061 = {
				add_extra_state_shared_building_slots = 3
				add_building_construction = { type = arms_factory level = 5 instant_build = yes }
			}
		}
	}


	focus = {
		id = USA_military_construction
		icon = GFX_goal_generic_build_tank
		prerequisite = { focus = USA_arsenal_of_democracy }

		available = {
			threat > 0.15
		}

		continue_if_invalid = yes
		available_if_capitulated = yes

		x = 1
		y = 1
		relative_position_id = USA_arsenal_of_democracy
		cost = 45
		#ai_will_do = {
		#	factor = 1
		#}
		completion_reward = {
			army_experience = 10
			add_ideas = USA_production_bonus
		}
	}

	focus = {
		id = USA_USACE_projects
		icon = GFX_goal_generic_production
		prerequisite = { focus = USA_military_construction }
		available = {
			threat > 0.20
		}

		continue_if_invalid = yes

		x = 0
		y = 2
		relative_position_id = USA_military_construction
		cost = 35
		#ai_will_do = {
		#	factor = 1
		#}
		complete_tooltip = {
			803 = { add_building_construction = { type = infrastructure level = 1 instant_build = yes } }
			802 = { add_building_construction = { type = infrastructure level = 1 instant_build = yes } }
			1072 = { add_building_construction = { type = infrastructure level = 1 instant_build = yes } }
		}
		completion_reward = {
			803 = { add_building_construction = { type = infrastructure level = 1 instant_build = yes } }
			802 = { add_building_construction = { type = infrastructure level = 1 instant_build = yes } }
			1072 = { add_building_construction = { type = infrastructure level = 1 instant_build = yes } }
			air_experience = 50
			navy_experience = 50
			army_experience = 10
		}
	}
	focus = {
		id = USA_adjusted_compensation_act
		icon = GFX_goal_generic_consumer_goods
		x = 3
		y = 1
		prerequisite = { focus = USA_reestablish_the_gold_standard }
		relative_position_id = USA_reestablish_the_gold_standard
		cost = 45

		ai_will_do = {
			factor = 1
		}

		cancel_if_invalid = no
		continue_if_invalid = yes
		available_if_capitulated = no
		search_filters = {FOCUS_FILTER_INDUSTRY FOCUS_FILTER_MANPOWER FOCUS_FILTER_USA_CONGRESS}
		completion_reward = {
			add_timed_idea = { idea = USA_adjusted_compensation_payment days = 180 }
			USA_great_depression_level_down = yes
		}
	}
	focus = {
		id = USA_labour_management_relations_act
		icon = GFX_focus_generic_military_academy
		x = 0
		y = 1
		prerequisite = { focus = USA_adjusted_compensation_act }
		relative_position_id = USA_adjusted_compensation_act
		cost = 35

		ai_will_do = {
			factor = 1
		}

		cancel_if_invalid = no
		continue_if_invalid = yes
		available_if_capitulated = no
		search_filters = {FOCUS_FILTER_INDUSTRY FOCUS_FILTER_USA_CONGRESS}
		completion_reward = {
			add_ideas = USA_labour_management_relations_act
		}
	}
	focus = {
		id = USA_protectionist_tariffs
		icon = GFX_goal_generic_defence
		x = 0
		y = 2
		prerequisite = { focus = USA_labour_management_relations_act }
		relative_position_id = USA_adjusted_compensation_act
		cost = 45

		ai_will_do = {
			factor = 1
		}

		available = {

		}

		bypass = {

		}

		cancel_if_invalid = yes
		continue_if_invalid = no
		available_if_capitulated = no
		search_filters = {FOCUS_FILTER_INDUSTRY FOCUS_FILTER_MANPOWER}
		completion_reward = {
			USA_great_depression_level_down = yes
			if = {
				limit = {
					has_idea = free_trade
				}
				add_ideas = export_focus
			}
		}
	}
	focus = {
		id = USA_income_tax_reform
		icon = GFX_goal_generic_intelligence_exchange
		x = 0
		y = 4
		prerequisite = { focus = USA_protectionist_tariffs }
		relative_position_id = USA_adjusted_compensation_act
		cost = 45

		ai_will_do = {
			factor = 1
		}
		cancel_if_invalid = no
		continue_if_invalid = yes
		available_if_capitulated = no
		search_filters = {FOCUS_FILTER_INDUSTRY FOCUS_FILTER_MANPOWER FOCUS_FILTER_USA_CONGRESS}
		completion_reward = {
			USA_great_depression_level_down = yes
		}
	}

 	focus = {
		id = USA_war_plans_division
		icon = GFX_goal_generic_position_armies
		x = 12
		y = 0
		relative_position_id = USA_continue_the_new_deal

		cost = 35

		ai_will_do = {
			factor = 1
		}

		cancel_if_invalid = yes
		continue_if_invalid = no
		available_if_capitulated = no

		completion_reward = {
			custom_effect_tooltip = available_chief_of_army
			show_ideas_tooltip = walter_krueger
			unlock_decision_category_tooltip = USA_war_plans
		}
	}
	focus = {
		id = USA_intervention_in_europe
		icon = GFX_goal_generic_territory_or_war
		x = 0
		y = 1
		prerequisite = { focus = USA_war_plans_division }
		relative_position_id = USA_war_plans_division
		cost = 30

		ai_will_do = {
			factor = 1
		}

		cancel_if_invalid = yes
		continue_if_invalid = no
		available_if_capitulated = no

		completion_reward = {
			add_ideas = USA_intervention_in_europe
		}
	}

	focus = {
		id = USA_vichy_ultimatum
		icon = GFX_goal_generic_position_armies
		x = 2
		y = 1
		cost = 35

		available = {
			tag = USA
			country_exists = EFR
			is_in_faction_with = ENG
		}

		prerequisite = { focus = USA_intervention_in_europe }
		relative_position_id = USA_intervention_in_europe

		completion_reward = {
			country_event = { days = 1 id = vichy.1 }
			custom_effect_tooltip = USA_operation_torch_effect_1
			hidden_effect = {
				if = {
					limit = { NOT = { USA = { has_tech = mechanised_infantry } } }
					USA = { set_technology = { mechanised_infantry = 1 }	}
				}
				if = {
					limit = { NOT = { USA = { has_tech = basic_medium_tank_chassis } } }
					USA = { set_technology = { basic_medium_tank_chassis = 1 }	}
				}
				if = {
					limit = { NOT = { ENG = { has_tech = basic_medium_tank_chassis } } }
					ENG = { set_technology = { basic_medium_tank_chassis = 1 }	}
				}
				if = {
					limit = { NOT = { ENG = { has_tech = basic_heavy_tank_chassis } } }
					ENG = { set_technology = { basic_heavy_tank_chassis = 1 }	}
				}
				# TODO_PV
				# if = {
				# 	limit = { NOT = { ENG = { has_tech = basic_medium_art } } }
				# 	ENG = { set_technology = { basic_medium_art = 1 }	}
				# }
			}
			hidden_effect = {
				load_oob = USA_Torch_historical
				ENG = { load_oob = ENG_Torch_historical }
			}
		}
	}

	focus = {
		id = USA_operation_torch
		icon = GFX_goal_generic_position_armies
		prerequisite = { focus = USA_vichy_ultimatum }
		relative_position_id = USA_vichy_ultimatum
		x = 0
		y = 2
		cost = 35

		completion_reward = {
			declare_war_on = { target = EFR type = annex_everything }
			hidden_effect = {
				if = {
					limit = { EFR = { NOT = { is_subject_of = GER } } }
					GER = { puppet = EFR }
				}
				load_oob = USA_torch
				if = {
					limit = {
						NOT = {
							ENG = {
								has_country_flag = french_navy_attacked
							}
						}
					}
					GER = {
						load_oob = "EFR_fleet"
					}
				}
			}
			custom_effect_tooltip = USA_operation_torch_effect_3
		}
	}

	focus = {
		id = USA_operation_husky_preparations
		icon = GFX_goal_generic_position_armies
		prerequisite = { focus = USA_intervention_in_europe }
		x = 3
		y = 2
		cost = 35

		relative_position_id = USA_intervention_in_europe

		available = {
			718 = { CONTROLLER = { is_in_faction_with = ENG } }
			has_war_with = ITA
			690 = { is_fully_controlled_by = ITA }
			date > 1942.1.1
		}

		completion_reward = {
			country_event = { id = DSFU_event.8 }
			ENG = { country_event = { id = DSFU_event.9 } }
		}
	}

	focus = {
		id = USA_operation_husky
		icon = GFX_goal_generic_position_armies
		prerequisite = { focus = USA_operation_husky_preparations }
		x = 0
		y = 2
		cost = 35

		relative_position_id = USA_operation_husky_preparations
		available = {
			718 = { CONTROLLER = { is_in_faction_with = ENG } }
			690 = { is_fully_controlled_by = ITA }
		}

		completion_reward = {
			unlock_decision_tooltip = USA_operation_husky
			custom_effect_tooltip = empty_line

			add_ideas = USA_husky
			custom_effect_tooltip = empty_line

			event_target:operation_husky_commonwealth = { add_ideas = USA_husky }
			690 = { add_attack_operation = yes }
		}
	}
	focus = {
		id = USA_war_plan_silver
		icon = GFX_focus_attack_italy
		x = -2
		y = 1
		prerequisite = { focus = USA_intervention_in_europe }
		mutually_exclusive = { }
		relative_position_id = USA_intervention_in_europe
		cost = 35

		ai_will_do = {
			factor = 1
		}

		cancel_if_invalid = yes
		continue_if_invalid = no
		available_if_capitulated = no

		completion_reward = {
			unlock_decision_tooltip = { decision = USA_execute_war_plan_silver show_effect_tooltip = yes show_modifiers = yes }
		}
	}
	focus = {
		id = USA_war_plan_black
		icon = GFX_focus_attack_germany
		prerequisite = { focus = USA_intervention_in_europe }

		continue_if_invalid = yes
		available_if_capitulated = yes

		x = -1
		y = 2
		relative_position_id = USA_intervention_in_europe
		cost = 35
		#ai_will_do = {
		#	factor = 1
		#}
		completion_reward = {
			GER = {
				add_opinion_modifier = { target = USA modifier = war_plan_black }
			}
			unlock_decision_tooltip = { decision = USA_execute_war_plan_black show_effect_tooltip = yes show_modifiers = yes }
		}
	}

	focus = {
		id = USA_lend_lease_act
		icon = GFX_focus_lend_lease
		x = 2
		y = 1
		prerequisite = { focus = USA_limited_intervention focus = USA_neutrality_act }
		relative_position_id = USA_limited_intervention
		cost = 70

		ai_will_do = {
			factor = 1
		}
		available = {
			custom_trigger_tooltip = {
				tooltip = focus_not_implemented_yet
				always = no
			}
		}

		cancel_if_invalid = no
		continue_if_invalid = yes
		available_if_capitulated = no

		completion_reward = {
			#TODO lend lease activation of idea
		}
	}

	focus = {
		id = USA_lend_soviet
		icon = GFX_goal_generic_positive_trade_relations
		prerequisite = { focus = USA_lend_lease_act }
		available = {
			is_puppet = no
			has_war_with = GER
			SOV = { has_war_with = GER }
		}
		x = 0
		y = 2
		cost = 35
		relative_position_id = USA_lend_lease_act
		ai_will_do = {
			factor = 10
		}
		completion_reward = {
			#TODO ticker buff
			# custom_effect_tooltip = increase_ticker_soviet_tt
			# add_timed_idea = { idea = lend_lease_soviet days = 120 }
		}
	}


	focus = {
		id = USA_destroyers_for_bases
		icon = GFX_goal_generic_navy_cruiser
		prerequisite = { focus = USA_intervention_in_europe }
		available = {
			country_exists = GER
			is_subject = no
			ENG = {
				NOT = { is_in_faction_with = GER }
			}
			ENG = {
				has_government = ROOT
				has_war = yes
				any_enemy_country = {
					is_major = yes
				}
			}
		}
		bypass = {
			NOT = { 696 = { is_controlled_by = ENG } }
			NOT = { 331 = { is_controlled_by = ENG } }
			NOT = { 308 = { is_controlled_by = ENG } }
			NOT = { 693 = { is_controlled_by = ENG } }
			NOT = { 689 = { is_controlled_by = ENG } }
			NOT = { 691 = { is_controlled_by = ENG } }
			ENG = { exists = no }
		}

		x = 0
		y = 1
		relative_position_id = USA_intervention_in_europe
		cost = 45
		#ai_will_do = {
		#	factor = 1
		#}
		completion_reward = {

			effect_tooltip = {
				custom_effect_tooltip = USA_destroyers_for_bases_tt
				transfer_state = 805
			}

			hidden_effect = {
				ENG = {	load_oob = "ENG_destroyers_for_bases_mtg" }
				CAN = { load_oob = "CAN_destroyers_for_bases_mtg" }

				ENG = {
					add_opinion_modifier = {
						target = ROOT
						modifier = destroyers_for_bases_opinion
					}
				}
			}

			ENG = {
				country_event = { id = usa.4 days = 1 }
			}

			USA = {
				if = { limit = { 805 = { is_controlled_by = ENG } }
					transfer_state = 805
				}
			}
		}
	}

#   #  ##  ###      ###  ### ###   ##  ###  ### #   # ### #  # ###
#   # #  # #  #     #  # #   #  # #  # #  #  #  ## ## #   ## #  #
# # # #### ###      #  # ##  ###  #### ###   #  # # # ##  # ##  #
# # # #  # #  #     #  # #   #    #  # #  #  #  #   # #   #  #  #
 # #  #  # #  #     ###  ### #    #  # #  #  #  #   # ### #  #  #


	focus = {
		id = USA_war_department
		icon = GFX_goal_generic_army_doctrines
		x = 14
		y = 0
		relative_position_id = USA_war_plans_division
		cost = 35

		ai_will_do = {
			factor = 1
		}

		cancel_if_invalid = yes
		continue_if_invalid = no
		available_if_capitulated = no

		completion_reward = {
			add_ideas = USA_war_department
		}
	}
	focus = {
		id = USA_selective_training_act
		icon = GFX_focus_generic_military_mission
		x = -4
		y = 1
		prerequisite = { focus = USA_war_department }
		relative_position_id = USA_war_department
		cost = 45

		ai_will_do = {
			factor = 1
		}

		cancel_if_invalid = no
		continue_if_invalid = yes
		available_if_capitulated = no

		completion_reward = {
			add_political_power = 100
			if = {
				limit = {
					has_war_support < 0.1
				}
				set_war_support = 0.1
			}
			else = {
				add_war_support = 0.05
			}
		}
	}
	focus = {
		id = USA_first_special_service_force
		icon = GFX_goal_generic_special_forces
		prerequisite = { focus = USA_selective_training_act }
		x = -3
		y = 1
		relative_position_id = USA_selective_training_act
		cost = 30
		ai_will_do = {
			factor = 1
		}

		available_if_capitulated = yes

		completion_reward = {
			army_experience = 5
			add_tech_bonus = {
				name = special_bonus
				bonus = 1.0
				uses = 1
				technology = paratroopers
				technology = paratroopers2
				technology = marines
				technology = marines2
				technology = tech_engineers
				technology = tech_engineers2
				technology = tech_engineers3
				technology = tech_recon
				technology = tech_recon2
				technology = tech_recon3
			}
		}
	}
	focus = {
		id = USA_louisiana_maneuvers
		icon = GFX_goal_generic_cavalry
		x = 0
		y = 1
		prerequisite = { focus = USA_selective_training_act }
		relative_position_id = USA_selective_training_act
		cost = 35

		ai_will_do = {
			factor = 1
		}

		cancel_if_invalid = yes
		continue_if_invalid = no
		available_if_capitulated = no

		completion_reward = {
			army_experience = 20
			add_doctrine_cost_reduction = {
				name = USA_louisiana_maneuvers
				cost_reduction = 0.5
				uses = 1
				category = land_doctrine
			}
		}
	}
	focus = {
		id = USA_airborne_divisions
		icon = GFX_focus_generic_paratrooper
		x = 1
		y = 1
		prerequisite = { focus = USA_first_special_service_force }
		relative_position_id = USA_first_special_service_force
		cost = 45

		ai_will_do = {
			factor = 1
		}

		cancel_if_invalid = yes
		continue_if_invalid = no
		available_if_capitulated = no

		completion_reward = {
			add_ideas = USA_airborne_divisions

			custom_effect_tooltip = USA_load_paratroopers_tt
			hidden_effect = {
				if = {
					limit = { NOT = { has_tech = paratroopers } }
					set_technology = { paratroopers = 1 }
				}
				else_if = {
					limit = { NOT = { has_tech = paratroopers2 } }
					set_technology = { paratroopers2 = 1 }
				}
				else_if = {
					limit = { NOT = { has_tech = paratroopers3 } }
					set_technology = { paratroopers3 = 1 }
				}
			}
			add_equipment_to_stockpile = { type = transport_plane_equipment_1 amount = 25 producer = USA }
		}
	}
	focus = {
		id = USA_army_of_the_united_states
		icon = GFX_focus_generic_little_entente
		x = 0
		y = 2
		prerequisite = { focus = USA_louisiana_maneuvers }
		relative_position_id = USA_selective_training_act
		cost = 35

		ai_will_do = {
			factor = 1
		}

		cancel_if_invalid = yes
		continue_if_invalid = no
		available_if_capitulated = no

		completion_reward = {
			add_ideas = USA_army_of_the_united_states
		}
	}
	focus = {
		id = USA_womens_armed_service_integration_act
		icon = GFX_focus_generic_treaty
		x = -1
		y = 3
		prerequisite = { focus = USA_army_of_the_united_states }
		relative_position_id = USA_selective_training_act
		cost = 45

		ai_will_do = {
			factor = 1
		}

		cancel_if_invalid = yes
		continue_if_invalid = no
		available_if_capitulated = no

		completion_reward = {
			add_stability = -0.05
			add_ideas = USA_womens_armed_service_integration_act
		}
	}

	focus = {
		id = USA_desegregate_the_armed_forces
		icon = GFX_focus_desegregate_army
		x = 0
		y = 2
		cost = 45

		ai_will_do = {
			factor = 1
		}

		available = {
			has_completed_focus = USA_army_of_the_united_states
		}

		relative_position_id = USA_army_of_the_united_states
		prerequisite = { focus = USA_army_of_the_united_states }

		cancel_if_invalid = yes
		continue_if_invalid = no
		available_if_capitulated = no
		search_filters = {FOCUS_FILTER_MANPOWER}
		completion_reward = {
			remove_ideas = USA_segregated_army
		}
	}
	focus = {
		id = USA_full_desegregation
		icon = GFX_focus_generic_support_the_left_right
		x = 0
		y = 1

		available = {
			has_war = yes
		}
		prerequisite = { focus = USA_desegregate_the_armed_forces }
		relative_position_id = USA_desegregate_the_armed_forces
		cost = 45

		ai_will_do = {
			factor = 1
		}

		cancel_if_invalid = yes
		continue_if_invalid = no
		available_if_capitulated = no
		search_filters = {FOCUS_FILTER_MANPOWER FOCUS_FILTER_USA_CONGRESS}
		completion_reward = {
			add_ideas = USA_armed_forces_desegregation
		}
	}

	focus = {
		id = USA_support_rock_island
		icon = GFX_goal_generic_army_artillery
		x = 2
		y = 1
		relative_position_id = USA_selective_training_act
		cost = 45
		prerequisite = { focus = USA_selective_training_act }
		ai_will_do = {
			factor = 5
		}

		available_if_capitulated = yes

		completion_reward = {
			add_tech_bonus = {
				name = USA_support_rock_island
				uses = 2
				bonus = 1.0
				category = artillery
				category = support_tech
			}
		}
	}
	focus = {
		id = USA_tank_experiments
		icon = GFX_goal_generic_army_tanks
		x = 2
		y = 2
		prerequisite = { focus = USA_support_rock_island }
		relative_position_id = USA_selective_training_act
		cost = 35

		ai_will_do = {
			factor = 1
		}

		cancel_if_invalid = yes
		continue_if_invalid = no
		available_if_capitulated = no

		completion_reward = {
			add_tech_bonus = {
				name = USA_tank_experiments
				uses = 1
				bonus = 1.0
				category = armor
			}
		}
	}
	focus = {
		id = USA_tank_destroyer_doctrine
		icon = GFX_focus_usa_tank_destroyer_doctrine
		x = 2
		y = 3
		prerequisite = { focus = USA_tank_experiments }
		mutually_exclusive = { focus = USA_main_battle_tanks }
		relative_position_id = USA_selective_training_act
		cost = 45

		ai_will_do = {
			factor = 1
		}

		cancel_if_invalid = yes
		continue_if_invalid = no
		available_if_capitulated = no

		completion_reward = {
			add_political_power = 50
			custom_effect_tooltip = available_designer
			show_ideas_tooltip = tank_destroyer_board
		}
	}
	focus = {
		id = USA_main_battle_tanks
		icon = GFX_focus_generic_combined_arms
		x = 4
		y = 3
		prerequisite = { focus = USA_tank_experiments }
		mutually_exclusive = { focus = USA_tank_destroyer_doctrine }
		relative_position_id = USA_selective_training_act
		cost = 35

		ai_will_do = {
			factor = 1
		}

		cancel_if_invalid = yes
		continue_if_invalid = no
		available_if_capitulated = no

		completion_reward = {
			add_ideas = detroit_arsenal
		}
	}
	focus = {
		id = USA_armored_infantry
		icon = GFX_goal_generic_build_tank
		x = 2
		y = 4
		prerequisite = { focus = USA_main_battle_tanks focus = USA_tank_destroyer_doctrine }
		relative_position_id = USA_selective_training_act
		cost = 45

		ai_will_do = {
			factor = 1
		}

		cancel_if_invalid = yes
		continue_if_invalid = no
		available_if_capitulated = no

		completion_reward = {
			add_tech_bonus = {
				name = USA_armored_infantry
				uses = 2
				bonus = 1.0
				category = cat_mechanized_equipment
			}
		}
	}
	focus = {
		id = USA_build_the_pentagon
		icon = GFX_focus_usa_build_the_pentagon
		x = 0
		y = 1
		prerequisite = { focus = USA_war_department }
		relative_position_id = USA_war_department
		cost = 35

		ai_will_do = {
			factor = 1
		}

		cancel_if_invalid = yes
		continue_if_invalid = no
		available_if_capitulated = no

		completion_reward = {
			add_ideas = USA_the_pentagon
		}
	}
	focus = {
		id = USA_department_of_defense
		icon = GFX_goal_generic_military_sphere
		x = 0
		y = 1
		prerequisite = { focus = USA_build_the_pentagon }
		relative_position_id = USA_build_the_pentagon
		cost = 35

		ai_will_do = {
			factor = 1
		}

		cancel_if_invalid = yes
		continue_if_invalid = no
		available_if_capitulated = no

		completion_reward = {
			swap_ideas = {
				remove_idea = USA_war_department
				add_idea = USA_department_of_defense
			}
		}
	}



 ##  ### ###       ## ###  ##  ### ###  ##  #  #
#  #  #  #  #     #   #   #  #  #   #  #  # ## #
####  #  ###       #  ##  #     #   #  #  # # ##
#  #  #  #  #       # #   #  #  #   #  #  # #  #
#  # ### #  #     ##  ###  ##   #  ###  ##  #  #

	focus = {
		id = USA_air_war_plans_division
		icon = GFX_goal_generic_build_airforce
		x = 3
		y = 1
		cost = 45
		#ai_will_do = {
		#	factor = 1
		#}
		prerequisite = { focus = USA_war_department }
		relative_position_id = USA_war_department
		available_if_capitulated = yes

		completion_reward = {
			air_experience = 25
			add_doctrine_cost_reduction = {
				name = USA_air_war_plans_division
				cost_reduction = 0.5
				uses = 2
				category = air_doctrine
			} # REVISIT May use modifier?
			add_ideas = air_war_plans_division_focus
		}
	}

	focus = {
		id = USA_air_support
		icon = GFX_goal_generic_air_fighter
		prerequisite = { focus = USA_air_war_plans_division }
		mutually_exclusive = { focus = USA_strategic_bombing }
		x = -1
		y = 1
		relative_position_id = USA_air_war_plans_division
		cost = 35
		#ai_will_do = {
		#	factor = 1
		#}

		available_if_capitulated = yes

		completion_reward = {
			air_experience = 25
			add_ideas = air_support_focus
		}
	}

	focus = {
		id = USA_strategic_bombing
		icon = GFX_goal_generic_occupy_start_war
		prerequisite = { focus = USA_air_war_plans_division }
		mutually_exclusive = { focus = USA_air_support }
		x = 1
		y = 1
		relative_position_id = USA_air_war_plans_division
		cost = 35
		#ai_will_do = {
		#	factor = 1
		#}

		available_if_capitulated = yes

		completion_reward = {
			air_experience = 25
			add_ideas = strategic_bombing_focus
		}
	}

	focus = {
		id = USA_TAC
		icon = GFX_goal_generic_air_doctrine
		prerequisite = { focus = USA_air_support }
		x = 0
		y = 2
		relative_position_id = USA_air_support
		cost = 35
		#ai_will_do = {
		#	factor = 1
		#}

		available_if_capitulated = yes

		completion_reward = {
			air_experience = 25
			add_tech_bonus = {
				name = USA_TAC
				uses = 1
				bonus = 1.0
				category = tactical_bomber
			}
		}
	}
	focus = {
		id = USA_extreme_heavy_fighter_effort
		icon = GFX_goal_generic_air_naval_bomber
		x = -1
		y = 2
		prerequisite = { focus = USA_TAC }
		available = { date > 1941.10.1 }
		relative_position_id = USA_TAC
		cost = 35

		ai_will_do = {
			factor = 1
		}

		cancel_if_invalid = yes
		continue_if_invalid = no
		available_if_capitulated = no

		completion_reward = {
			add_tech_bonus = {
				name = USA_escort_fighters
				bonus = 2.0
				uses = 1
				technology = heavy_fighter5
			}
		}
	}

	focus = {
		id = USA_CAS
		text = CAS_effort
		icon = GFX_goal_generic_CAS
		prerequisite = { focus = USA_air_support }
		x = -1
		y = 1
		relative_position_id = USA_air_support
		cost = 35
		#ai_will_do = {
		#	factor = 1
		#}

		available_if_capitulated = yes

		completion_reward = {
			add_tech_bonus = {
				name = CAS_effort
				uses = 1
				bonus = 1.0
				category = cas_bomber
			}
		}
	}

	focus = {
		id = USA_combined_bomber_offensive
		icon = GFX_goal_generic_air_bomber
		prerequisite = { focus = USA_strategic_bombing }
		available = {
			has_war = yes
			is_in_faction_with = ENG
		}
		x = 1
		y = 1
		relative_position_id = USA_strategic_bombing
		cost = 35
		#ai_will_do = {
		#	factor = 1
		#}

		available_if_capitulated = yes

		completion_reward = {
			air_experience = 25
			add_tech_bonus = {
				name = USA_combined_bomber_offensive
				bonus = 1.0
				uses = 1
				technology = heavy_fighter2
				technology = strategic_bomber2
			}
			add_ideas = combined_bomber_offensive
		}
	}

	focus = {
		id = USA_extreme_strategic_bomber_effort
		icon = GFX_goal_generic_air_naval_bomber
		x = 0
		y = 1
		prerequisite = { focus = USA_combined_bomber_offensive }
		available = { date > 1941.10.1 }
		relative_position_id = USA_combined_bomber_offensive
		cost = 45

		ai_will_do = {
			factor = 1
		}

		cancel_if_invalid = yes
		continue_if_invalid = no
		available_if_capitulated = no

		completion_reward = {
			add_tech_bonus = {
				name = "Strategic Bomber Bonus"
				bonus = 2.0
				uses = 1
				technology = strategic_bomber5
			}
		}
	}

	focus = {
		id = USA_escort_fighters
		icon = GFX_focus_usa_escort_fighters
		x = 0
		y = 2
		prerequisite = { focus = USA_air_support focus = USA_strategic_bombing }
		relative_position_id = USA_air_war_plans_division
		cost = 35

		ai_will_do = {
			factor = 1
		}

		cancel_if_invalid = yes
		continue_if_invalid = no
		available_if_capitulated = no

		completion_reward = {
			add_tech_bonus = {
				name = USA_escort_fighters
				bonus = 2.0
				uses = 1
				technology = heavy_fighter1
				technology = heavy_fighter2
			}
		}
	}
	focus = {
		id = USA_us_army_airforce
		icon = GFX_focus_generic_strike_at_democracy1
		x = -1
		y = 4
		prerequisite = { focus = USA_TAC focus = USA_combined_bomber_offensive }
		relative_position_id = USA_air_war_plans_division
		cost = 35

		ai_will_do = {
			factor = 1
		}

		cancel_if_invalid = yes
		continue_if_invalid = no
		available_if_capitulated = no

		completion_reward = {
			add_doctrine_cost_reduction = {
				name = USA_us_army_airforce
				uses = 2
				cost_reduction = 0.5
				category = air_doctrine
			}
		}
	}
	focus = {
		id = USA_us_air_force
		icon = GFX_goal_generic_build_airforce
		x = 1
		y = 4
		prerequisite = { focus = USA_TAC focus = USA_combined_bomber_offensive }
		relative_position_id = USA_air_war_plans_division
		cost = 35

		ai_will_do = {
			factor = 1
		}

		cancel_if_invalid = yes
		continue_if_invalid = no
		available_if_capitulated = no

		completion_reward = {
			add_ideas = USA_us_air_force
		}
	}

	focus = {
		id = USA_expand_the_USMC
		icon = GFX_goal_generic_special_forces
		prerequisite = { focus = USA_first_special_service_force }
		x = -1
		y = 1
		relative_position_id = USA_first_special_service_force
		cost = 35
		#ai_will_do = {
		#	factor = 1
		#}

		available_if_capitulated = yes

		completion_reward = {
			add_tech_bonus = {
				name = USA_expand_the_USMC
				bonus = 1.0
				uses = 1
				technology = marines
				technology = marines2
			}
		}
	}

	focus = {
		id = USA_amphibious_operations
		icon = GFX_goal_generic_amphibious_assault
		prerequisite = { focus = USA_expand_the_USMC }
		x = 0
		y = 1
		relative_position_id = USA_expand_the_USMC
		cost = 35
		#ai_will_do = {
		#	factor = 1
		#}

		available_if_capitulated = yes

		completion_reward = {
			add_tech_bonus = {
				name = USA_amphibious_operations
				bonus = 1.0
				uses = 2
				category = tp_tech
			}
		}
	}
}
