sub_units = {

	armored_car = {
		#sprite = light_armor
		sprite = armored_car
		map_icon_category = armored
		priority = 501
		ai_priority = 200
		active = yes

		type = {
			armor
		}

		group = armor

		categories = {
			category_front_line
			category_army
			category_all_armor
		}


		combat_width = 1.5

		need = {
			armored_car_equipment = 60
		}
		manpower = 500
		max_organisation = 10
		default_morale = 0.3
		training_time = 180
		max_strength = 2
		weight = 0.8
		supply_consumption = 0.14
		recon = 1


		#WE GOOD AT SUPPRESS
		suppression = 2.5

		forest = {
		    attack = -0.05
			defence = 0.15
			movement = -0.4
		}
		mountain = 	{
		    attack = -0.1
		    movement = -0.1
		}
		hills = {
			attack = 0.15
			defence = 0.15
		}
		plains = {
			attack = 0.15
			defence = 0.15
		}
		marsh = {
		    attack = -0.1
			movement = -0.2
		}
		desert = {
			attack = 0.15
			defence = 0.15
			movement = 0.15
		}
		urban = {
			attack = -0.3
		}
		river = {
			attack = -0.2
			movement = -0.2
		}
		amphibious = {
			attack = -0.4
		}
	}
}
