sub_units = {
	maintenance_company = {
		sprite = infantry
		map_icon_category = infantry
		priority = 0
		ai_priority = 0
		active = no
		affects_speed = no
		type = {
			infantry
			support
		}

		group = support

		categories = {
			category_support_battalions
			category_army
		}

		combat_width = 0

		#Size Definitions
		max_strength = 10
		max_organisation = 45
		default_morale = 0.3
		manpower = 500
		training_time = 120

		#Misc Abilities
		weight = 0.1
		supply_consumption = 0.03
		can_be_parachuted = yes

		reliability_factor = 0.05

		essential = {
			support_equipment
		}

		need = {
			support_equipment = 20
		}

	}
}
