state={
	id=1067
	name="STATE_1067"

	resources={
		steel=60 # was: 112
	}

	history = {
		owner = USA
		add_core_of = USA
		buildings = {
			infrastructure = 3
			arms_factory = 1
			industrial_complex = 7
			air_base = 0
			anti_air_building = 0
			fuel_silo = 0
			radar_station = 0
			rocket_site = 0

		}
		1940.5.10 = {
			buildings = {
				infrastructure = 3
				arms_factory = 1
				industrial_complex = 10
				air_base = 0
				anti_air_building = 0
				fuel_silo = 0
				radar_station = 0
				rocket_site = 0

			}

		}
		1941.6.21 = {
			buildings = {
				infrastructure = 3
				arms_factory = 2
				industrial_complex = 8
				air_base = 0
				anti_air_building = 0
				fuel_silo = 0
				radar_station = 0
				rocket_site = 0

			}

		}
		1942.11.19 = {
			buildings = {
				infrastructure = 3
				arms_factory = 3
				industrial_complex = 7
				air_base = 0
				anti_air_building = 0
				fuel_silo = 0
				radar_station = 0
				rocket_site = 0

			}

		}
		1943.7.11 = {
			buildings = {
				infrastructure = 3
				arms_factory = 3
				industrial_complex = 7
				air_base = 0
				anti_air_building = 0
				fuel_silo = 0
				radar_station = 0
				rocket_site = 0

			}

		}
		1944.6.6 = {
			buildings = {
				infrastructure = 3
				arms_factory = 4
				industrial_complex = 6
				air_base = 0
				anti_air_building = 0
				fuel_silo = 0
				radar_station = 0
				rocket_site = 0

			}

		}


		1944.12.14 = {
			buildings = {
				infrastructure = 3
				arms_factory = 4
				industrial_complex = 6
				air_base = 0
				anti_air_building = 0
				fuel_silo = 0
				radar_station = 0
				rocket_site = 0

			}

		}
		1945.3.20 = {
			buildings = {
				infrastructure = 3
				arms_factory = 4
				industrial_complex = 6
				air_base = 0
				anti_air_building = 0
				fuel_silo = 0
				radar_station = 0
				rocket_site = 0

			}

		}
	}
	provinces={
		8625
	}
	manpower = 2616555

	state_category = city
	buildings_max_level_factor=1.000
	local_supplies=0.000
}
