
state={
	id=1076
	name="STATE_1076"
	resources={
		steel=60 # was: 112.000
		oil=6 # was: 10.000
	}
	history={
		owner = USA
		add_core_of = USA
		buildings = {
			infrastructure = 4
			arms_factory = 2
			industrial_complex = 10
			air_base = 0
			anti_air_building = 0
			fuel_silo = 0
			radar_station = 0
			rocket_site = 0

		}
		1940.5.10 = {
			buildings = {
				infrastructure = 4
				arms_factory = 2
				industrial_complex = 13
				air_base = 0
				anti_air_building = 0
				fuel_silo = 0
				radar_station = 0
				rocket_site = 0

			}

		}
		1941.6.21 = {
			buildings = {
				infrastructure = 4
				arms_factory = 7
				industrial_complex = 8
				air_base = 0
				anti_air_building = 0
				fuel_silo = 0
				radar_station = 0
				rocket_site = 0

			}

		}
		1942.11.19 = {
			buildings = {
				infrastructure = 4
				arms_factory = 8
				industrial_complex = 7
				air_base = 0
				anti_air_building = 0
				fuel_silo = 0
				radar_station = 0
				rocket_site = 0

			}

		}
		1943.7.11 = {
			buildings = {
				infrastructure = 4
				arms_factory = 10
				industrial_complex = 5
				air_base = 0
				anti_air_building = 0
				fuel_silo = 0
				radar_station = 0
				rocket_site = 0

			}

		}
		1944.6.6 = {
			buildings = {
				infrastructure = 4
				arms_factory = 11
				industrial_complex = 4
				air_base = 0
				anti_air_building = 0
				fuel_silo = 0
				radar_station = 0
				rocket_site = 0

			}

		}
		1944.12.14 = {
			buildings = {
				infrastructure = 4
				arms_factory = 12
				industrial_complex = 3
				air_base = 0
				anti_air_building = 0
				fuel_silo = 0
				radar_station = 0
				rocket_site = 0

			}

		}
		1945.3.20 = {
			buildings = {
				infrastructure = 4
				arms_factory = 13
				industrial_complex = 2
				air_base = 0
				anti_air_building = 0
				fuel_silo = 0
				radar_station = 0
				rocket_site = 0

			}

		}
	}
	provinces={
		8640 8651
	}
	manpower=4842323
	buildings_max_level_factor=1.000
	local_supplies=0.000
	state_category = metropolis
}
