
state={
	id=265
	name="STATE_265"
	provinces={
		1020 1357 3851 4276 4451 6415 6441 6446 6467 6487 6491 6511 8118 8152
	}

	history={
		buildings = {
			infrastructure = 3
			arms_factory = 0
			industrial_complex = 0
			air_base = 0
			anti_air_building = 0
			fuel_silo = 0
			radar_station = 0
			rocket_site = 0
		}

		1940.5.10 = {
			buildings = {
				infrastructure = 3
				arms_factory = 0
				industrial_complex = 0
				air_base = 0
				anti_air_building = 0
				fuel_silo = 0
				radar_station = 0
				rocket_site = 0
			}
		}
		1941.6.21 = {
			buildings = {
				infrastructure = 3
				arms_factory = 0
				industrial_complex = 0
				air_base = 0
				anti_air_building = 0
				fuel_silo = 0
				radar_station = 0
				rocket_site = 0
			}
		}
		1942.11.19 = {
			buildings = {
				infrastructure = 3
				arms_factory = 0
				industrial_complex = 0
				air_base = 0
				anti_air_building = 0
				fuel_silo = 0
				radar_station = 0
				rocket_site = 0
			}
		}
		1943.7.11 = {
			buildings = {
				infrastructure = 3
				arms_factory = 0
				industrial_complex = 0
				air_base = 0
				anti_air_building = 0
				fuel_silo = 0
				radar_station = 0
				rocket_site = 0
			}
		}
		1944.6.6 = {
			buildings = {
				infrastructure = 3
				arms_factory = 0
				industrial_complex = 0
				air_base = 0
				anti_air_building = 0
				fuel_silo = 0
				radar_station = 0
				rocket_site = 0
			}
		}


		1944.12.14 = {
			buildings = {
				infrastructure = 3
				arms_factory = 0
				industrial_complex = 0
				air_base = 0
				anti_air_building = 0
				fuel_silo = 0
				radar_station = 0
				rocket_site = 0
			}
		}
		1945.3.20 = {
			buildings = {
				infrastructure = 3
				arms_factory = 0
				industrial_complex = 0
				air_base = 0
				anti_air_building = 0
				fuel_silo = 0
				radar_station = 0
				rocket_site = 0
			}
		}
		owner = FRA
		add_core_of = FRA
		1941.1.1 = {
			owner = EFR
			controller = EFR
			add_core_of = GFR
			add_core_of = EFR

		}
		1942.11.19 = {
			owner = ITA
			controller = ITA
			remove_core_of = EFR

		}
		1944.6.6 = {
			owner = GFR
			controller = GFR

		}

		1944.12.16 = {
			owner = FRA
			controller = FRA
		}

        victory_points = { 1357 5 }
        victory_points = { 4276 3 }
	}
	manpower=101324
    state_category = rural
	buildings_max_level_factor=1.000
}
