
state={
	id=269
	name="STATE_269"

	history={
		buildings = {
			infrastructure = 3
			arms_factory = 2
			industrial_complex = 3
			air_base = 0
			anti_air_building = 0
			fuel_silo = 0
			radar_station = 0
			rocket_site = 0

		}
		1940.5.10 = {
			buildings = {
				infrastructure = 3
				arms_factory = 2
				industrial_complex = 4
				air_base = 0
				anti_air_building = 0
				fuel_silo = 0
				radar_station = 0
				rocket_site = 0

			}

		}
		1941.6.21 = {
			buildings = {
				infrastructure = 3
				arms_factory = 2
				industrial_complex = 4
				air_base = 0
				anti_air_building = 0
				fuel_silo = 0
				radar_station = 0
				rocket_site = 0

			}

		}
		1942.11.19 = {
			buildings = {
				infrastructure = 3
				arms_factory = 2
				industrial_complex = 4
				air_base = 0
				anti_air_building = 0
				fuel_silo = 0
				radar_station = 0
				rocket_site = 0

			}

		}
		1943.7.11 = {
			buildings = {
				infrastructure = 3
				arms_factory = 2
				industrial_complex = 5
				air_base = 0
				anti_air_building = 0
				fuel_silo = 0
				radar_station = 0
				rocket_site = 0

			}

		}
		1944.6.6 = {
			buildings = {
				infrastructure = 3
				arms_factory = 2
				industrial_complex = 5
				air_base = 0
				anti_air_building = 0
				fuel_silo = 0
				radar_station = 0
				rocket_site = 0

			}

		}
		1944.12.14 = {
			buildings = {
				infrastructure = 3
				arms_factory = 3
				industrial_complex = 5
				air_base = 0
				anti_air_building = 0
				fuel_silo = 0
				radar_station = 0
				rocket_site = 0

			}

		}
		1945.3.20 = {
			buildings = {
				infrastructure = 3
				arms_factory = 3
				industrial_complex = 5
				air_base = 0
				anti_air_building = 0
				fuel_silo = 0
				radar_station = 0
				rocket_site = 0

			}

		}
		owner = HOL
		add_core_of = HOL
		1941.6.22 = {
			owner = GNL
			controller = GNL
			add_core_of = GNL

		}
		victory_points = {
			1650 10 
		}

	}

	provinces={
		1650 4774 5426 9958 11224 
	}
	manpower=756892
	buildings_max_level_factor=1.000
	state_category=large_city
	local_supplies=0.000
}
