state={
	id=272
	name="STATE_272"
	provinces={
		25 102 146 203 253 293 297 414 476 550 685 699 948 1037 1052 1081 1711 1849 1922 1923 3157 5501
	}

	history={
		buildings = {
			infrastructure = 1
			arms_factory = 0
			industrial_complex = 0
			air_base = 0
			anti_air_building = 0
			fuel_silo = 0
			radar_station = 0
			rocket_site = 0
		}

		1940.5.10 = {
			buildings = {
				infrastructure = 1
				arms_factory = 1
				industrial_complex = 1
				air_base = 0
				anti_air_building = 0
				fuel_silo = 0
				radar_station = 0
				rocket_site = 0
			}
		}
		1941.6.21 = {
			buildings = {
				infrastructure = 1
				arms_factory = 1
				industrial_complex = 1
				air_base = 0
				anti_air_building = 0
				fuel_silo = 0
				radar_station = 0
				rocket_site = 0
			}
		}
		1942.11.19 = {
			buildings = {
				infrastructure = 1
				arms_factory = 1
				industrial_complex = 1
				air_base = 0
				anti_air_building = 0
				fuel_silo = 0
				radar_station = 0
				rocket_site = 0
			}
		}
		1943.7.11 = {
			buildings = {
				infrastructure = 1
				arms_factory = 1
				industrial_complex = 1
				air_base = 0
				anti_air_building = 0
				fuel_silo = 0
				radar_station = 0
				rocket_site = 0
			}
		}
		1944.6.6 = {
			buildings = {
				infrastructure = 1
				arms_factory = 1
				industrial_complex = 1
				air_base = 0
				anti_air_building = 0
				fuel_silo = 0
				radar_station = 0
				rocket_site = 0
			}
		}


		1944.12.14 = {
			buildings = {
				infrastructure = 1
				arms_factory = 1
				industrial_complex = 1
				air_base = 0
				anti_air_building = 0
				fuel_silo = 0
				radar_station = 0
				rocket_site = 0
			}
		}
		1945.3.20 = {
			buildings = {
				infrastructure = 1
				arms_factory = 1
				industrial_complex = 1
				air_base = 0
				anti_air_building = 0
				fuel_silo = 0
				radar_station = 0
				rocket_site = 0
			}
		}
		owner = SOV
		add_core_of = SOV

		victory_points = { 1037 3 } #272
		victory_points = { 5501 1 } #272

	}
	manpower=1064523
    state_category = rural
	buildings_max_level_factor=1.000
}
