
state={
	id=487
	name="STATE_487"

	history={
		buildings = {
			infrastructure = 3
			arms_factory = 0
			industrial_complex = 0
			air_base = 0
			anti_air_building = 0
			fuel_silo = 0
			radar_station = 0
			rocket_site = 0
		}

		1940.5.10 = {
			buildings = {
				infrastructure = 3
				arms_factory = 0
				industrial_complex = 0
				air_base = 0
				anti_air_building = 0
				fuel_silo = 0
				radar_station = 0
				rocket_site = 0
			}
		}
		1941.6.21 = {
			buildings = {
				infrastructure = 3
				arms_factory = 0
				industrial_complex = 1
				air_base = 0
				anti_air_building = 0
				fuel_silo = 0
				radar_station = 0
				rocket_site = 0
			}
		}
		1942.11.19 = {
			buildings = {
				infrastructure = 3
				arms_factory = 0
				industrial_complex = 1
				air_base = 0
				anti_air_building = 0
				fuel_silo = 0
				radar_station = 0
				rocket_site = 0
			}
		}
		1943.7.11 = {
			buildings = {
				infrastructure = 3
				arms_factory = 0
				industrial_complex = 1
				air_base = 0
				anti_air_building = 0
				fuel_silo = 0
				radar_station = 0
				rocket_site = 0
			}
		}
		1944.6.6 = {
			buildings = {
				infrastructure = 3
				arms_factory = 0
				industrial_complex = 1
				air_base = 0
				anti_air_building = 0
				fuel_silo = 0
				radar_station = 0
				rocket_site = 0
			}
		}


		1944.12.14 = {
			buildings = {
				infrastructure = 3
				arms_factory = 0
				industrial_complex = 1
				air_base = 0
				anti_air_building = 0
				fuel_silo = 0
				radar_station = 0
				rocket_site = 0
			}
		}
		1945.3.20 = {
			buildings = {
				infrastructure = 3
				arms_factory = 0
				industrial_complex = 1
				air_base = 0
				anti_air_building = 0
				fuel_silo = 0
				radar_station = 0
				rocket_site = 0
			}
		}
		owner = FRA
		add_core_of = FRA
		1941.1.1 = {
			owner = GFR
			controller = GFR
			add_core_of = GFR
			add_core_of = EFR

		}
		1943.1.1 = {
			remove_core_of = EFR

		}
		1944.12.16 = {
			owner = FRA
			controller = FRA
		}

        victory_points = { 418 10 }
        victory_points = { 3729 10 }
        victory_points = { 6265 5 }
        victory_points = { 6381 5 }
	}

	provinces={
		418 2330 2595 3233 3486 3674 3679 3721 3729 4439 6251 6265 6286 6290 6315 6341 6381 6417 8153 8177 8603 8605
	}
	manpower=1298301
	buildings_max_level_factor=1.000
	state_category=large_city
}
