
state={
	id=488
	name="STATE_488"

	history={
		buildings = {
			infrastructure = 2
			arms_factory = 0
			industrial_complex = 0
			air_base = 0
			anti_air_building = 0
			fuel_silo = 0
			radar_station = 0
			rocket_site = 0
		}

		1940.5.10 = {
			buildings = {
				infrastructure = 2
				arms_factory = 0
				industrial_complex = 0
				air_base = 0
				anti_air_building = 0
				fuel_silo = 0
				radar_station = 0
				rocket_site = 0
			}
		}
		1941.6.21 = {
			buildings = {
				infrastructure = 2
				arms_factory = 0
				industrial_complex = 0
				air_base = 0
				anti_air_building = 0
				fuel_silo = 0
				radar_station = 0
				rocket_site = 0
			}
		}
		1942.11.19 = {
			buildings = {
				infrastructure = 2
				arms_factory = 0
				industrial_complex = 0
				air_base = 0
				anti_air_building = 0
				fuel_silo = 0
				radar_station = 0
				rocket_site = 0
			}
		}
		1943.7.11 = {
			buildings = {
				infrastructure = 2
				arms_factory = 0
				industrial_complex = 0
				air_base = 0
				anti_air_building = 0
				fuel_silo = 0
				radar_station = 0
				rocket_site = 0
			}
		}
		1944.6.6 = {
			buildings = {
				infrastructure = 2
				arms_factory = 0
				industrial_complex = 0
				air_base = 0
				anti_air_building = 0
				fuel_silo = 0
				radar_station = 0
				rocket_site = 0
			}
		}


		1944.12.14 = {
			buildings = {
				infrastructure = 2
				arms_factory = 0
				industrial_complex = 0
				air_base = 0
				anti_air_building = 0
				fuel_silo = 0
				radar_station = 0
				rocket_site = 0
			}
		}
		1945.3.20 = {
			buildings = {
				infrastructure = 2
				arms_factory = 0
				industrial_complex = 0
				air_base = 0
				anti_air_building = 0
				fuel_silo = 0
				radar_station = 0
				rocket_site = 0
			}
		}
		owner = YUG
		add_core_of = YUG
		1941.4.1 = {
			owner = GER
			controller = GER

		}

		1944.12.16 = {
			owner = YUG
			controller = YUG
		}

        victory_points = { 3873 2 }
	}

	provinces={
		2773 3873 9779 9801 9940
	}
	manpower=234780
	buildings_max_level_factor=1.000
	state_category=rural
}
