
state={
	id=658
	name="STATE_658"
	provinces={
		8287
	}

	history={
		buildings = {
			infrastructure = 3
		}

		owner = AUS

		1940.5.10 = {
			owner = GER
		}
	}
	manpower=1
	state_category = river_crossing
	buildings_max_level_factor=1.000
}
