
state={
	id=739
	name="STATE_739"
	provinces={
		35 66 283 406 453 658 974 1354 1731 1780 1785 1821 1918 1958 2067 3180 3565 3695 7304 7335 7352 7426
	}
	manpower=1
    state_category = rural
	buildings_max_level_factor=1.000
}
