
state={
	id=807
	name="STATE_807"
	resources={
		oil=1 # was: 2
	}

	history={
		buildings = {
			infrastructure = 1
			arms_factory = 0
			industrial_complex = 1
			air_base = 0
			anti_air_building = 0
			fuel_silo = 0
			radar_station = 0
			rocket_site = 0

		}
		1940.5.10 = {
			buildings = {
				infrastructure = 1
				arms_factory = 0
				industrial_complex = 1
				air_base = 0
				anti_air_building = 0
				fuel_silo = 0
				radar_station = 0
				rocket_site = 0

			}

		}
		1941.6.21 = {
			buildings = {
				infrastructure = 1
				arms_factory = 0
				industrial_complex = 1
				air_base = 0
				anti_air_building = 0
				fuel_silo = 0
				radar_station = 0
				rocket_site = 0

			}

		}
		1942.11.19 = {
			buildings = {
				infrastructure = 1
				arms_factory = 0
				industrial_complex = 1
				air_base = 0
				anti_air_building = 0
				fuel_silo = 0
				radar_station = 0
				rocket_site = 0

			}

		}
		1943.7.11 = {
			buildings = {
				infrastructure = 1
				arms_factory = 0
				industrial_complex = 1
				air_base = 0
				anti_air_building = 0
				fuel_silo = 0
				radar_station = 0
				rocket_site = 0

			}

		}
		1944.6.6 = {
			buildings = {
				infrastructure = 1
				arms_factory = 0
				industrial_complex = 1
				air_base = 0
				anti_air_building = 0
				fuel_silo = 0
				radar_station = 0
				rocket_site = 0

			}

		}


		1944.12.14 = {
			buildings = {
				infrastructure = 1
				arms_factory = 0
				industrial_complex = 1
				air_base = 0
				anti_air_building = 0
				fuel_silo = 0
				radar_station = 0
				rocket_site = 0

			}

		}
		1945.3.20 = {
			buildings = {
				infrastructure = 1
				arms_factory = 0
				industrial_complex = 1
				air_base = 0
				anti_air_building = 0
				fuel_silo = 0
				radar_station = 0
				rocket_site = 0

			}

		}
		owner = CAN
		add_core_of = CAN
		victory_points = {
			8659 2
		}

	}

	provinces={
		8659 8666 8667 8668 8669
	}
	manpower=223948
	buildings_max_level_factor=1.000
	state_category=large_city
	local_supplies=0.000
}
