state={
	id=982
	name="STATE_982"
	provinces={
		7530
	}

    history={
		buildings = {
			infrastructure = 3
		}
        owner = BUL
    }
    state_category = river_crossing
    manpower=1
	buildings_max_level_factor=1.000
}
