#	Example:
#
#	example_trigger = {
#		tag = GER
#		is_ai = no
#	}
#
#
#	In a script file:
#
#	trigger = {
#		exampel_trigger = yes
#	}
#

GRE_is_historical_ai = {
	always = yes
	# OR = {
	# 	AND = {
	# 		is_historical_focus_on = yes
	# 		has_game_rule = {
	# 			rule = GRE_ai_behavior
	# 			option = DEFAULT
	# 		}
	# 	}
	# 	has_country_flag = GRE_AI_RANDOM_NEUTRALITY_HISTORICAL
	# 	has_game_rule = {
	# 		rule = GRE_ai_behavior
	# 		option = HISTORICAL
	# 	}
	# }
}
