﻿add_namespace = pfunews

news_event = {
	id = pfunews.1
	title = pfunews.1.t
	desc = pfunews.1.d
	picture = GFX_news_event_generic_read_write

	major = yes

	is_triggered_only = yes

	option = {
		name = pfunews.1.a
	}
}

news_event = {
	id = pfunews.2
	title = pfunews.2.t
	desc = pfunews.2.d
	picture = GFX_news_event_hitler_paris

	major = yes

	trigger = {
		FRA = {
			has_capitulated = yes
		}
		GER = {
			controls_state = 16
		}
		NOT = { has_global_flag = hitler_visits_paris }
	}

	immediate = {
		set_global_flag = hitler_visits_paris
	}

	mean_time_to_happen = {
		days = 30
	}

	option = {
		name = pfunews.2.a
	}
}

news_event = {
	id = pfunews.3
	title = pfunews.3.t
	desc = pfunews.3.d
	picture = GFX_news_event_white_death

	major = yes

	trigger = {
		FIN = {
			has_defensive_war_with = SOV
			surrender_progress > 0.05
	    }
	  	NOT = { has_global_flag = white_death }
	}

	immediate = {
		set_global_flag = white_death
	}

	mean_time_to_happen = {
		days = 30
	}

	option = {
		name = pfunews.3.a
	}
}

news_event = {
	id = pfunews.4
	title = pfunews.4.t
	desc = pfunews.4.d
	picture = GFX_news_event_south_africa_patrol

	major = yes

	is_triggered_only = yes

	option = {
		name = pfunews.4.a
		trigger = { TAG = RAJ }
	}
	option = {
		name = pfunews.4.b
		trigger = {
			NOT = {	tag = RAJ }
			NOT = { tag = ENG }
			NOT = { is_in_faction_with = ENG }
		}
	}
	option = {
		name = news.4.c
		trigger = {
			OR = {
				tag = ENG
				is_in_faction_with = ENG
			}
			NOT = { TAG = RAJ }
		}
	}
}

news_event = {
	id = pfunews.5
	title = pfunews.5.t
	desc = pfunews.5.d
	picture = GFX_news_event_south_africa_patrol

	major = yes

	is_triggered_only = yes

	option = {
		name = pfunews.5.a
		trigger = { TAG = FRA }
	}
	option = {
		name = pfunews.5.b
		trigger = {
			NOT = {	tag = FRA }
			NOT = { tag = ENG }
			NOT = { is_in_faction_with = ENG }
		}
	}
	option = {
		name = news.5.c
		trigger = {
			OR = {
				tag = ENG
				is_in_faction_with = ENG
			}
			NOT = { TAG = FRA }
		}
	}
}

news_event = {
	id = pfunews.6
	title = pfunews.6.t
	desc = pfunews.6.d
	picture = GFX_news_event_south_africa_patrol

	major = yes

	is_triggered_only = yes

	option = {
		name = pfunews.6.a
		trigger = { TAG = GRE }
	}
	option = {
		name = pfunews.6.b
		trigger = {
			NOT = {	tag = GRE }
			NOT = { tag = ENG }
			NOT = { is_in_faction_with = ENG }
		}
	}
	option = {
		name = news.6.c
		trigger = {
			OR = {
				tag = ENG
				is_in_faction_with = ENG
			}
			NOT = { TAG = GRE }
		}
	}
}

news_event = {
	id = pfunews.7
	title = pfunews.7.t
	desc = pfunews.7.d
	picture = GFX_news_event_south_africa_patrol

	major = yes

	is_triggered_only = yes

	option = {
		name = pfunews.7.a
		trigger = { TAG = RAJ }
	}
	option = {
		name = pfunews.7.b
		trigger = {
			NOT = {	tag = RAJ }
			NOT = { tag = ENG }
			NOT = { is_in_faction_with = ENG }
		}
	}
	option = {
		name = news.7.c
		trigger = {
			OR = {
				tag = ENG
				is_in_faction_with = ENG
			}
			NOT = { TAG = RAJ }
		}
	}
}
