﻿division_template = {
	name = "Division d'Infanterie"		# Same for "Active" and "Reserve" Infantry Divisions
	division_names_group = BEL_INF_01

	regiments = {
		infantry = { x = 0 y = 0 }
		infantry = { x = 0 y = 1 }
		infantry = { x = 0 y = 2 }
		infantry = { x = 1 y = 0 }
		infantry = { x = 1 y = 1 }
		infantry = { x = 1 y = 2 }
		infantry = { x = 2 y = 0 }
		infantry = { x = 2 y = 1 }
		infantry = { x = 2 y = 2 }
	}
	support = {
		engineer = { x = 0 y = 0 }
	}
}
division_template = {
	name = "Division de Cavalerie"  	# Cavalry Division
	division_names_group = BEL_CAV_01

	regiments = {
		cavalry = { x = 0 y = 0 }
		cavalry = { x = 0 y = 1 }
		cavalry = { x = 1 y = 0 }
		cavalry = { x = 1 y = 1 }
		cavalry = { x = 2 y = 0 }
		cavalry = { x = 2 y = 1 }
	}
	support = {
		recon = { x = 0 y = 0 }      	# Actually, 2x bicycle cav bns
		engineer = { x = 0 y = 1 }
	}
}
division_template = {
	name = "Cavalerie Motorisée"  		# Motorized Cavalry Brigade
	division_names_group = BEL_MOT_01
										# Note: motorized cavalry. Most sources have them truck-equipped.
	regiments = {
		motorized = { x = 0 y = 0 }
		motorized = { x = 0 y = 1 }
		motorized = { x = 1 y = 0 }
		motorized = { x = 1 y = 1 }
	}
}
division_template = {
	name = "Division Coloniale"			# Colonial militia, lower experience, equipment
	division_names_group = BEL_GAR_01 	#TODO make separate namelist for colonial divisions
	regiments = {
		infantry = { x = 0 y = 0 }
		infantry = { x = 0 y = 1 }
		infantry = { x = 0 y = 2 }
		infantry = { x = 1 y = 0 }
		infantry = { x = 1 y = 1 }
		infantry = { x = 1 y = 2 }
	}
	priority = 0
}

### OOB ###
units = {
	##### L'Armée Belge #####
	# I Corps d'Armée
	division= {	# "4ème Division d'Infanterie"
		division_name = {
				is_name_ordered = yes
				name_order = 4
		}
		location = 5606  # Hoeselt
		division_template = "Division d'Infanterie"
		start_experience_factor = 0.3
		start_equipment_factor = 0.5

	}

	# II Corps d'Armée
	division= {	# "6ème Division d'Infanterie"
		division_name = {
				is_name_ordered = yes
				name_order = 6
		}
		location = 706  # Leuven
		division_template = "Division d'Infanterie"
		start_experience_factor = 0.3
		start_equipment_factor = 0.5

	}

	# III Corps d'Armée
	division= {	# "2ème Division d'Infanterie"
		division_name = {
				is_name_ordered = yes
				name_order = 2
		}
		location = 1579  # Liege
		division_template = "Division d'Infanterie"
		start_experience_factor = 0.3
		start_equipment_factor = 0.5

	}
	division= {	# "3ème Division d'Infanterie"
		division_name = {
				is_name_ordered = yes
				name_order = 3
		}
		location = 4924  # Liege
		division_template = "Division d'Infanterie"
		start_experience_factor = 0.3
		start_equipment_factor = 0.5

	}

	# IV Corps d'Armée
	division= {	# "5ème Division d'Infanterie"
		division_name = {
				is_name_ordered = yes
				name_order = 5
		}
		location = 244  #Brussels
		division_template = "Division d'Infanterie"
		start_experience_factor = 0.3
		start_equipment_factor = 0.5

	}

	# Corps d'Cavalerie
	division= {	# "1ère Division d'Infanterie"
		division_name = {
				is_name_ordered = yes
				name_order = 1
		}
		location = 5596  # Liege
		division_template = "Division d'Infanterie"
		start_experience_factor = 0.3
		start_equipment_factor = 0.5

	}
	division= {	# "2ème Division de Cavalerie"
		division_name = {
				is_name_ordered = yes
				name_order = 2
		}
		location = 4924  # Leuven
		division_template = "Division de Cavalerie"
		start_experience_factor = 0.2
		start_equipment_factor = 0.5

	}
	division= {
		name = "Brigade de Cavalerie Motorisée"
		location = 5513  # Leuven
		division_template = "Cavalerie Motorisée"
		start_experience_factor = 0.3
		start_equipment_factor = 0.5

	}

	# Groupement K
	division= {	# "1ère Division de Chasseurs Ardennais"
		division_name = {
				is_name_ordered = yes
				name_order = 101
		}
		location = 2242  # St Hubert
		division_template = "Division d'Infanterie"		# elite bicycle infantry
		start_experience_factor = 0.3
	}
	division= {	# "1ère Division de Cavalerie"
		division_name = {
				is_name_ordered = yes
				name_order = 1
		}
		location = 5555  # St Hubert
		division_template = "Division de Cavalerie"
		start_experience_factor = 0.2
		start_equipment_factor = 0.5

	}
}

air_wings = {
	### Aéronautique Militaire Belge -- Brussels (Nivelle)
	204 = {
		# 2e Régiment d'Aéronautique
		# Consisted of 50 operational Gladiator Is, Hurricanes, CR.42s in 1940
		# Only had Fairey Fox recon/l bombers that were also used as fighters in 1936, along with trainers
		fighter_equipment_0 =  {
			owner = "BEL"
			amount = 20
		}
	}
}

### Starting Production ###
instant_effect = {
	add_equipment_production = {
		equipment = {
			type = infantry_equipment_1
			creator = "BEL"
		}
		requested_factories = 2
		progress = 0.52
		efficiency = 100
	}
	add_equipment_production = {
		equipment = {
			type = support_equipment_1
			creator = "BEL"
		}
		requested_factories = 1
		progress = 0.85
		efficiency = 100
	}
	add_equipment_production = {
		equipment = {
			type = fighter_equipment_0
			creator = "BEL"
		}
		requested_factories = 1
		progress = 0.85
		efficiency = 100
	}
}
