﻿division_template = {
	name = "Leichte Panzer Division"
	division_names_group = GER_Arm_01

	regiments = {
		light_armor = { x = 0 y = 0 }
		light_armor = { x = 0 y = 1 }

		motorized = { x = 1 y = 0 }
		motorized = { x = 1 y = 1 }

	    motorized = { x = 2 y = 0 }
		motorized = { x = 2 y = 1 }
		motorized = { x = 2 y = 2 }

		mot_artillery_brigade = { x = 3 y = 0 }
		mot_artillery_brigade = { x = 3 y = 1 }
		mot_artillery_brigade = { x = 3 y = 2 }
	}
	support = {
        light_tank_recon = { x = 0 y = 0 }
		logistics_company = { x = 0 y = 1 }
		anti_air = { x = 0 y = 2 }
		engineer = { x = 0 y = 3 }
		signal_company = { x = 1 y = 0 }
		anti_tank = { x = 1 y = 1 }
	}
	priority = 2
}

division_template = {
	name = "Mittlere Panzer Division"
	division_names_group = GER_Arm_01

	regiments = {
		medium_armor = { x = 0 y = 0 }
		medium_armor = { x = 0 y = 1 }

		motorized = { x = 1 y = 0 }
		motorized = { x = 1 y = 1 }

	    motorized = { x = 2 y = 0 }
		motorized = { x = 2 y = 1 }
		motorized = { x = 2 y = 2 }

		mot_artillery_brigade = { x = 3 y = 0 }
		mot_artillery_brigade = { x = 3 y = 1 }
		mot_artillery_brigade = { x = 3 y = 2 }
	}
	support = {
        light_tank_recon = { x = 0 y = 0 }
		logistics_company = { x = 0 y = 1 }
		anti_air = { x = 0 y = 2 }
		engineer = { x = 0 y = 3 }
		signal_company = { x = 1 y = 0 }
		anti_tank = { x = 1 y = 1 }
	}
	priority = 2
}

division_template = {
	name = "Fallschirmjäger Division"				# Represents Fallschirm-jaeger
	division_names_group = GER_PAR_01

	regiments = {
		paratrooper = { x = 0 y = 0 }
		paratrooper = { x = 0 y = 1 }
		paratrooper = { x = 0 y = 2 }

		paratrooper = { x = 1 y = 0 }
		paratrooper = { x = 1 y = 1 }
		paratrooper = { x = 1 y = 2 }

		paratrooper = { x = 2 y = 0 }
		paratrooper = { x = 2 y = 1 }
		paratrooper = { x = 2 y = 2 }

		paradrop_artillery_brigade = { x = 3 y = 0 }
		paradrop_artillery_brigade = { x = 3 y = 1 }
		paradrop_artillery_brigade = { x = 3 y = 2 }
	}
	support = {
		anti_tank = { x = 0 y = 0 } #3rd had motorised TD support
		anti_air = { x = 0 y = 1 }
		engineer = { x = 0 y = 2 }
		signal_company = { x = 0 y = 3 }
	}
}

division_template = {
	name = "Fallschirmjäger Regiment"				# Represents Fallschirm-jaeger
	division_names_group = GER_PAR_01

	regiments = {
		paratrooper = { x = 0 y = 0 }
		paratrooper = { x = 0 y = 1 }

		paradrop_artillery_brigade = { x = 1 y = 0 }
	}
	support = {
		anti_tank = { x = 0 y = 0 } #3rd had motorised TD support
		anti_air = { x = 0 y = 1 }
		engineer = { x = 0 y = 2 }
		signal_company = { x = 0 y = 3 }
	}
}
division_template = {
	name = "Slowakische Motorisierte Brigade"

	division_names_group = SLO_CAV_01

	regiments = {
		motorized = { x = 0 y = 0 }
		motorized = { x = 0 y = 1 }
		motorized = { x = 0 y = 2 }

		light_armor = { x = 1 y = 0 }

		mot_artillery_brigade = { x = 2 y = 0 }
	}
	support = {
		engineer = { x = 0 y = 0 }
		signal_company = { x = 0 y = 1 }
	}
}
division_template = {
	name = "Slowakische Infanterie Division"

	division_names_group = SLO_INF_01

	regiments = {
		infantry = { x = 0 y = 0 }
		infantry = { x = 0 y = 1 }
		infantry = { x = 0 y = 2 }

		infantry = { x = 1 y = 0 }
		infantry = { x = 1 y = 1 }
		infantry = { x = 1 y = 2 }

		infantry = { x = 2 y = 0 }
		infantry = { x = 2 y = 1 }
		infantry = { x = 2 y = 2 }

		artillery_brigade = { x = 3 y = 0 }
		artillery_brigade = { x = 3 y = 1 }
		artillery_brigade = { x = 3 y = 2 }
	}
	support = {
		engineer = { x = 0 y = 0 }
		signal_company = { x = 0 y = 1 }
	}
}
division_template = {
	name = "Rumänische Gebirgs-Division"

	division_names_group = ROM_MTN_01

	regiments = {
		mountaineers = { x = 0 y = 0 }
		mountaineers = { x = 0 y = 1 }
		mountaineers = { x = 0 y = 2 }

		mountaineers = { x = 1 y = 0 }
		mountaineers = { x = 1 y = 1 }
		mountaineers = { x = 1 y = 2 }

		artillery_brigade = { x = 2 y = 0 }
		artillery_brigade = { x = 2 y = 1 }
		artillery_brigade = { x = 2 y = 2 }
	}
	support = {
		engineer = { x = 0 y = 0 }
		anti_tank = { x = 0 y = 1 }
	}
}
division_template = {
	name = "Rumänische Panzer Division"
	# Note: Represents 1st and 2nd Armor regiment; both created and merged with motorized inf to create Armor Division in 1940
	division_names_group = ROM_ARM_01
	regiments = {
		light_armor = { x = 0 y = 0 }		# 1st Rgt: R-2 (Pz 35(t)) tanks
		light_armor = { x = 0 y = 1 }
		light_armor = { x = 1 y = 0 }		# 2nd Rgt: Renault R-35 tanks
		light_armor = { x = 1 y = 1 }
		motorized = { x = 2 y = 0 }
		motorized = { x = 2 y = 1 }
		mot_artillery_brigade = { x = 2 y = 2 }
		motorized = { x = 3 y = 0 }
		motorized = { x = 3 y = 1 }
		mot_artillery_brigade = { x = 3 y = 2 }
	}
	support = {
		mot_recon = { x = 0 y = 0 }   			# recon bn of ACs
		engineer = { x = 0 y = 1 }
		anti_tank = { x = 0 y = 2 }
		anti_air = { x = 0 y = 3 }
	}
}
division_template = {
	name = "Rumänische Kavallerie-division"
	# Note: regiments within the brigade were battalion-sized units

	division_names_group = ROM_CAV_01

	regiments = {
		cavalry = { x = 0 y = 0 }
		cavalry = { x = 0 y = 1 }
		cavalry = { x = 1 y = 0 }
		cavalry = { x = 1 y = 1 }
		motorized = { x = 2 y = 0 }			# one cav rgt upgraded to truck-bourne in 1939-42
		motorized = { x = 2 y = 1 }			# one cav rgt upgraded to truck-bourne in 1939-40
	}
	support = {
		recon = { x = 0 y = 0 }
		engineer = { x = 0 y = 1 }
		artillery = { x = 0 y = 2 }
	}
}
division_template = {
	name = "Rumänische Infanterie-division"

	division_names_group = ROM_INF_01

	regiments = {
		infantry = { x = 0 y = 0 }
		infantry = { x = 0 y = 1 }
		infantry = { x = 0 y = 2 }

		infantry = { x = 1 y = 0 }
		infantry = { x = 1 y = 1 }
		infantry = { x = 1 y = 2 }

		infantry = { x = 2 y = 0 }
		infantry = { x = 2 y = 1 }
		infantry = { x = 2 y = 2 }

		artillery_brigade = { x = 3 y = 0 }
		artillery_brigade = { x = 3 y = 1 }
		artillery_brigade = { x = 3 y = 2 }

	}
	support = {
		recon = { x = 0 y = 0 }
		engineer = { x = 0 y = 1 }
		anti_tank = { x = 0 y = 2 }
	}
}
division_template = {
	name = "Infanterie-Division"					# Infantry with 1 ART
	division_names_group = GER_Inf_01

	regiments = {
		infantry = { x = 0 y = 0 }
		infantry = { x = 0 y = 1 }
		infantry = { x = 0 y = 2 }

		infantry = { x = 1 y = 0 }
		infantry = { x = 1 y = 1 }
		infantry = { x = 1 y = 2 }

		infantry = { x = 2 y = 0 }
		infantry = { x = 2 y = 1 }
		infantry = { x = 2 y = 2 }

		artillery_brigade = { x = 3 y = 0 }
		artillery_brigade = { x = 3 y = 1 }
		artillery_brigade = { x = 3 y = 2 }
	}
	support = {
		engineer = { x = 0 y = 0 }
		signal_company = { x = 0 y = 1 }
       	field_hospital = { x = 0 y = 2 }
		anti_tank = { x = 0 y = 3 }
		recon = { x = 1 y = 0 }
		artillery = { x = 1 y = 1 }
	}
}
division_template = {
	name = "Leichte Infanterie Division"					# Infantry with 1 ART
	division_names_group = GER_Inf_01

	regiments = {
		infantry = { x = 0 y = 0 }
		infantry = { x = 0 y = 1 }
		infantry = { x = 0 y = 2 }

		infantry = { x = 1 y = 0 }
		infantry = { x = 1 y = 1 }
		infantry = { x = 1 y = 2 }

		artillery_brigade = { x = 2 y = 0 }
		artillery_brigade = { x = 2 y = 1 }
		artillery_brigade = { x = 2 y = 2 }
	}
	support = {
		engineer = { x = 0 y = 0 }
		signal_company = { x = 0 y = 1 }
       	field_hospital = { x = 0 y = 2 }
		anti_tank = { x = 0 y = 3 }
		recon = { x = 1 y = 0 }
		artillery = { x = 1 y = 1 }
	}
}

division_template = {
	name = "Kavallerie-Division"					# Cavalry division
	division_names_group = GER_Cav_01

	regiments = {
		cavalry = { x = 0 y = 0 }
		cavalry = { x = 0 y = 1 }
		cavalry = { x = 0 y = 2 }

		cavalry = { x = 1 y = 0 }
		cavalry = { x = 1 y = 1 }
		cavalry = { x = 1 y = 2 }

		cavalry = { x = 2 y = 0 }
		cavalry = { x = 2 y = 1 }
		bicycle_battalion = { x = 2 y = 2 }

		mot_artillery_brigade = { x = 3 y = 0 }
		mot_artillery_brigade = { x = 3 y = 1 }
		mot_artillery_brigade = { x = 3 y = 2 }
	}
	support = {
		engineer = { x = 0 y = 0 }
		signal_company = { x = 0 y = 1 }
       	field_hospital = { x = 0 y = 2 }
		support_light_tank_destroyer = { x = 0 y = 3 }
		recon = { x = 1 y = 0 }
		artillery = { x = 1 y = 1 }
	}
}

division_template = {
	name = "Motorisierte Infanterie-Division"					# Motorised infantry
	division_names_group = GER_MOT_02

	regiments = {
		motorized = { x = 0 y = 0 }
		motorized = { x = 0 y = 1 }
		motorized = { x = 0 y = 2 }

		motorized = { x = 1 y = 0 }
		motorized = { x = 1 y = 1 }
		motorized = { x = 1 y = 2 }

		motorized = { x = 2 y = 0 } 	#in 1944 they had only 6 battalions and a motorcycle battalion
		motorized = { x = 2 y = 1 }
		motorized = { x = 2 y = 2 }

		mot_artillery_brigade = { x = 3 y = 0 }
		mot_artillery_brigade = { x = 3 y = 1 }
		mot_artillery_brigade = { x = 3 y = 2 }
	}
	support = {
		engineer = { x = 0 y = 0 }
		signal_company = { x = 0 y = 1 }
       	field_hospital = { x = 0 y = 2 }
		anti_tank = { x = 0 y = 3 }
		recon = { x = 1 y = 0 }
		artillery = { x = 1 y = 1 }
	}
}

division_template = {
	name = "Motorisierte Infanterie-Brigade"					# Motorised infantry
	division_names_group = GER_MOT_02

	regiments = {
		motorized = { x = 0 y = 0 }
		motorized = { x = 0 y = 1 }
		motorized = { x = 0 y = 2 }

		mot_artillery_brigade = { x = 1 y = 0 }
	}
	support = {
		engineer = { x = 0 y = 0 }
		signal_company = { x = 0 y = 1 }
		anti_tank = { x = 0 y = 2 }
		artillery = { x = 0 y = 3 }
	}
}

division_template = {
	name = "Schnelle Infantry Division"					# Infantry with bicycle and arty
	division_names_group = GER_Inf_01

	regiments = {
		bicycle_battalion = { x = 0 y = 0 }
		bicycle_battalion = { x = 0 y = 1 }
		bicycle_battalion = { x = 0 y = 2 }

		bicycle_battalion = { x = 1 y = 0 }
		bicycle_battalion = { x = 1 y = 1 }
		bicycle_battalion = { x = 1 y = 2 }
	}
	support = {
		engineer = { x = 0 y = 0 }
		signal_company = { x = 0 y = 1 }
       	field_hospital = { x = 0 y = 2 }
		anti_tank = { x = 0 y = 3 }
		recon = { x = 1 y = 0 }
	}
}
division_template = {
	name = "Schnelle Infantry Brigade"					# Infantry with bicycle and arty
	division_names_group = GER_Inf_01

	regiments = {
		bicycle_battalion = { x = 0 y = 0 }
		bicycle_battalion = { x = 0 y = 1 }
		bicycle_battalion = { x = 0 y = 2 }

		mot_artillery_brigade = { x = 1 y = 0 }
	}
	support = {
		engineer = { x = 0 y = 0 }
		signal_company = { x = 0 y = 1 }
       	field_hospital = { x = 0 y = 2 }
		anti_tank = { x = 0 y = 3 }
		recon = { x = 1 y = 0 }
	}
}

division_template = {
	name = "Sicherungs-Division"				# Generally represents soldiers not fit for duty, or with special needs and thus fighting less effective
	division_names_group = GER_GAR_01

	regiments = {
		infantry = { x = 0 y = 0 }
		infantry = { x = 0 y = 1 }
		infantry = { x = 0 y = 2 }

		infantry = { x = 1 y = 0 }
		infantry = { x = 1 y = 1 }
		infantry = { x = 1 y = 2 }

		infantry = { x = 2 y = 0 }
		infantry = { x = 2 y = 1 }
		infantry = { x = 2 y = 2 }
	}
	support = {
       	military_police = { x = 0 y = 0 }
       	artillery = { x = 0 y = 1 }
       	signal_company = { x = 0 y = 2 }
	}
	priority = 0
}

division_template = {
	name = "Sicherungs-Regiment"				# Generally represents soldiers not fit for duty, or with special needs and thus fighting less effective
	division_names_group = GER_GAR_01

	regiments = {
		infantry = { x = 0 y = 0 }
		infantry = { x = 0 y = 1 }
		infantry = { x = 1 y = 0 }
		infantry = { x = 1 y = 1 }
	}
	support = {
       	military_police = { x = 0 y = 0 }
	}
	priority = 0
}

division_template = {
	name = "Gebirgs-Division"						# Gebirgs-Division (reserve)
	division_names_group = GER_Mnt_01

	regiments = {
		mountaineers = { x = 0 y = 0 }
	    mountaineers = { x = 0 y = 1 }
	    mountaineers = { x = 0 y = 2 }
		mountaineers = { x = 1 y = 0 }
	    mountaineers = { x = 1 y = 1 }
	    mountaineers = { x = 1 y = 2 }
		mountaineers = { x = 2 y = 0 }
	    mountaineers = { x = 2 y = 1 }
	    mountaineers = { x = 2 y = 2 }

		artillery_brigade = { x = 3 y = 0 }
		artillery_brigade = { x = 3 y = 1 }
		artillery_brigade = { x = 3 y = 2 }
	}
	support = {
		engineer = { x = 0 y = 0 }
		signal_company = { x = 0 y = 1 }
		anti_tank = { x = 0 y = 2 }
		artillery = { x = 0 y = 3 }
	}
}

division_template = {
	name = "Luftwaffe-Feld-Division"

	regiments = {
		infantry = { x = 0 y = 0 }
		infantry = { x = 0 y = 1 }
		infantry = { x = 0 y = 2 }

		infantry = { x = 1 y = 0 }
		infantry = { x = 1 y = 1 }
		infantry = { x = 1 y = 2 }
	}
	support = {
		artillery = { x = 0 y = 0 }
		recon = { x = 0 y = 1 }
		anti_tank = { x = 0 y = 2 }
		anti_air = { x = 0 y = 3 }
		signal_company = { x = 1 y = 0 }
	}
}

units = {
	# Army Group D #
		# Army 1 #
			# Corps 27 #
				division= {
					name = "94. Infanterie Division"
					location = 1909
					division_template = "Infanterie-Division"
					start_equipment_factor = 0.9
					start_experience_factor = 0.3
				}
				division= {
					name = "98. Infanterie Division"
					location = 2842
					division_template = "Infanterie-Division"
					start_equipment_factor = 0.9
					start_experience_factor = 0.3
				}
				division= {
					name = "327. Infanterie Division"
					location = 418
					division_template = "Infanterie-Division"
					start_equipment_factor = 0.9
					start_experience_factor = 0.3
				}
				division= {
					name = "335. Infanterie Division"
					location = 6405
					division_template = "Infanterie-Division"
					start_equipment_factor = 0.9
					start_experience_factor = 0.3
				}
				division= {
					name = "337. Infanterie Division"
					location = 6405
					division_template = "Infanterie-Division"
					start_equipment_factor = 0.9
					start_experience_factor = 0.3
				}
			#
			# Corps 45 #
				division= {
					name = "215. Infanterie Division"
					location = 6196
					division_template = "Infanterie-Division"
					start_equipment_factor = 0.9
					start_experience_factor = 0.3
				}
				division= {
					name = "260. Infanterie Division"
					location = 6093
					division_template = "Infanterie-Division"
					start_equipment_factor = 0.9
					start_experience_factor = 0.3
				}
				division= {
					name = "339. Infanterie Division"
					location = 4566
					division_template = "Infanterie-Division"
					start_equipment_factor = 0.9
					start_experience_factor = 0.3
				}
				division= {
					name = "342. Infanterie Division"
					location = 3502
					division_template = "Infanterie-Division"
					start_equipment_factor = 0.9
					start_experience_factor = 0.3
				}
			#

			division= {
				name = "102. & 103. Panzer Brigade"
				location = 3502
				division_template = "Leichte Panzer Division"
				start_equipment_factor = 0.5
				start_experience_factor = 0.3
			}
		#
		# Army 7 #
			# Corps 25 #
				division= {
					name = "205. Infanterie Division"
					location = 1689
					division_template = "Infanterie-Division"
					start_equipment_factor = 0.9
					start_experience_factor = 0.3
				}
				division= {
					name = "211. Infanterie Division"
					location = 5731
					division_template = "Infanterie-Division"
					start_equipment_factor = 0.9
					start_experience_factor = 0.3
				}
				division= {
					name = "709. Infanterie Division"
					location = 3601
					division_template = "Infanterie-Division"
					start_equipment_factor = 0.9
					start_experience_factor = 0.3
				}
				division= {
					name = "712. Infanterie Division"
					location = 3601
					division_template = "Infanterie-Division"
					start_equipment_factor = 0.9
					start_experience_factor = 0.3
				}
			#
			# Corps 31 #
				division= {
					name = "88. Infanterie Division"
					location = 3351
					division_template = "Infanterie-Division"
					start_equipment_factor = 0.9
					start_experience_factor = 0.3
				}
				division= {
					name = "212. Infanterie Division"
					location = 4343
					division_template = "Infanterie-Division"
					start_equipment_factor = 0.9
					start_experience_factor = 0.3
				}
				division= {
					name = "223. Infanterie Division"
					location = 5627
					division_template = "Infanterie-Division"
					start_equipment_factor = 0.9
					start_experience_factor = 0.3
				}
				division= {
					name = "333. Infanterie Division"
					location = 5627
					division_template = "Infanterie-Division"
					start_equipment_factor = 0.9
					start_experience_factor = 0.3
				}
				division= {
					name = "708. Infanterie Division"
					location = 5628
					division_template = "Infanterie-Division"
					start_equipment_factor = 0.9
					start_experience_factor = 0.3
				}
			#
			# Corps 59 #
				division= {
					name = "81. Infanterie Division"
					location = 5647
					division_template = "Infanterie-Division"
					start_equipment_factor = 0.9
					start_experience_factor = 0.3
				}
				division= {
					name = "246. Infanterie Division"
					location = 3567
					division_template = "Infanterie-Division"
					start_equipment_factor = 0.9
					start_experience_factor = 0.3
				}
				division= {
					name = "305. Infanterie Division"
					location = 7580
					division_template = "Infanterie-Division"
					start_equipment_factor = 0.9
					start_experience_factor = 0.3
				}
				division= {
					name = "715. Infanterie Division"
					location = 5627
					division_template = "Infanterie-Division"
					start_equipment_factor = 0.9
					start_experience_factor = 0.3
				}
			#
		#
		# Army 15 #
			# Corps 32 #
				division= {
					name = "93. Infanterie Division"
					location = 5676
					division_template = "Infanterie-Division"
					start_equipment_factor = 0.9
					start_experience_factor = 0.3
				}
				division= {
					name = "225. Infanterie Division"
					location = 5624
					division_template = "Infanterie-Division"
					start_equipment_factor = 0.9
					start_experience_factor = 0.3
				}
				division= {
					name = "332. Infanterie Division"
					location = 4232
					division_template = "Infanterie-Division"
					start_equipment_factor = 0.9
					start_experience_factor = 0.3
				}
				division= {
					name = "336. Infanterie Division"
					location = 11218
					division_template = "Infanterie-Division"
					start_equipment_factor = 0.9
					start_experience_factor = 0.3
				}
				division= {
					name = "302. Infanterie Division"
					location = 1565
					division_template = "Infanterie-Division"
					start_equipment_factor = 0.9
					start_experience_factor = 0.3
				}
				division= {
					name = "716. Infanterie Division"
					location = 1565
					division_template = "Infanterie-Division"
					start_equipment_factor = 0.9
					start_experience_factor = 0.3
				}
			#
			# Corps 37 #
				division= {
					name = "208. Infanterie Division"
					location = 2689
					division_template = "Infanterie-Division"
					start_equipment_factor = 0.9
					start_experience_factor = 0.3
				}
				division= {
					name = "227. Infanterie Division"
					location = 11222
					division_template = "Infanterie-Division"
					start_equipment_factor = 0.9
					start_experience_factor = 0.3
				}
				division= {
					name = "304. Infanterie Division"
					location = 3008
					division_template = "Infanterie-Division"
					start_equipment_factor = 0.9
					start_experience_factor = 0.3
				}
				division= {
					name = "306. Infanterie Division"
					location = 3008
					division_template = "Infanterie-Division"
					start_equipment_factor = 0.9
					start_experience_factor = 0.3
				}
				division= {
					name = "320. Infanterie Division"
					location = 2193
					division_template = "Infanterie-Division"
					start_equipment_factor = 0.9
					start_experience_factor = 0.3
				}
				division= {
					name = "321. Infanterie Division"
					location = 2193
					division_template = "Infanterie-Division"
					start_equipment_factor = 0.9
					start_experience_factor = 0.3
				}
				division= {
					name = "340. Infanterie Division"
					location = 11223
					division_template = "Infanterie-Division"
					start_equipment_factor = 0.9
					start_experience_factor = 0.3
				}
			#
			# Corps 60 #
				division= {
					name = "83. Infanterie Division"
					location = 4685
					division_template = "Infanterie-Division"
					start_equipment_factor = 0.9
					start_experience_factor = 0.3
				}
				division= {
					name = "216. Infanterie Division"
					location = 4685
					division_template = "Infanterie-Division"
					start_equipment_factor = 0.9
					start_experience_factor = 0.3
				}
				division= {
					name = "319. Infanterie Division"
					location = 5412
					division_template = "Infanterie-Division"
					start_equipment_factor = 0.9
					start_experience_factor = 0.3
				}
				division= {
					name = "323. Infanterie Division"
					location = 2797
					division_template = "Infanterie-Division"
					start_equipment_factor = 0.9
					start_experience_factor = 0.3
				}
			#
			division= {
				name = "96. Infanterie Division"
				location = 11226
				division_template = "Infanterie-Division"
				start_equipment_factor = 0.9
				start_experience_factor = 0.3
			}
			division= {
				name = "711. Infanterie Division"
				location = 1742
				division_template = "Infanterie-Division"
				start_equipment_factor = 0.9
				start_experience_factor = 0.3
			}
		#
		division= {
			name = "82. Infanterie Division"
			location = 5322
			division_template = "Infanterie-Division"
			start_equipment_factor = 0.9
			start_experience_factor = 0.3
		}
		division= {
			name = "719. Infanterie Division"
			location = 10006
			division_template = "Infanterie-Division"
			start_equipment_factor = 0.9
			start_experience_factor = 0.3
		}
	#
	# Wehrmachtbefehlshaber Netherlands #
		division= {
			name = "591. Oberfeldkommandantur"
			location = 5466
			division_template = "Sicherungs-Regiment"
			start_equipment_factor = 0.7
			start_experience_factor = 0.2
		}
		division= {
			name = "610. Feldkommandantur"
			location = 5465
			division_template = "Sicherungs-Regiment"
			start_equipment_factor = 0.7
			start_experience_factor = 0.2
		}
		division= {
			name = "642. Feldkommandantur"
			location = 11225
			division_template = "Sicherungs-Regiment"
			start_equipment_factor = 0.7
			start_experience_factor = 0.2
		}
		division= {
			name = "674. Feldkommandantur"
			location = 5463
			division_template = "Sicherungs-Regiment"
			start_equipment_factor = 0.7
			start_experience_factor = 0.2
		}
		division= {
			name = "724. Feldkommandantur"
			location = 1650
			division_template = "Sicherungs-Regiment"
			start_equipment_factor = 0.7
			start_experience_factor = 0.2
		}
	#
	# Wehrmachtbefehlshaber Norway #
		# Army Finland #
			# Corps 36 #
				division= {
					name = "169. Infanterie Division"
					location = 5020
					division_template = "Infanterie-Division"
					start_equipment_factor = 0.9
					start_experience_factor = 0.3
				}

				division= {
					name = "6. SS Gebirgs-Division"
					location = 1071
					division_template = "Gebirgs-Division"
					start_equipment_factor = 0.9
					start_experience_factor = 0.4
				}
			#
			# Corps Norway #
				division= {
					name = "2. Gebirgs-Division"
					location = 506
					division_template = "Gebirgs-Division"
					start_equipment_factor = 0.9
					start_experience_factor = 0.4
				}

				division= {
					name = "3. Gebirgs-Division"
					location = 4849
					division_template = "Gebirgs-Division"
					start_equipment_factor = 0.9
					start_experience_factor = 0.4
				}
			#
		#
		# Corps 33 #
			division= {
				name = "181. Infanterie Division"
				location = 2032
				division_template = "Infanterie-Division"
				start_equipment_factor = 0.9
				start_experience_factor = 0.3
			}
			division= {
				name = "196. Infanterie Division"
				location = 5110
				division_template = "Infanterie-Division"
				start_equipment_factor = 0.9
				start_experience_factor = 0.3
			}
		#
		# Corps 70 #
			division= {
				name = "69. Infanterie Division"
				location = 4559
				division_template = "Infanterie-Division"
				start_equipment_factor = 0.9
				start_experience_factor = 0.3
			}
			division= {
				name = "163. Infanterie Division"
				location = 4559
				division_template = "Infanterie-Division"
				start_equipment_factor = 0.9
				start_experience_factor = 0.3
			}
			division= {
				name = "214. Infanterie Division"
				location = 2336
				division_template = "Infanterie-Division"
				start_equipment_factor = 0.9
				start_experience_factor = 0.3
			}
			division= {
				name = "710. Infanterie Division"
				location = 2336
				division_template = "Infanterie-Division"
				start_equipment_factor = 0.9
				start_experience_factor = 0.3
			}
		#
		# Corps Rear Area Norway #
			division= {
				name = "199. Infanterie Division"
				location = 686
				division_template = "Infanterie-Division"
				start_equipment_factor = 0.9
				start_experience_factor = 0.3
			}
			division= {
				name = "702. Infanterie Division"
				location = 686
				division_template = "Infanterie-Division"
				start_equipment_factor = 0.9
				start_experience_factor = 0.3
			}
		#
		# Police Commander Norway #
			division= {
				name = "Polizei Nord-Norwegen"
				location = 526
				division_template = "Sicherungs-Regiment"
				start_equipment_factor = 0.7
				start_experience_factor = 0.2
			}
			division= {
				name = "Polizei Süd-Norwegen"
				location = 4167
				division_template = "Sicherungs-Regiment"
				start_equipment_factor = 0.7
				start_experience_factor = 0.2
			}
		#
	#
	# Army South East and 12th Army #
		# Corps Thessaloniki & Aegean Sea #
			division= {
				name = "808. Feldkommandantur"
				location = 4274
				division_template = "Sicherungs-Regiment"
				start_equipment_factor = 0.7
				start_experience_factor = 0.2
			}
		#
		# Corps South Greece #
			division= {
				name = "606. Feldkommandantur"
				location = 7185
				division_template = "Sicherungs-Regiment"
				start_equipment_factor = 0.7
				start_experience_factor = 0.2
			}
			division= {
				name = "5. Gebirgs-Division"
				location = 7185
				division_template = "Gebirgs-Division"
				start_equipment_factor = 0.9
				start_experience_factor = 0.4
			}
			division= { #Not arrived yet
				name = "713. Infanterie Division"
				location = 6017
				division_template = "Infanterie-Division"
				start_equipment_factor = 0.9
				start_experience_factor = 0.3
			}
		#
		# Corps Serbia #
			division= {
				name = "599. Feldkommandantur"
				location = 9968
				division_template = "Sicherungs-Regiment"
				start_equipment_factor = 0.7
				start_experience_factor = 0.2
			}
			division= {
				name = "725. Feldkommandantur"
				location = 6285
				division_template = "Sicherungs-Regiment"
				start_equipment_factor = 0.7
				start_experience_factor = 0.2
			}
			division= {
				name = "809. Feldkommandantur"
				location = 2761
				division_template = "Sicherungs-Regiment"
				start_equipment_factor = 0.7
				start_experience_factor = 0.2
			}
			division= {
				name = "833. Feldkommandantur"
				location = 2216
				division_template = "Sicherungs-Regiment"
				start_equipment_factor = 0.7
				start_experience_factor = 0.2
			}
			division= {
				name = "861. Feldkommandantur"
				location = 6650
				division_template = "Sicherungs-Regiment"
				start_equipment_factor = 0.7
				start_experience_factor = 0.2
			}

			division= {
				name = "266. Landesschützen"
				location = 9968
				division_template = "Sicherungs-Regiment"
				start_equipment_factor = 0.7
				start_experience_factor = 0.2
			}
		#
		# Corps 18 #
			division= {
				name = "164. Infanterie Division"
				location = 6960
				division_template = "Infanterie-Division"
				start_equipment_factor = 0.9
				start_experience_factor = 0.3
			}

			division= {
				name = "6. Gebirgs-Division"
				location = 6960
				division_template = "Gebirgs-Division"
				start_equipment_factor = 0.9
				start_experience_factor = 0.4
			}

			division= {
				name = "257. Landesschützen"
				location = 7670
				division_template = "Sicherungs-Regiment"
				start_equipment_factor = 0.7
				start_experience_factor = 0.2
			}
		#
		# Corps 65 #
			division= {
				name = "704. Infanterie Division"
				location = 7647
				division_template = "Infanterie-Division"
				start_equipment_factor = 0.9
				start_experience_factor = 0.3
			}
			division= {
				name = "714. Infanterie Division"
				location = 3040
				division_template = "Infanterie-Division"
				start_equipment_factor = 0.9
				start_experience_factor = 0.3
			}
			division= {
				name = "717. Infanterie Division"
				location = 4121
				division_template = "Infanterie-Division"
				start_equipment_factor = 0.9
				start_experience_factor = 0.3
			}
			division= {
				name = "718. Infanterie Division"
				location = 2198
				division_template = "Infanterie-Division"
				start_equipment_factor = 0.9
				start_experience_factor = 0.3
			}
		#
	#
	# Army Group North #
		# Army 16 #
			# Corps 2 #
				division= {
					name = "12. Infanterie Division"
					location = 2806
					division_template = "Infanterie-Division"
					start_equipment_factor = 0.9
					start_experience_factor = 0.3
				}
				division= {
					name = "32. Infanterie Division"
					location = 2806
					division_template = "Infanterie-Division"
					start_equipment_factor = 0.9
					start_experience_factor = 0.3
				}
				division= {
					name = "121. Infanterie Division"
					location = 2806
					division_template = "Infanterie-Division"
					start_equipment_factor = 0.9
					start_experience_factor = 0.3
				}
			#
			# Corps 10 #
				division= {
					name = "30. Infanterie Division"
					location = 5209
					division_template = "Infanterie-Division"
					start_equipment_factor = 0.9
					start_experience_factor = 0.3
				}
				division= {
					name = "126. Infanterie Division"
					location = 5209
					division_template = "Infanterie-Division"
					start_equipment_factor = 0.9
					start_experience_factor = 0.3
				}
			#
			# Corps 28 #
				division= {
					name = "58. Infanterie Division"
					location = 4809
					division_template = "Infanterie-Division"
					start_equipment_factor = 0.9
					start_experience_factor = 0.3
				}
			#
			division= {
				name = "253. Infanterie Division"
				location = 4809
				division_template = "Infanterie-Division"
				start_equipment_factor = 0.9
				start_experience_factor = 0.3
			}
		#
		# Army 18 #
			# Corps 1 #
				division= {
					name = "1. Infanterie Division"
					location = 2599
					division_template = "Infanterie-Division"
					start_equipment_factor = 0.9
					start_experience_factor = 0.3
				}
				division= {
					name = "11. Infanterie Division"
					location = 3277
					division_template = "Infanterie-Division"
					start_equipment_factor = 0.9
					start_experience_factor = 0.3
				}
				division= {
					name = "21. Infanterie Division"
					location = 3277
					division_template = "Infanterie-Division"
					start_equipment_factor = 0.9
					start_experience_factor = 0.3
				}
			#
			# Corps 26 #
				division= {
					name = "61. Infanterie Division"
					location = 3822
					division_template = "Infanterie-Division"
					start_equipment_factor = 0.9
					start_experience_factor = 0.3
				}
				division= {
					name = "217. Infanterie Division"
					location = 411
					division_template = "Infanterie-Division"
					start_equipment_factor = 0.9
					start_experience_factor = 0.3
				}
			#
			division= {
				name = "291. Infanterie Division"
				location = 411
				division_template = "Infanterie-Division"
				start_equipment_factor = 0.9
				start_experience_factor = 0.3
			}
		#
		# Panzer Army 4 #
			# Motorised Corps 41 #
				division= {
					name = "1. Panzer Division"
					location = 3277
					division_template = "Mittlere Panzer Division"
					start_equipment_factor = 0.9
					start_experience_factor = 0.3
				}
				division= {
					name = "6. Panzer Division"
					location = 2599
					division_template = "Leichte Panzer Division"
					start_equipment_factor = 0.9
					start_experience_factor = 0.3
				}
				division= {
					name = "36. Motorisierte Infanterie-Division"
					location = 3277
					division_template = "Motorisierte Infanterie-Division"
					start_equipment_factor = 0.9
					start_experience_factor = 0.3
				}
				division= {
					name = "269. Infanterie Division"
					location = 2599
					division_template = "Infanterie-Division"
					start_equipment_factor = 0.9
					start_experience_factor = 0.3
				}
			#
			# Motorised Corps 56 #
				division= {
					name = "8. Panzer Division"
					location = 4660
					division_template = "Leichte Panzer Division"
					start_equipment_factor = 0.9
					start_experience_factor = 0.3
				}
				division= {
					name = "3. Motorisierte Infanterie-Division"
					location = 4660
					division_template = "Motorisierte Infanterie-Division"
					start_equipment_factor = 0.9
					start_experience_factor = 0.3
				}
				division= {
					name = "290. Infanterie Division"
					location = 4660
					division_template = "Infanterie-Division"
					start_equipment_factor = 0.9
					start_experience_factor = 0.3
				}
			#
			division= {
				name = "Motorisierte Infanterie-Division SS-Totenkopf"
				location = 3822
				division_template = "Motorisierte Infanterie-Division"
				start_equipment_factor = 0.9
				start_experience_factor = 0.3
			}
		#
		# Corps 23 #
			division= {
				name = "206. Infanterie Division"
				location = 3277
				division_template = "Infanterie-Division"
				start_equipment_factor = 0.9
				start_experience_factor = 0.3
			}
			division= {
				name = "251. Infanterie Division"
				location = 3277
				division_template = "Infanterie-Division"
				start_equipment_factor = 0.9
				start_experience_factor = 0.3
			}
			division= {
				name = "254. Infanterie Division"
				location = 3822
				division_template = "Infanterie-Division"
				start_equipment_factor = 0.9
				start_experience_factor = 0.3
			}
		#
		# Security Corps 101 #
			division= {
				name = "207. Sicherungs-Division"
				location = 5260
				division_template = "Sicherungs-Division"
				start_equipment_factor = 0.7
				start_experience_factor = 0.2
			}
			division= {
				name = "281. Sicherungs-Division"
				location = 5260
				division_template = "Sicherungs-Division"
				start_equipment_factor = 0.7
				start_experience_factor = 0.2
			}
			division= {
				name = "285. Sicherungs-Division"
				location = 5235
				division_template = "Sicherungs-Division"
				start_equipment_factor = 0.7
				start_experience_factor = 0.2
			}
			division= {
				name = "3. Sicherungs-Regiment"
				location = 5235
				division_template = "Sicherungs-Regiment"
				start_equipment_factor = 0.7
				start_experience_factor = 0.2
			}
		#
	#
	# Army Group Center #
		# Army 4 #
			# Corps 7 #
				division= {
					name = "7. Infanterie Division"
					location = 5271
					division_template = "Infanterie-Division"
					start_equipment_factor = 0.9
					start_experience_factor = 0.3
				}
				division= {
					name = "23. Infanterie Division"
					location = 5271
					division_template = "Infanterie-Division"
					start_equipment_factor = 0.9
					start_experience_factor = 0.3
				}
				division= {
					name = "258. Infanterie Division"
					location = 5271
					division_template = "Infanterie-Division"
					start_equipment_factor = 0.9
					start_experience_factor = 0.3
				}
				division= {
					name = "268. Infanterie Division"
					location = 5271
					division_template = "Infanterie-Division"
					start_equipment_factor = 0.9
					start_experience_factor = 0.3
				}
			#
			# Corps 9 #
				division= {
					name = "137. Infanterie Division"
					location = 2455
					division_template = "Infanterie-Division"
					start_equipment_factor = 0.9
					start_experience_factor = 0.3
				}
				division= {
					name = "263. Infanterie Division"
					location = 2455
					division_template = "Infanterie-Division"
					start_equipment_factor = 0.9
					start_experience_factor = 0.3
				}
				division= {
					name = "292. Infanterie Division"
					location = 2455
					division_template = "Infanterie-Division"
					start_equipment_factor = 0.9
					start_experience_factor = 0.3
				}
			#
			# Corps 13 #
				division= {
					name = "17. Infanterie Division"
					location = 5282
					division_template = "Infanterie-Division"
					start_equipment_factor = 0.9
					start_experience_factor = 0.3
				}
				division= {
					name = "78. Infanterie Division"
					location = 5282
					division_template = "Infanterie-Division"
					start_equipment_factor = 0.9
					start_experience_factor = 0.3
				}
			#
			# Corps 43 #
				division= {
					name = "131. Infanterie Division"
					location = 4619
					division_template = "Infanterie-Division"
					start_equipment_factor = 0.9
					start_experience_factor = 0.3
				}
				division= {
					name = "134. Infanterie Division"
					location = 4619
					division_template = "Infanterie-Division"
					start_equipment_factor = 0.9
					start_experience_factor = 0.3
				}
				division= {
					name = "252. Infanterie Division"
					location = 4619
					division_template = "Infanterie-Division"
					start_equipment_factor = 0.9
					start_experience_factor = 0.3
				}
			#
		#
		# Army 9 #
			# Corps 5 #
				division= {
					name = "5. Infanterie Division"
					location = 9513
					division_template = "Infanterie-Division"
					start_equipment_factor = 0.9
					start_experience_factor = 0.3
				}
				division= {
					name = "35. Infanterie Division"
					location = 9513
					division_template = "Infanterie-Division"
					start_equipment_factor = 0.9
					start_experience_factor = 0.3
				}
			#
			# Corps 6 #
				division= {
					name = "6. Infanterie Division"
					location = 5282
					division_template = "Infanterie-Division"
					start_equipment_factor = 0.9
					start_experience_factor = 0.3
				}
				division= {
					name = "26. Infanterie Division"
					location = 4619
					division_template = "Infanterie-Division"
					start_equipment_factor = 0.9
					start_experience_factor = 0.3
				}
			#
			# Corps 8 #
				division= {
					name = "8. Infanterie Division"
					location = 9513
					division_template = "Infanterie-Division"
					start_equipment_factor = 0.9
					start_experience_factor = 0.3
				}
				division= {
					name = "28. Infanterie Division"
					location = 4936
					division_template = "Infanterie-Division"
					start_equipment_factor = 0.9
					start_experience_factor = 0.3
				}
				division= {
					name = "161. Infanterie Division"
					location = 4936
					division_template = "Infanterie-Division"
					start_equipment_factor = 0.9
					start_experience_factor = 0.3
				}
			#
			# Corps 20 #
				division= {
					name = "162. Infanterie Division"
					location = 4936
					division_template = "Infanterie-Division"
					start_equipment_factor = 0.9
					start_experience_factor = 0.3
				}
				division= {
					name = "256. Infanterie Division"
					location = 4936
					division_template = "Infanterie-Division"
					start_equipment_factor = 0.9
					start_experience_factor = 0.3
				}
			#
		#
		# Panzer Army 2 #
			# Corps 12 #
				division= {
					name = "31. Infanterie Division"
					location = 2532
					division_template = "Infanterie-Division"
					start_equipment_factor = 0.9
					start_experience_factor = 0.3
				}
				division= {
					name = "34. Infanterie Division"
					location = 2532
					division_template = "Infanterie-Division"
					start_equipment_factor = 0.9
					start_experience_factor = 0.3
				}
				division= {
					name = "45. Infanterie Division"
					location = 2532
					division_template = "Infanterie-Division"
					start_equipment_factor = 0.9
					start_experience_factor = 0.3
				}
			#
			# Motorised Corps 24 #
				division= {
					name = "10. Motorisierte Infanterie-Division"
					location = 4936
					division_template = "Motorisierte Infanterie-Division"
					start_equipment_factor = 0.9
					start_experience_factor = 0.3
				}
				division= {
					name = "1. Kavallerie-Division"
					location = 2532
					division_template = "Kavallerie-Division"
					start_equipment_factor = 0.9
					start_experience_factor = 0.3
				}
				division= {
					name = "255. Infanterie Division"
					location = 4936
					division_template = "Infanterie-Division"
					start_equipment_factor = 0.9
					start_experience_factor = 0.3
				}
				division= {
					name = "267. Infanterie Division"
					location = 2532
					division_template = "Infanterie-Division"
					start_equipment_factor = 0.9
					start_experience_factor = 0.3
				}
				division= {
					name = "3. Panzer Division"
					location = 4936
					division_template = "Leichte Panzer Division"
					start_equipment_factor = 0.9
					start_experience_factor = 0.3
				}
				division= {
					name = "4. Panzer Division"
					location = 2532
					division_template = "Leichte Panzer Division"
					start_equipment_factor = 0.9
					start_experience_factor = 0.3
				}
			#
			# Motorised Corps 46 #
				division= {
					name = "Motorisierte Infanterie-Division SS-Das Reich"
					location = 580
					division_template = "Motorisierte Infanterie-Division"
					start_equipment_factor = 0.9
					start_experience_factor = 0.3
				}
				division= {
					name = "Motorisierte Infanterie-Brigade Großdeutschland"
					location = 580
					division_template = "Motorisierte Infanterie-Brigade"
					start_equipment_factor = 0.9
					start_experience_factor = 0.3
				}
				division= {
					name = "10. Panzer Division"
					location = 580
					division_template = "Leichte Panzer Division"
					start_equipment_factor = 0.9
					start_experience_factor = 0.3
				}
			#
			# Motorised Corps 47 #
				division= {
					name = "17. Panzer Division"
					location = 9571
					division_template = "Leichte Panzer Division"
					start_equipment_factor = 0.9
					start_experience_factor = 0.3
				}
				division= {
					name = "18. Panzer Division"
					location = 9571
					division_template = "Leichte Panzer Division"
					start_equipment_factor = 0.9
					start_experience_factor = 0.3
				}
				division= {
					name = "29. Motorisierte Infanterie-Division"
					location = 9571
					division_template = "Motorisierte Infanterie-Division"
					start_equipment_factor = 0.9
					start_experience_factor = 0.3
				}
				division= {
					name = "167. Infanterie Division"
					location = 9571
					division_template = "Infanterie-Division"
					start_equipment_factor = 0.9
					start_experience_factor = 0.3
				}
			#
		#
		# Panzer Army 3 #
			# Motorised Corps 39 #
				division= {
					name = "7. Panzer Division"
					location = 3365
					division_template = "Leichte Panzer Division"
					start_equipment_factor = 0.9
					start_experience_factor = 0.3
				}
				division= {
					name = "20. Panzer Division"
					location = 3365
					division_template = "Leichte Panzer Division"
					start_equipment_factor = 0.9
					start_experience_factor = 0.3
				}
				division= {
					name = "14. Motorisierte Infanterie-Division"
					location = 3365
					division_template = "Motorisierte Infanterie-Division"
					start_equipment_factor = 0.9
					start_experience_factor = 0.3
				}
				division= {
					name = "20. Motorisierte Infanterie-Division"
					location = 3365
					division_template = "Motorisierte Infanterie-Division"
					start_equipment_factor = 0.9
					start_experience_factor = 0.3
				}
			#
			# Motorised Corps 57 #
				division= {
					name = "12. Panzer Division"
					location = 580
					division_template = "Leichte Panzer Division"
					start_equipment_factor = 0.9
					start_experience_factor = 0.3
				}
				division= {
					name = "19. Panzer Division"
					location = 1175
					division_template = "Leichte Panzer Division"
					start_equipment_factor = 0.9
					start_experience_factor = 0.3
				}
				division= {
					name = "18. Motorisierte Infanterie-Division"
					location = 1175
					division_template = "Motorisierte Infanterie-Division"
					start_equipment_factor = 0.9
					start_experience_factor = 0.3
				}
			#
		#
		# Corps 53 #
			division= {
				name = "293. Infanterie Division"
				location = 9571
				division_template = "Infanterie-Division"
				start_equipment_factor = 0.9
				start_experience_factor = 0.3
			}
		#
		# Security Corps 102 #
			division= {
				name = "221. Sicherungs-Division"
				location = 9973
				division_template = "Sicherungs-Division"
				start_equipment_factor = 0.7
				start_experience_factor = 0.2
			}
			division= {
				name = "286. Sicherungs-Division"
				location = 9984
				division_template = "Sicherungs-Division"
				start_equipment_factor = 0.7
				start_experience_factor = 0.2
			}
			division= {
				name = "403. Sicherungs-Division"
				location = 9975
				division_template = "Sicherungs-Division"
				start_equipment_factor = 0.7
				start_experience_factor = 0.2
			}
			division= {
				name = "2. Sicherungs-Regiment"
				location = 9977
				division_template = "Sicherungs-Regiment"
				start_equipment_factor = 0.7
				start_experience_factor = 0.2
			}
		#
	#
	# Army Group South #
		# Army Group Antonescu #
			# Army 3 #
				# Corps 4 #
					division= {
						name = "6. Rumänische Infanterie-division"
						location = 9614
						division_template = "Rumänische Infanterie-division"
						start_equipment_factor = 0.9
						start_experience_factor = 0.3
					}
					division= {
						name = "7. Rumänische Infanterie-division"
						location = 9614
						division_template = "Rumänische Infanterie-division"
						start_equipment_factor = 0.9
						start_experience_factor = 0.3
					}
				#
				# Mountain Corps #
					division= {
						name = "1. Rumänische Gebirgs-division"
						location = 9621
						division_template = "Rumänische Gebirgs-Division"
						start_equipment_factor = 0.9
						start_experience_factor = 0.3
					}
					division= {
						name = "2. Rumänische Gebirgs-division"
						location = 9614
						division_template = "Rumänische Gebirgs-Division"
						start_equipment_factor = 0.9
						start_experience_factor = 0.3
					}
					division= {
						name = "4. Rumänische Gebirgs-division"
						location = 9621
						division_template = "Rumänische Gebirgs-Division"
						start_equipment_factor = 0.9
						start_experience_factor = 0.3
					}
				#
				# Cavalry Corps #
					division= {
						name = "5. Rumänische Kavallerie-division"
						location = 9624
						division_template = "Rumänische Kavallerie-division"
						start_equipment_factor = 0.9
						start_experience_factor = 0.3
					}
					division= {
						name = "8. Rumänische Kavallerie-division"
						location = 1416
						division_template = "Rumänische Kavallerie-division"
						start_equipment_factor = 0.9
						start_experience_factor = 0.3
					}
				#
			#
			# Army 4 #
				# Corps 3 #
					division= {
						name = "Garde Rumänische Infanterie-division"
						location = 9608
						division_template = "Rumänische Infanterie-division"
						start_equipment_factor = 0.9
						start_experience_factor = 0.3
					}
					division= {
						name = "15. Rumänische Infanterie-division"
						location = 9608
						division_template = "Rumänische Infanterie-division"
						start_equipment_factor = 0.9
						start_experience_factor = 0.3
					}
					division= {
						name = "35. Reserve Rumänische Infanterie-division"
						location = 9608
						division_template = "Rumänische Infanterie-division"
						start_equipment_factor = 0.9
						start_experience_factor = 0.3
					}
				#
				# Corps 5 #
					division= {
						name = "21. Rumänische Infanterie-division"
						location = 314
						division_template = "Rumänische Infanterie-division"
						start_equipment_factor = 0.9
						start_experience_factor = 0.3
					}
					division= {
						name = "1. Rumänische Infanterie-division"
						location = 314
						division_template = "Rumänische Infanterie-division"
						start_equipment_factor = 0.5
						start_experience_factor = 0.3
					}
				#
				# Corps 9 #
					division= {
						name = "1. Fortress Rumänische Infanterie-division"
						location = 9621
						division_template = "Rumänische Infanterie-division"
						start_equipment_factor = 0.9
						start_experience_factor = 0.3
					}
				#
			#
			# Corps 2 #
				division= {
					name = "9. Rumänische Infanterie-division"
					location = 9616
					division_template = "Rumänische Infanterie-division"
					start_equipment_factor = 0.9
					start_experience_factor = 0.3
				}
				division= {
					name = "10. Rumänische Infanterie-division"
					location = 9616
					division_template = "Rumänische Infanterie-division"
					start_equipment_factor = 0.9
					start_experience_factor = 0.3
				}
				division= {
					name = "7. Rumänische Kavallerie-division"
					location = 9616
					division_template = "Rumänische Kavallerie-division"
					start_equipment_factor = 0.9
					start_experience_factor = 0.3
				}
			#
			division= {
				name = "11. Rumänische Infanterie-division"
				location = 9608
				division_template = "Rumänische Infanterie-division"
				start_equipment_factor = 0.9
				start_experience_factor = 0.3
			}
		#
		# Army 6 #
			# Corps 17 #
				division= {
					name = "56. Infanterie Division"
					location = 9530
					division_template = "Infanterie-Division"
					start_equipment_factor = 0.9
					start_experience_factor = 0.3
				}
				division= {
					name = "62. Infanterie Division"
					location = 9530
					division_template = "Infanterie-Division"
					start_equipment_factor = 0.9
					start_experience_factor = 0.3
				}
			#
			# Corps 29 #
				division= {
					name = "44. Infanterie Division"
					location = 11270
					division_template = "Infanterie-Division"
					start_equipment_factor = 0.9
					start_experience_factor = 0.3
				}
				division= {
					name = "111. Infanterie Division"
					location = 11270
					division_template = "Infanterie-Division"
					start_equipment_factor = 0.9
					start_experience_factor = 0.3
				}
				division= {
					name = "299. Infanterie Division"
					location = 11270
					division_template = "Infanterie-Division"
					start_equipment_factor = 0.9
					start_experience_factor = 0.3
				}
			#
			# Corps 44 #
				division= {
					name = "9. Infanterie Division"
					location = 9537
					division_template = "Infanterie-Division"
					start_equipment_factor = 0.9
					start_experience_factor = 0.3
				}
				division= {
					name = "297. Infanterie Division"
					location = 9537
					division_template = "Infanterie-Division"
					start_equipment_factor = 0.9
					start_experience_factor = 0.3
				}
			#
			# Corps 55 (reserve) #
				division= {
					name = "168. Infanterie Division"
					location = 1440
					division_template = "Infanterie-Division"
					start_equipment_factor = 0.9
					start_experience_factor = 0.3
				}
				division= {
					name = "75. Infanterie Division"
					location = 1440
					division_template = "Infanterie-Division"
					start_equipment_factor = 0.9
					start_experience_factor = 0.3
				}
			#
			division= {
				name = "298. Infanterie Division"
				location = 1440
				division_template = "Infanterie-Division"
				start_equipment_factor = 0.9
				start_experience_factor = 0.3
			}
		#
		# Army 11 #
			# Corps 11 #
				division= {
					name = "76. Infanterie Division"
					location = 631
					division_template = "Infanterie-Division"
					start_equipment_factor = 0.9
					start_experience_factor = 0.3
				}
				division= {
					name = "239. Infanterie Division"
					location = 631
					division_template = "Infanterie-Division"
					start_equipment_factor = 0.9
					start_experience_factor = 0.3
				}
				division= {
					name = "1. Rumänische Panzer Division"
					location = 9530
					division_template = "Rumänische Panzer Division"
					start_equipment_factor = 0.9
					start_experience_factor = 0.3
				}
				division= {
					name = "6. Rumänische Kavallerie-division"
					location = 9530
					division_template = "Rumänische Kavallerie-division"
					start_equipment_factor = 0.9
					start_experience_factor = 0.3
				}
			#
			# Corps 30 #
				division= {
					name = "198. Infanterie Division"
					location = 9530
					division_template = "Infanterie-Division"
					start_equipment_factor = 0.9
					start_experience_factor = 0.3
				}
				division= {
					name = "8. Rumänische Infanterie-division"
					location = 9614
					division_template = "Rumänische Infanterie-division"
					start_equipment_factor = 0.9
					start_experience_factor = 0.3
				}
				division= {
					name = "13. Rumänische Infanterie-division"
					location = 9614
					division_template = "Rumänische Infanterie-division"
					start_equipment_factor = 0.9
					start_experience_factor = 0.3
				}
				division= {
					name = "14. Rumänische Infanterie-division"
					location = 9614
					division_template = "Rumänische Infanterie-division"
					start_equipment_factor = 0.9
					start_experience_factor = 0.3
				}
			#
			# Corps 54 #
				division= {
					name = "50. Infanterie Division"
					location = 11267
					division_template = "Infanterie-Division"
					start_equipment_factor = 0.9
					start_experience_factor = 0.3
				}
				division= {
					name = "170. Infanterie Division"
					location = 11267
					division_template = "Infanterie-Division"
					start_equipment_factor = 0.9
					start_experience_factor = 0.3
				}
				division= {
					name = "5. Rumänische Infanterie-division"
					location = 11267
					division_template = "Rumänische Infanterie-division"
					start_equipment_factor = 0.9
					start_experience_factor = 0.3
				}
			#
			# German Corps Romania #
				division= {
					name = "72. Infanterie Division"
					location = 9616
					division_template = "Infanterie-Division"
					start_equipment_factor = 0.9
					start_experience_factor = 0.3
				}
				division= {
					name = "108. Sicherungs-Regiment"
					location = 9616
					division_template = "Sicherungs-Regiment"
					start_equipment_factor = 0.7
					start_experience_factor = 0.2
				}
			#
			division= {
				name = "22. Infanterie Division"
				location = 9608
				division_template = "Infanterie-Division"
				start_equipment_factor = 0.9
				start_experience_factor = 0.3
			}
		#
		# Army 17 #
			# Corps 4 #
				division= {
					name = "24. Infanterie Division"
					location = 580
					division_template = "Infanterie-Division"
					start_equipment_factor = 0.9
					start_experience_factor = 0.3
				}
				division= {
					name = "71. Infanterie Division"
					location = 580
					division_template = "Infanterie-Division"
					start_equipment_factor = 0.9
					start_experience_factor = 0.3
				}
				division= {
					name = "262. Infanterie Division"
					location = 580
					division_template = "Infanterie-Division"
					start_equipment_factor = 0.9
					start_experience_factor = 0.3
				}
				division= {
					name = "295. Infanterie Division"
					location = 3365
					division_template = "Infanterie-Division"
					start_equipment_factor = 0.9
					start_experience_factor = 0.3
				}
				division= {
					name = "296. Infanterie Division"
					location = 3365
					division_template = "Infanterie-Division"
					start_equipment_factor = 0.9
					start_experience_factor = 0.3
				}
			#
			# Corps 49 (Mountain) #
				division= {
					name = "68. Infanterie Division"
					location = 5757
					division_template = "Infanterie-Division"
					start_equipment_factor = 0.9
					start_experience_factor = 0.3
				}
				division= {
					name = "257. Infanterie Division"
					location = 5757
					division_template = "Infanterie-Division"
					start_equipment_factor = 0.9
					start_experience_factor = 0.3
				}
				division= {
					name = "1. Gebirgs-Division"
					location = 5757
					division_template = "Gebirgs-Division"
					start_equipment_factor = 0.9
					start_experience_factor = 0.4
				}
			#
			# Corps 52 #
				division= {
					name = "101. Leichte Infanterie Division"
					location = 1175
					division_template = "Leichte Infanterie Division"
					start_equipment_factor = 1
					start_experience_factor = 0.5
				}
				division= {
					name = "Slowakische Motorisierte Brigade"
					location = 1175
					division_template = "Slowakische Motorisierte Brigade"
					start_equipment_factor = 0.8
					start_experience_factor = 0.3
				}
			#
			# Corps Slovakia #
				division= {
					name = "1. Slowakische Infanterie Division"
					location = 5687
					division_template = "Slowakische Infanterie Division"
					start_equipment_factor = 0.7
					start_experience_factor = 0.2
				}
				division= {
					name = "2. Slowakische Infanterie Division"
					location = 5687
					division_template = "Slowakische Infanterie Division"
					start_equipment_factor = 0.7
					start_experience_factor = 0.2
				}
			#
		#
		# Panzer Army 1 #
			# Motorised Corps 3 #
				division= {
					name = "13. Panzer Division"
					location = 1416
					division_template = "Mittlere Panzer Division"
					start_equipment_factor = 0.9
					start_experience_factor = 0.3
				}
				division= {
					name = "14. Panzer Division"
					location = 1416
					division_template = "Mittlere Panzer Division"
					start_equipment_factor = 0.9
					start_experience_factor = 0.3
				}
			#
			# Motorised Corps 14 #
				division= {
					name = "9. Panzer Division"
					location = 9624
					division_template = "Mittlere Panzer Division"
					start_equipment_factor = 0.9
					start_experience_factor = 0.3
				}
				division= {
					name = "Motorisierte Infanterie-Division SS-Wiking"
					location = 9621
					division_template = "Motorisierte Infanterie-Division"
					start_equipment_factor = 0.9
					start_experience_factor = 0.3
				}
			#
			# Motorised Corps 48 #
				division= {
					name = "11. Panzer Division"
					location = 5687
					division_template = "Mittlere Panzer Division"
					start_equipment_factor = 0.9
					start_experience_factor = 0.3
				}
				division= {
					name = "16. Panzer Division"
					location = 5757
					division_template = "Mittlere Panzer Division"
					start_equipment_factor = 0.9
					start_experience_factor = 0.3
				}
				division= {
					name = "57. Infanterie-Division"
					location = 5687
					division_template = "Infanterie-Division"
					start_equipment_factor = 0.9
					start_experience_factor = 0.3
				}
			#
			division= {
				name = "16. Motorisierte Infanterie-Division"
				location = 5687
				division_template = "Motorisierte Infanterie-Division"
				start_equipment_factor = 0.9
				start_experience_factor = 0.3
			}
			division= {
				name = "25. Motorisierte Infanterie-Division"
				location = 5757
				division_template = "Motorisierte Infanterie-Division"
				start_equipment_factor = 0.9
				start_experience_factor = 0.3
			}
			division= {
				name = "Motorisierte Infanterie-Division SS-LSSAH"
				location = 5757
				division_template = "Motorisierte Infanterie-Division"
				start_equipment_factor = 0.9
				start_experience_factor = 0.3
			}
		#
		# Security Corps 103 #
			division= {
				name = "213. Sicherungs-Division"
				location = 9514
				division_template = "Sicherungs-Division"
				start_equipment_factor = 0.7
				start_experience_factor = 0.2
			}
			division= {
				name = "444. Sicherungs-Division"
				location = 9514
				division_template = "Sicherungs-Division"
				start_equipment_factor = 0.7
				start_experience_factor = 0.2
			}
			division= {
				name = "454. Sicherungs-Division"
				location = 9514
				division_template = "Sicherungs-Division"
				start_equipment_factor = 0.7
				start_experience_factor = 0.2
			}
			division= {
				name = "4. Sicherungs-Regiment"
				location = 9514
				division_template = "Sicherungs-Regiment"
				start_equipment_factor = 0.7
				start_experience_factor = 0.2
			}
		#
		division= {
			name = "99. Leichte Infanterie Division"
			location = 1175
			division_template = "Leichte Infanterie Division"
			start_equipment_factor = 1
			start_experience_factor = 0.5
		}
	#
	# Army Group Eastern Front Reserves (further back) #
		# Corps 50 (Behind Army Group North) #
			division= {
				name = "86. Infanterie-Division"
				location = 4092
				division_template = "Infanterie-Division"
				start_equipment_factor = 0.9
				start_experience_factor = 0.3
			}
			division= {
				name = "Polizei"
				location = 4092
				division_template = "Sicherungs-Regiment"
				start_equipment_factor = 0.7
				start_experience_factor = 0.2
			}
		#
		# Behind Army Group Center
			# Army 2 #
				division= {
					name = "9460. Sicherungs-Division"
					location = 4167
					division_template = "Sicherungs-Division"
					start_equipment_factor = 0.7
					start_experience_factor = 0.2
				}
			#
			# Corps 35 (Army 4) #
				division= {
					name = "15. Infanterie-Division"
					location = 9576
					division_template = "Infanterie-Division"
					start_equipment_factor = 0.9
					start_experience_factor = 0.3
				}
				division= {
					name = "112. Infanterie-Division"
					location = 9576
					division_template = "Infanterie-Division"
					start_equipment_factor = 0.9
					start_experience_factor = 0.3
				}
				division= {
					name = "197. Infanterie-Division"
					location = 9576
					division_template = "Infanterie-Division"
					start_equipment_factor = 0.9
					start_experience_factor = 0.3
				}
			#
			# Corps 42 (Army 9) #
				division= {
					name = "87. Infanterie-Division"
					location = 9576
					division_template = "Infanterie-Division"
					start_equipment_factor = 0.9
					start_experience_factor = 0.3
				}
				division= {
					name = "102. Infanterie-Division"
					location = 9576
					division_template = "Infanterie-Division"
					start_equipment_factor = 0.9
					start_experience_factor = 0.3
				}
				division= {
					name = "129. Infanterie-Division"
					location = 9576
					division_template = "Infanterie-Division"
					start_equipment_factor = 0.9
					start_experience_factor = 0.3
				}
				division= {
					name = "106. Infanterie-Division"
					location = 9576
					division_template = "Infanterie-Division"
					start_equipment_factor = 0.9
					start_experience_factor = 0.3
				}
				division= {
					name = "110. Infanterie-Division"
					location = 9576
					division_template = "Infanterie-Division"
					start_equipment_factor = 0.9
					start_experience_factor = 0.3
				}
				division= {
					name = "SS Sicherungs-Regiment"
					location = 9576
					division_template = "Sicherungs-Regiment"
					start_equipment_factor = 0.7
					start_experience_factor = 0.2
				}
			#
			division= {
				name = "52. Infanterie-Division"
				location = 5301
				division_template = "Infanterie-Division"
				start_equipment_factor = 0.9
				start_experience_factor = 0.3
			}
		#
		# Behind Army Group South #
			# Corps 34 #
				division= {
					name = "132. Infanterie-Division"
					location = 2564
					division_template = "Infanterie-Division"
					start_equipment_factor = 0.9
					start_experience_factor = 0.3
				}
			#
			# Corps 51 (Army 12) #
				division= {
					name = "79. Infanterie-Division"
					location = 9969
					division_template = "Infanterie-Division"
					start_equipment_factor = 0.9
					start_experience_factor = 0.3
				}
				division= {
					name = "95. Infanterie-Division"
					location = 9969
					division_template = "Infanterie-Division"
					start_equipment_factor = 0.9
					start_experience_factor = 0.3
				}
				division= {
					name = "113. Infanterie-Division"
					location = 9969
					division_template = "Infanterie-Division"
					start_equipment_factor = 0.9
					start_experience_factor = 0.3
				}
			#

			division= {
				name = "4. Gebirgs-Division"
				location = 2223
				division_template = "Gebirgs-Division"
				start_equipment_factor = 0.9
				start_experience_factor = 0.4
			}
			division= {
				name = "125. Infanterie-Division"
				location = 9493
				division_template = "Infanterie-Division"
				start_equipment_factor = 0.9
				start_experience_factor = 0.3
			}
		#
	#
	# Corps Africa #
		division= {
			name = "5. Leichte Division"
			location = 4353
			division_template = "Mittlere Panzer Division"
			start_equipment_factor = 0.5
			start_experience_factor = 0.4
		}
		division= {
			name = "15. Panzer Division"
			location = 787
			division_template = "Leichte Panzer Division"
			start_equipment_factor = 0.8
			start_experience_factor = 0.4
		}
		division= {
			name = "361. Infanterie-Division"
			location = 2377
			division_template = "Infanterie-Division"
			start_equipment_factor = 0.7
			start_experience_factor = 0.3
		}
	#
	# Militährbefehlshaber Belgium and North France #
		division= {
			name = "682. Feldkommandantur"
			location = 5596
			division_template = "Sicherungs-Regiment"
			start_equipment_factor = 0.7
			start_experience_factor = 0.2
		}
		division= {
			name = "614. Feldkommandantur"
			location = 4924
			division_template = "Sicherungs-Regiment"
			start_equipment_factor = 0.7
			start_experience_factor = 0.2
		}
		division= {
			name = "22. Landesschützen"
			location = 4899
			division_template = "Sicherungs-Regiment"
			start_equipment_factor = 0.7
			start_experience_factor = 0.2
		}

		division= {
			name = "578. Feldkommandantur"
			location = 5527
			division_template = "Sicherungs-Regiment"
			start_equipment_factor = 0.7
			start_experience_factor = 0.2
		}
		division= {
			name = "630. Feldkommandantur"
			location = 1639
			division_template = "Sicherungs-Regiment"
			start_equipment_factor = 0.7
			start_experience_factor = 0.2
		}
		division= {
			name = "627. Landesschützen"
			location = 5527
			division_template = "Sicherungs-Regiment"
			start_equipment_factor = 0.7
			start_experience_factor = 0.2
		}

		division= {
			name = "598. Feldkommandantur"
			location = 5649
			division_template = "Sicherungs-Regiment"
			start_equipment_factor = 0.7
			start_experience_factor = 0.2
		}
		division= {
			name = "644. Feldkommandantur"
			location = 1579
			division_template = "Sicherungs-Regiment"
			start_equipment_factor = 0.7
			start_experience_factor = 0.2
		}

		division= {
			name = "678. Feldkommandantur"
			location = 4899
			division_template = "Sicherungs-Regiment"
			start_equipment_factor = 0.7
			start_experience_factor = 0.2
		}
		division= {
			name = "714. Feldkommandantur"
			location = 2689
			division_template = "Sicherungs-Regiment"
			start_equipment_factor = 0.7
			start_experience_factor = 0.2
		}
		division= {
			name = "635. Feldkommandantur"
			location = 5597
			division_template = "Sicherungs-Regiment"
			start_equipment_factor = 0.7
			start_experience_factor = 0.2
		}
		division= {
			name = "772. Landesschützen"
			location = 11218
			division_template = "Sicherungs-Regiment"
			start_equipment_factor = 0.7
			start_experience_factor = 0.2
		}

		division= {
			name = "520. Feldkommandantur"
			location = 2242
			division_template = "Sicherungs-Regiment"
			start_equipment_factor = 0.7
			start_experience_factor = 0.2
		}
		division= {
			name = "681. Feldkommandantur"
			location = 2940
			division_template = "Sicherungs-Regiment"
			start_equipment_factor = 0.7
			start_experience_factor = 0.2
		}
		division= {
			name = "689. Feldkommandantur"
			location = 5545
			division_template = "Sicherungs-Regiment"
			start_equipment_factor = 0.7
			start_experience_factor = 0.2
		}
		division= {
			name = "115. Landesschützen"
			location = 244
			division_template = "Sicherungs-Regiment"
			start_equipment_factor = 0.7
			start_experience_factor = 0.2
		}
	#
	# Militährbefehlshaber France #
		# District A #
			division= {
				name = "515. Feldkommandantur"
				location = 7639
				division_template = "Sicherungs-Regiment"
				start_equipment_factor = 0.6
				start_experience_factor = 0.2
			}
			division= {
				name = "517. Feldkommandantur"
				location = 4951
				division_template = "Sicherungs-Regiment"
				start_equipment_factor = 0.6
				start_experience_factor = 0.2
			}
			division= {
				name = "580. Feldkommandantur"
				location = 2726
				division_template = "Sicherungs-Regiment"
				start_equipment_factor = 0.6
				start_experience_factor = 0.2
			}
			division= {
				name = "589. Feldkommandantur"
				location = 5991
				division_template = "Sicherungs-Regiment"
				start_equipment_factor = 0.6
				start_experience_factor = 0.2
			}
			division= {
				name = "602. Feldkommandantur"
				location = 2863
				division_template = "Sicherungs-Regiment"
				start_equipment_factor = 0.6
				start_experience_factor = 0.2
			}
			division= {
				name = "668. Feldkommandantur"
				location = 1341
				division_template = "Sicherungs-Regiment"
				start_equipment_factor = 0.6
				start_experience_factor = 0.2
			}
			division= {
				name = "680. Feldkommandantur"
				location = 4627
				division_template = "Sicherungs-Regiment"
				start_equipment_factor = 0.6
				start_experience_factor = 0.2
			}
			division= {
				name = "684. Feldkommandantur"
				location = 5680
				division_template = "Sicherungs-Regiment"
				start_equipment_factor = 0.6
				start_experience_factor = 0.2
			}
			division= {
				name = "722. Feldkommandantur"
				location = 3567
				division_template = "Sicherungs-Regiment"
				start_equipment_factor = 0.6
				start_experience_factor = 0.2
			}
			division= {
				name = "723. Feldkommandantur"
				location = 7580
				division_template = "Sicherungs-Regiment"
				start_equipment_factor = 0.6
				start_experience_factor = 0.2
			}
			division= {
				name = "751. Feldkommandantur"
				location = 3946
				division_template = "Sicherungs-Regiment"
				start_equipment_factor = 0.6
				start_experience_factor = 0.2
			}
			division= {
				name = "753. Feldkommandantur"
				location = 5797
				division_template = "Sicherungs-Regiment"
				start_equipment_factor = 0.6
				start_experience_factor = 0.2
			}
			division= {
				name = "754. Feldkommandantur"
				location = 5872
				division_template = "Sicherungs-Regiment"
				start_equipment_factor = 0.6
				start_experience_factor = 0.2
			}

			division= {
				name = "44. Landesschützen"
				location = 5676
				division_template = "Sicherungs-Regiment"
				start_equipment_factor = 0.7
				start_experience_factor = 0.2
			}
			division= {
				name = "66. Landesschützen"
				location = 5737
				division_template = "Sicherungs-Regiment"
				start_equipment_factor = 0.7
				start_experience_factor = 0.2
			}
			division= {
				name = "94. Landesschützen"
				location = 4781
				division_template = "Sicherungs-Regiment"
				start_equipment_factor = 0.7
				start_experience_factor = 0.2
			}
		#
		# District B #
			division= {
				name = "518. Feldkommandantur"
				location = 3502
				division_template = "Sicherungs-Regiment"
				start_equipment_factor = 0.6
				start_experience_factor = 0.2
			}
			division= {
				name = "588. Feldkommandantur"
				location = 3973
				division_template = "Sicherungs-Regiment"
				start_equipment_factor = 0.6
				start_experience_factor = 0.2
			}
			division= {
				name = "605. Feldkommandantur"
				location = 2766
				division_template = "Sicherungs-Regiment"
				start_equipment_factor = 0.6
				start_experience_factor = 0.2
			}
			division= {
				name = "677. Feldkommandantur"
				location = 2299
				division_template = "Sicherungs-Regiment"
				start_equipment_factor = 0.6
				start_experience_factor = 0.2
			}
			division= {
				name = "748. Feldkommandantur"
				location = 4132
				division_template = "Sicherungs-Regiment"
				start_equipment_factor = 0.6
				start_experience_factor = 0.2
			}
			division= {
				name = "750. Feldkommandantur"
				location = 5931
				division_template = "Sicherungs-Regiment"
				start_equipment_factor = 0.6
				start_experience_factor = 0.2
			}
			division= {
				name = "752. Feldkommandantur"
				location = 9970
				division_template = "Sicherungs-Regiment"
				start_equipment_factor = 0.6
				start_experience_factor = 0.2
			}
			division= {
				name = "755. Feldkommandantur"
				location = 5941
				division_template = "Sicherungs-Regiment"
				start_equipment_factor = 0.6
				start_experience_factor = 0.2
			}
			division= {
				name = "756. Feldkommandantur"
				location = 2454
				division_template = "Sicherungs-Regiment"
				start_equipment_factor = 0.6
				start_experience_factor = 0.2
			}
			division= {
				name = "582. Landesschützen"
				location = 6048
				division_template = "Sicherungs-Regiment"
				start_equipment_factor = 0.7
				start_experience_factor = 0.2
			}
			division= {
				name = "658. Landesschützen"
				location = 6034
				division_template = "Sicherungs-Regiment"
				start_equipment_factor = 0.7
				start_experience_factor = 0.2
			}
			division= {
				name = "579. Landesschützen"
				location = 6011
				division_template = "Sicherungs-Regiment"
				start_equipment_factor = 0.7
				start_experience_factor = 0.2
			}
			division= {
				name = "459. Landesschützen"
				location = 4132
				division_template = "Sicherungs-Regiment"
				start_equipment_factor = 0.7
				start_experience_factor = 0.2
			}
			division= {
				name = "453. Landesschützen"
				location = 5931
				division_template = "Sicherungs-Regiment"
				start_equipment_factor = 0.7
				start_experience_factor = 0.2
			}
			division= {
				name = "388. Landesschützen"
				location = 9970
				division_template = "Sicherungs-Regiment"
				start_equipment_factor = 0.7
				start_experience_factor = 0.2
			}
		#
		# District C #
			division= {
				name = "509. Feldkommandantur"
				location = 1064
				division_template = "Sicherungs-Regiment"
				start_equipment_factor = 0.6
				start_experience_factor = 0.2
			}
			division= {
				name = "516. Feldkommandantur"
				location = 1810
				division_template = "Sicherungs-Regiment"
				start_equipment_factor = 0.6
				start_experience_factor = 0.2
			}
			division= {
				name = "531. Feldkommandantur"
				location = 3398
				division_template = "Sicherungs-Regiment"
				start_equipment_factor = 0.6
				start_experience_factor = 0.2
			}
			division= {
				name = "550. Feldkommandantur"
				location = 5973
				division_template = "Sicherungs-Regiment"
				start_equipment_factor = 0.6
				start_experience_factor = 0.2
			}
			division= {
				name = "560. Feldkommandantur"
				location = 6090
				division_template = "Sicherungs-Regiment"
				start_equipment_factor = 0.6
				start_experience_factor = 0.2
			}
			division= {
				name = "568. Feldkommandantur"
				location = 3382
				division_template = "Sicherungs-Regiment"
				start_equipment_factor = 0.6
				start_experience_factor = 0.2
			}
			division= {
				name = "590. Feldkommandantur"
				location = 5889
				division_template = "Sicherungs-Regiment"
				start_equipment_factor = 0.6
				start_experience_factor = 0.2
			}
			division= {
				name = "591. Feldkommandantur"
				location = 5900
				division_template = "Sicherungs-Regiment"
				start_equipment_factor = 0.6
				start_experience_factor = 0.2
			}
			division= {
				name = "669. Feldkommandantur"
				location = 1772
				division_template = "Sicherungs-Regiment"
				start_equipment_factor = 0.6
				start_experience_factor = 0.2
			}
			division= {
				name = "620. Feldkommandantur"
				location = 6147
				division_template = "Sicherungs-Regiment"
				start_equipment_factor = 0.6
				start_experience_factor = 0.2
			}
			division= {
				name = "745. Landesschützen"
				location = 1663
				division_template = "Sicherungs-Regiment"
				start_equipment_factor = 0.7
				start_experience_factor = 0.2
			}
			division= {
				name = "385. Landesschützen"
				location = 3398
				division_template = "Sicherungs-Regiment"
				start_equipment_factor = 0.7
				start_experience_factor = 0.2
			}
		#
		# District Bordeaux #
			division= {
				name = "529. Feldkommandantur"
				location = 6405
				division_template = "Sicherungs-Regiment"
				start_equipment_factor = 0.6
				start_experience_factor = 0.2
			}
			division= {
				name = "540. Feldkommandantur"
				location = 6196
				division_template = "Sicherungs-Regiment"
				start_equipment_factor = 0.6
				start_experience_factor = 0.2
			}
			division= {
				name = "541. Feldkommandantur"
				location = 1909
				division_template = "Sicherungs-Regiment"
				start_equipment_factor = 0.6
				start_experience_factor = 0.2
			}
			division= {
				name = "722. Landesschützen"
				location = 6280
				division_template = "Sicherungs-Regiment"
				start_equipment_factor = 0.7
				start_experience_factor = 0.2
			}
			division= {
				name = "222. Landesschützen"
				location = 6265
				division_template = "Sicherungs-Regiment"
				start_equipment_factor = 0.7
				start_experience_factor = 0.2
			}
		#
		division= {
			name = "Feldkommandantur Groß-Paris"
			location = 4648
			division_template = "Sicherungs-Regiment"
			start_equipment_factor = 0.6
			start_experience_factor = 0.2
		}
	#
	# Militährbefehlshaber Poland #
		division= {
			name = "365. Feldkommandantur"
			location = 9460
			division_template = "Sicherungs-Regiment"
			start_equipment_factor = 0.6
			start_experience_factor = 0.2
		}
		division= {
			name = "372. Feldkommandantur"
			location = 9977
			division_template = "Sicherungs-Regiment"
			start_equipment_factor = 0.6
			start_experience_factor = 0.2
		}
		division= {
			name = "379. Feldkommandantur"
			location = 9984
			division_template = "Sicherungs-Regiment"
			start_equipment_factor = 0.6
			start_experience_factor = 0.2
		}
		division= {
			name = "393. Feldkommandantur"
			location = 9510
			division_template = "Sicherungs-Regiment"
			start_equipment_factor = 0.6
			start_experience_factor = 0.2
		}
	#
	# Army Replacement #
		# Corps Replacement 1 #
			division= {
				name = "141. Reserve Division"
				location = 9972
				division_template = "Infanterie-Division"
				start_equipment_factor = 0.75
				start_experience_factor = 0.2
			}
			division= {
				name = "151. Reserve Division"
				location = 9459
				division_template = "Infanterie-Division"
				start_equipment_factor = 0.75
				start_experience_factor = 0.2
			}
			division= {
				name = "401. Reserve Sicherungs-Division"
				location = 4628
				division_template = "Sicherungs-Division"
				start_equipment_factor = 0.75
				start_experience_factor = 0.2
			}
		#
		# Corps Replacement 2 #
			division= {
				name = "152. Reserve Division"
				location = 1527
				division_template = "Infanterie-Division"
				start_equipment_factor = 0.75
				start_experience_factor = 0.2
			}
			division= {
				name = "192. Reserve Division"
				location = 5290
				division_template = "Infanterie-Division"
				start_equipment_factor = 0.75
				start_experience_factor = 0.2
			}
			division= {
				name = "402. Reserve Sicherungs-Division"
				location = 3425
				division_template = "Sicherungs-Division"
				start_equipment_factor = 0.75
				start_experience_factor = 0.2
			}
		#
		# Corps Replacement 3 #
			division= {
				name = "143. Reserve Division"
				location = 4127
				division_template = "Infanterie-Division"
				start_equipment_factor = 1
				start_experience_factor = 0.2
			}
			division= {
				name = "153. Reserve Division"
				location = 4896
				division_template = "Infanterie-Division"
				start_equipment_factor = 1
				start_experience_factor = 0.2
			}
		#
		# Corps Replacement 4 #
			division= {
				name = "154. Reserve Division"
				location = 5546
				division_template = "Infanterie-Division"
				start_equipment_factor = 0.75
				start_experience_factor = 0.2
			}
			division= {
				name = "174. Reserve Division"
				location = 3473
				division_template = "Infanterie-Division"
				start_equipment_factor = 0.75
				start_experience_factor = 0.2
			}
			division= {
				name = "404. Reserve Sicherungs-Division"
				location = 5510
				division_template = "Sicherungs-Division"
				start_equipment_factor = 0.75
				start_experience_factor = 0.2
			}
		#
		# Corps Replacement 5 #
			division= {
				name = "155. Reserve Division"
				location = 4615
				division_template = "Infanterie-Division"
				start_equipment_factor = 0.75
				start_experience_factor = 0.2
			}
			division= {
				name = "158. Reserve Division"
				location = 5946
				division_template = "Infanterie-Division"
				start_equipment_factor = 0.75
				start_experience_factor = 0.2
			}
			division= {
				name = "165. Reserve Division"
				location = 2496
				division_template = "Infanterie-Division"
				start_equipment_factor = 0.75
				start_experience_factor = 0.2
			}
			division= {
				name = "405. Reserve Sicherungs-Division"
				location = 1734
				division_template = "Sicherungs-Division"
				start_equipment_factor = 0.75
				start_experience_factor = 0.2
			}
		#
		# Corps Replacement 6 #
			division= {
				name = "156. Reserve Division"
				location = 5552
				division_template = "Infanterie-Division"
				start_equipment_factor = 0.75
				start_experience_factor = 0.2
			}
			division= {
				name = "166. Reserve Division"
				location = 5545
				division_template = "Infanterie-Division"
				start_equipment_factor = 0.75
				start_experience_factor = 0.2
			}
			division= {
				name = "526. Reserve Division"
				location = 4053
				division_template = "Infanterie-Division"
				start_equipment_factor = 0.75
				start_experience_factor = 0.2
			}
			division= {
				name = "106. Reserve Division"
				location = 5568
				division_template = "Infanterie-Division"
				start_equipment_factor = 0.75
				start_experience_factor = 0.2
			}
			division= {
				name = "404. Reserve Sicherungs-Division"
				location = 1743
				division_template = "Sicherungs-Division"
				start_equipment_factor = 0.75
				start_experience_factor = 0.2
			}
		#
		# Corps Replacement 7 #
			division= {
				name = "147. Reserve Division"
				location = 5998
				division_template = "Infanterie-Division"
				start_equipment_factor = 0.75
				start_experience_factor = 0.2
			}
			division= {
				name = "157. Reserve Division"
				location = 6017
				division_template = "Infanterie-Division"
				start_equipment_factor = 0.75
				start_experience_factor = 0.2
			}
			division= {
				name = "407. Reserve Sicherungs-Division"
				location = 6017
				division_template = "Sicherungs-Division"
				start_equipment_factor = 0.75
				start_experience_factor = 0.2
			}

			division= {
				name = "2. Panzer Division"
				location = 6017
				division_template = "Leichte Panzer Division"
				start_equipment_factor = 0.9
				start_experience_factor = 0.3
			}
			division= {
				name = "707. Infanterie-Division"
				location = 6017
				division_template = "Infanterie-Division"
				start_equipment_factor = 0.9
				start_experience_factor = 0.3
			}
		#
		# Corps Replacement 8 #
			division= {
				name = "178. Reserve Division"
				location = 2041
				division_template = "Infanterie-Division"
				start_equipment_factor = 0.75
				start_experience_factor = 0.2
			}
			division= {
				name = "408. Reserve Sicherungs-Division"
				location = 5548
				division_template = "Sicherungs-Division"
				start_equipment_factor = 0.75
				start_experience_factor = 0.2
			}
			division= {
				name = "432. Reserve Sicherungs-Division"
				location = 2986
				division_template = "Sicherungs-Division"
				start_equipment_factor = 0.75
				start_experience_factor = 0.2
			}
		#
		# Corps Replacement 9 #
			division= {
				name = "159. Reserve Division"
				location = 2200
				division_template = "Infanterie-Division"
				start_equipment_factor = 1
				start_experience_factor = 0.2
			}
			division= {
				name = "179. Reserve Division"
				location = 2666
				division_template = "Infanterie-Division"
				start_equipment_factor = 1
				start_experience_factor = 0.2
			}
			division= {
				name = "409. Reserve Sicherungs-Division"
				location = 5516
				division_template = "Sicherungs-Division"
				start_equipment_factor = 0.75
				start_experience_factor = 0.2
			}
		#
		# Corps Replacement 10 #
			division= {
				name = "180. Reserve Division"
				location = 10012
				division_template = "Infanterie-Division"
				start_equipment_factor = 0.75
				start_experience_factor = 0.2
			}
			division= {
				name = "190. Reserve Division"
				location = 10012
				division_template = "Infanterie-Division"
				start_equipment_factor = 0.75
				start_experience_factor = 0.2
			}
			division= {
				name = "410. Reserve Sicherungs-Division"
				location = 1154
				division_template = "Sicherungs-Division"
				start_equipment_factor = 0.75
				start_experience_factor = 0.2
			}
		#
		# Corps Replacement 11 #
			division= {
				name = "171. Reserve Division"
				location = 3186
				division_template = "Infanterie-Division"
				start_equipment_factor = 0.75
				start_experience_factor = 0.2
			}
			division= {
				name = "191. Reserve Division"
				location = 3186
				division_template = "Infanterie-Division"
				start_equipment_factor = 0.75
				start_experience_factor = 0.2
			}
			division= {
				name = "411. Reserve Sicherungs-Division"
				location = 3857
				division_template = "Sicherungs-Division"
				start_equipment_factor = 0.75
				start_experience_factor = 0.2
			}
		#
		# Corps Replacement 12 #
			division= {
				name = "148. Reserve Division"
				location = 5805
				division_template = "Infanterie-Division"
				start_equipment_factor = 0.75
				start_experience_factor = 0.2
			}
			division= {
				name = "172. Reserve Division"
				location = 4323
				division_template = "Infanterie-Division"
				start_equipment_factor = 0.75
				start_experience_factor = 0.2
			}
			division= {
				name = "112. Infanterie-Division"
				location = 5805
				division_template = "Infanterie-Division"
				start_equipment_factor = 0.9
				start_experience_factor = 0.3
			}
			division= {
				name = "197. Infanterie-Division"
				location = 5805
				division_template = "Infanterie-Division"
				start_equipment_factor = 0.9
				start_experience_factor = 0.3
			}
		#
		# Corps Replacement 13 #
			division= {
				name = "173. Reserve Division"
				location = 1465
				division_template = "Infanterie-Division"
				start_equipment_factor = 0.75
				start_experience_factor = 0.2
			}
			division= {
				name = "193. Reserve Division"
				location = 5735
				division_template = "Infanterie-Division"
				start_equipment_factor = 0.75
				start_experience_factor = 0.2
			}
			division= {
				name = "413. Reserve Sicherungs-Division"
				location = 4810
				division_template = "Sicherungs-Division"
				start_equipment_factor = 0.75
				start_experience_factor = 0.2
			}
			division= {
				name = "113. Infanterie-Division"
				location = 1465
				division_template = "Infanterie-Division"
				start_equipment_factor = 0.9
				start_experience_factor = 0.3
			}
			division= {
				name = "713. Infanterie-Division"
				location = 1465
				division_template = "Infanterie-Division"
				start_equipment_factor = 0.9
				start_experience_factor = 0.3
			}
		#
		# Corps Replacement 17 #
			division= {
				name = "177. Reserve Division"
				location = 9963
				division_template = "Infanterie-Division"
				start_equipment_factor = 1
				start_experience_factor = 0.2
			}
			division= {
				name = "187. Reserve Division"
				location = 4197
				division_template = "Infanterie-Division"
				start_equipment_factor = 1
				start_experience_factor = 0.2
			}
			division= {
				name = "417. Reserve Sicherungs-Division"
				location = 9963
				division_template = "Sicherungs-Division"
				start_equipment_factor = 0.75
				start_experience_factor = 0.2
			}
		#
		# Corps Replacement 18 #
			division= {
				name = "188. Reserve Division"
				location = 2728
				division_template = "Infanterie-Division"
				start_equipment_factor = 0.75
				start_experience_factor = 0.2
			}
			division= {
				name = "79. Infanterie-Division"
				location = 2728
				division_template = "Infanterie-Division"
				start_equipment_factor = 0.9
				start_experience_factor = 0.3
			}
		#
		# Corps Replacement 20 #
			division= {
				name = "156. Reserve Division"
				location = 1161
				division_template = "Infanterie-Division"
				start_equipment_factor = 0.75
				start_experience_factor = 0.2
			}
		#
		# Corps Replacement 21 #
			division= {
				name = "429. Reserve Sicherungs-Regiment"
				location = 3577
				division_template = "Sicherungs-Regiment"
				start_equipment_factor = 0.75
				start_experience_factor = 0.2
			}
			division= {
				name = "431. Reserve Sicherungs-Regiment"
				location = 5428
				division_template = "Sicherungs-Regiment"
				start_equipment_factor = 0.75
				start_experience_factor = 0.2
			}
		#
		# Corps Replacement Böhmen & Mähren #
			division= {
				name = "539. Reserve Sicherungs-Division"
				location = 9972
				division_template = "Sicherungs-Division"
				start_equipment_factor = 0.75
				start_experience_factor = 0.2
			}
		#
		# Corps Replacement Denmark #
			division= {
				name = "218. Infanterie-Division"
				location = 5202
				division_template = "Infanterie-Division"
				start_equipment_factor = 0.9
				start_experience_factor = 0.3
			}
			division= {
				name = "160. Reserve Division"
				location = 1796
				division_template = "Infanterie-Division"
				start_equipment_factor = 0.75
				start_experience_factor = 0.2
			}
		#
	#
}

instant_effect = {

}
