﻿division_template = {
	name = "Infanteriet Divisjon"
	division_names_group = NOR_INF_01

	regiments = {
		infantry = { x = 0 y = 0 }
		infantry = { x = 0 y = 1 }
		infantry = { x = 0 y = 2 }
		infantry = { x = 1 y = 0 }
		infantry = { x = 1 y = 1 }
		infantry = { x = 1 y = 2 }
		infantry = { x = 2 y = 0 }
		infantry = { x = 2 y = 1 }
		infantry = { x = 2 y = 2 }
	}
	support = {
		engineer = { x = 0 y = 0 }
	}
}
division_template = {
	name = "Binær Divisjon"
	division_names_group = NOR_INF_01

	regiments = {
		infantry = { x = 0 y = 0 }
		infantry = { x = 0 y = 1 }
		infantry = { x = 0 y = 2 }
		infantry = { x = 1 y = 0 }
		infantry = { x = 1 y = 1 }
		infantry = { x = 1 y = 2 }
	}
	support = {
		recon = { x = 0 y = 0 }
	}
}
division_template = {
	name = "Dragonregiment"
	division_names_group = NOR_CAV_01

	regiments = {
		cavalry = { x = 0 y = 0 }
		cavalry = { x = 0 y = 1 }
		cavalry = { x = 0 y = 2 }
	}
}


units = {
	######## LAND UNITS ########
	##### Kongelige Norwegan Overkommando #####
	division = { # "1. Divisjon"
		division_name = {
				is_name_ordered = yes
				name_order = 1
		}
		location = 4167
		division_template = "Infanteriet Divisjon"
		start_experience_factor = 0.2
		start_equipment_factor = 0.3

	}
	division = {
		name = "1. Dragonregiment"
		location = 4167
		division_template = "Dragonregiment"
		start_experience_factor = 0.2
		start_equipment_factor = 0.3

	}

	division = { # "2. Divisjon"
		division_name = {
				is_name_ordered = yes
				name_order = 2
		}
		location = 4167
		division_template = "Binær Divisjon"
		start_experience_factor = 0.2
		start_equipment_factor = 0.3

	}
	division = {
		name = "2. Dragonregiment"
		location = 4167
		division_template = "Dragonregiment"
		start_experience_factor = 0.2
		start_equipment_factor = 0.3

	}

	division = { # "3. Divisjon"
		division_name = {
				is_name_ordered = yes
				name_order = 3
		}
		location = 4167
		division_template = "Binær Divisjon"
		start_experience_factor = 0.2
		start_equipment_factor = 0.3

	}

	division = { # "4. Divisjon"
		division_name = {
				is_name_ordered = yes
				name_order = 4
		}
		location = 4167
		division_template = "Binær Divisjon"
		start_experience_factor = 0.2
		start_equipment_factor = 0.3

	}

	division = { # "5. Divisjon"
		division_name = {
				is_name_ordered = yes
				name_order = 5
		}
		location = 4167
		division_template = "Binær Divisjon"
		start_experience_factor = 0.2
		start_equipment_factor = 0.3

	}
	division = {
		name = "3. Dragonregiment"
		location = 4167
		division_template = "Dragonregiment"
		start_experience_factor = 0.2
		start_equipment_factor = 0.3

	}

	division = { # "6. Divisjon"
		division_name = {
				is_name_ordered = yes
				name_order = 6
		}
		location = 4167
		division_template = "Binær Divisjon"
		start_experience_factor = 0.2
		start_equipment_factor = 0.3

	}
	division = {
		name = "Finnmark Brigaden"
		location = 4167
		division_template = "Binær Divisjon"
		start_experience_factor = 0.2
		start_equipment_factor = 0.3

	}
}

air_wings = {
	### Luftforsvaret -- Oslo
	91 = {
		# Had a handful of Fokker C-Vd bombers in both bomber and recon role,
		#   plus Tiger Moth trainers used in various roles.
		#   This represents what was active in a combat role
		tac_bomber_equipment_0 =  {
			owner = "NOR"
			amount = 18
		}
	}
}
instant_effect = {
	add_equipment_production = {
		equipment = {
			type = infantry_equipment_1
			creator = "NOR"
		}
		requested_factories = 1
		progress = 0.37
		efficiency = 100
	}
	add_equipment_production = {
		equipment = {
			type = support_equipment_1
			creator = "NOR"
		}
		requested_factories = 1
		progress = 0.54
		efficiency = 100
	}
}