﻿division_template = {
	name = "Arméfördelning"			# Infantry Division - Planned formation for mobilization of divisions, 1937-1940
	division_names_group = SWE_INF_01

	regiments = {
		infantry = { x = 0 y = 0 }
		infantry = { x = 0 y = 1 }
		infantry = { x = 1 y = 0 }
		infantry = { x = 1 y = 1 }
		infantry = { x = 2 y = 0 }
		infantry = { x = 2 y = 1 }
	}
	support = {
		artillery = { x = 0 y = 0 }  # Regiment of 155mm howitzers, 105mm arty
		engineer = { x = 0 y = 1 }
		recon = { x = 0 y = 2 }      # Recon consisted of ACs, motorcycle inf, cavalry
	}
}
division_template = {
	name = "Kavalleribrigaden"  	# Cavalry Brigade
	division_names_group = SWE_CAV_01

	regiments = {
		cavalry = { x = 0 y = 0 }
		cavalry = { x = 0 y = 1 }
		cavalry = { x = 0 y = 2 }
	}
	support = {
		recon = { x = 0 y = 0 }      # Recon consisted of ACs, motorcycle inf, cavalry
	}
}

division_template = {
	name = " Pansarregemente"
	division_names_group = SWE_ARM_01

	regiments = {
		light_armor = { x = 0 y = 0 }
		light_armor = { x = 0 y = 1 }
		light_armor = { x = 0 y = 2 }
	}
	support = {
		recon = { x = 0 y = 0 }      # Recon consisted of ACs, motorcycle inf, cavalry
	}
}
division_template = {
	name = "Militärområde"			# Garrison Force
	division_names_group = SWE_GAR_01
	# For reserve and independent regiments, lower experience and equipment
	regiments = {
		infantry = { x = 0 y = 0 }
		infantry = { x = 0 y = 1 }
		cavalry = { x = 1 y = 0 }
		cavalry = { x = 1 y = 1 }
	}
	priority = 0
}

units = {
	######## LAND UNITS ########
	##### Högkvarteret #####
	# Southern Military District
	division = { # "I. Arméfördelning"
		division_name = {
			is_name_ordered = yes
			name_order = 1
		}
		location = 677 # Kristianstad
		division_template = "Arméfördelning"
		start_experience_factor = 0.3
		start_equipment_factor = 0.3

	}
	division = {
		name = "Södra Militärområde"
		location = 677 # Kristianstad
		division_template = "Militärområde"
		start_experience_factor = 0.2
		start_equipment_factor = 0.3

	}
	# Northern Military District
	division = { # "VI. Arméfördelning"
		division_name = {
			is_name_ordered = yes
			name_order = 6
		}
		location = 3402 # Osterund
		division_template = "Arméfördelning"
		start_experience_factor = 0.3
		start_equipment_factor = 0.3
	}
	division = {
		name = "Norra Militärområde"
		location = 3402 # Osterund
		division_template = "Militärområde"
		start_experience_factor = 0.2
		start_equipment_factor = 0.3
	}
	# Western Military District
	division = { # "III. Arméfördelning"
		division_name = {
			is_name_ordered = yes
			name_order = 3
		}
		location = 962 # Skövde
		division_template = "Arméfördelning"
		start_experience_factor = 0.3
		start_equipment_factor = 0.3

	}
	division = {
		name = "Västra Militärområde"
		location = 962 # Skovde
		division_template = "Militärområde"
		start_experience_factor = 0.2
		start_equipment_factor = 0.3

	}
	# Eastern Military District
	division = { # "IV. Arméfördelning"
		division_name = {
			is_name_ordered = yes
			name_order = 4
		}
		location = 962 #Stockholm
		division_template = "Arméfördelning"
		start_experience_factor = 0.3
		start_equipment_factor = 0.3
	}
	division = {
		name = "Kavalleribrigaden"
		location = 962 #Stockholm
		division_template = "Kavalleribrigaden"
		start_experience_factor = 0.3
		start_equipment_factor = 0.3

	}
	division = {
		name = "Östra Militärområde"
		location = 962 #Stockholm
		division_template = "Militärområde"
		start_experience_factor = 0.2
		start_equipment_factor = 0.3
	}
	# Upper Northern Military District
	division = { # "V. Arméfördelning"
		division_name = {
			is_name_ordered = yes
			name_order = 5
		}
		location = 962 # Boden
		division_template = "Arméfördelning"
		start_experience_factor = 0.3
		start_equipment_factor = 0.3
	}
	division = {
		name = "Övre Norrland Militärområde"
		location = 962 # Boden
		division_template = "Militärområde"
		start_experience_factor = 0.2
		start_equipment_factor = 0.3
	}

	division = {
		name = "Gotlands Militärområde"
		location = 962 # Gotland
		division_template = "Militärområde"
		start_experience_factor = 0.2
		start_equipment_factor = 0.3
	}
}

### Flygvapnet ###
air_wings = {
	125 = {
		# 1. Bombflyggruppen -- Hawker Harts
		CAS_equipment_1 = {
			owner = "SWE"
			amount = 36
		}
		# 5. Jaktflyggruppen -- Bristol Bulldogs, Svenska Jaktfalks, Centrala Malmslatts
		fighter_equipment_0 =  {
			owner = "SWE"
			amount = 30
		}
		# 2. Torpedflyggruppen -- Heinkel HD 16s
		cv_nav_bomber_equipment_1 =  {
			owner = "SWE"
			amount = 12
		}
	}
}

### Starting Production ###
instant_effect = {
	add_equipment_production = {
		equipment = {
			type = infantry_equipment_1
			creator = "SWE"
		}
		requested_factories = 1
		progress = 0.77
		efficiency = 100
	}
	add_equipment_production = {
		equipment = {
			type = support_equipment_1
			creator = "SWE"
		}
		requested_factories = 1
		progress = 0.21
		efficiency = 100
	}
}