units = {
	##### PFU Totenkopf #####
	division= {
		name = "SS-Totenkopf"
		location = 8469
		division_template = "Panzer-Division"
		start_experience_factor = 0.5
		start_equipment_factor = 0.1
	}
}
